File,Total defect,Total Fix,Total bad fix
lib/Tesseract.2015.07.14.v.0.js,2,0,0
src/Tesseract.js,2,2,0
lib/Tesseract_dev.js,0,0,0
lib/Tesseract.2015.07.25.v0.js,0,0,0
src/common/circularize.js,3,0,0
src/worker/loadLanguage.js,3,0,0
src/worker.js,2,0,0
lib/worker.2015.07.15.v.0.js,1,0,0
worker/worker.js,2,1,0
src/worker/desaturate.js,0,0,0
examples/node/basic.js,4,2,2
src/worker/fileSizes.js,0,0,0
src/worker/detect.js,3,0,0
src/shared/circularize.js,3,0,0
src/worker/circularize.js,0,0,0
examples/node/cosmic.png,2,0,0
src/worker/db.js,3,0,0
examples/file-input/README.md,0,0,0
lib/Tesseract.2015.07.14.v.asdf.js,2,0,0
src/shared/dump.js,3,0,0
src/common/worker.js,5,2,2
src/browser/worker.js,3,0,0
.babelrc,1,0,0
src/common/dump.js,3,0,0
lib/Tesseract..js,2,0,0
lib/worker.2015.07.15.v.3.js,0,1,0
.gitignore,3,0,0
examples/file-input/basic.html,1,0,0
tesseract_lang_list.md,3,0,0
README.md,3,12,0
lib/Tesseract.2015.07.15.v.3.js,0,2,0
src/browser/index.js,3,0,0
src/node/worker.js,3,0,0
lib/worker.2015.07.25.v0.js,0,0,0
devServer.js,3,0,0
tesseract_parameters.md,3,0,0
src/worker/index.js,3,0,0
package.json,8,1,1
lib/Tesseract.2015.07.15.v5.js,0,0,0
example.htm,2,0,0
lib/Tesseract.js,3,0,0
src/browser/lang.js,4,1,0
lib/worker.2015.07.26.js,0,0,0
lib/Tesseract.2015.07.14.v..js,2,0,0
src/common/desaturate.js,3,0,0
src/common/langdata.json,3,0,0
lib/Tesseract.2015.07.14.v.1.js,2,0,0
dist/README.md,2,0,0
webpack.config.prod.js,3,0,0
src/node/lang.js,4,1,1
worker.js,0,0,0
lib/Tesseract.2015.07.15.v4.js,0,2,0
dist/worker.js,4,3,1
Tesseract.js,0,0,0
src/index.js,5,2,1
madeline.js,0,0,0
bify,2,0,0
src/worker/recognize.js,3,0,0
lib/Tesseract.2015.07.14.js,2,0,0
examples/file-input/demo.html,3,1,0
LICENSE.md,0,0,0
src/shared/fileSizes.js,3,0,0
examples/node/detect.js,3,2,2
index.html,3,0,0
worker_src/madeline.js,1,0,0
worker_src/worker.js,4,2,0
examples/node/test.js,4,0,0
compile,2,0,0
src/shared/desaturate.js,3,0,0
lib/Tesseract.2015.07.26.js,0,0,0
src/common/job.js,2,1,0
docs/tesseract_parameters.md,3,1,0
docs/tesseract_lang_list.md,3,0,0
lib/Tesseract.2015.07.15.v.0.js,2,0,0
demo.gif,0,0,0
src/node/index.js,5,3,1
dist/tesseract.js,3,1,0
webpack.config.dev.js,3,0,0
src/worker/dump.js,0,0,0
