File,Total defect,Total Fix,Total bad fix
PowerEditor/installer/configModel.xml,221,1,0
PowerEditor/bin/plugins/APIs/perl.xml,3,0,0
PowerEditor/bin/plugins/APIs/c.xml,3,0,0
scintilla/win32/ScintRes.rc,8,1,1
scintilla/src/LexCOBOL.cxx,2,0,0
PowerEditor/bin/themes/Bespin.xml,5,0,0
PowerEditor/src/WinControls/ContextMenu/ContextMenu.cpp,31,1,1
PowerEditor/src/jsoncpp/test/data/test_string_unicode_03.expected,1,0,0
scintilla/macosx/TRect.h,2,1,1
scintilla/lexers/LexPOV.cxx,2,0,0
PowerEditor/src/icons/supp_on.ico,221,0,0
scintilla/src/Decoration.cxx,6,1,1
PowerEditor/installer/nativeLang/welsh.xml,2,0,0
PowerEditor/src/WinControls/TreeView/TreeView.h,234,1,1
scintilla/src/LineMarker.cxx,5,1,1
PowerEditor/misc/npp.help/HTML/Search Shortcuts.html,2,0,0
PowerEditor/misc/npp.help/HTML/Commenting.html,0,0,0
scintilla/test/unit/catch.hpp,0,0,0
PowerEditor/src/jsoncpp/test/data/test_object_04.expected,1,0,0
PowerEditor/src/MISC/Process/Process.h,274,4,4
PowerEditor/misc/npp.help/HTML/External Lexers.html,0,0,0
PowerEditor/installer/stylesLexerModel.xml,221,2,0
PowerEditor/src/icons/syncH_on.ico,221,0,0
scintilla/cocoa/SciTest.mk,2,0,0
scintilla/src/ContractionState.cxx,5,1,1
PowerEditor/src/icons/saveAll.bmp,221,0,0
PowerEditor/installer/APIs/lisp.xml,3,0,0
PowerEditor/src/WinControls/Preference/preferenceDlg.h.bak,0,0,0
PowerEditor/src/ScitillaComponent/UserDefineDialog.rc,269,7,5
scintilla/src/LexMSSQL.cxx,5,0,0
PowerEditor/misc/npp.help/HTML/Patches.html,1,1,1
scintilla/doc/ScintillaDoc.html,8,1,1
PowerEditor/src/uchardet/nsLatin1Prober.cpp,2,0,0
scintilla/src/LexHTML.cxx.bak,0,0,0
PowerEditor/installer/nativeLang/Latvian.xml,2,2,2
PowerEditor/src/uchardet/uchardet.cpp,3,0,0
PowerEditor/src/fonts/sourceCodePro/SourceCodePro-Regular.otf,1,1,0
PowerEditor/bin/plugins/APIs/vb.xml,3,0,0
CONTRIBUTING.md,0,1,0
PowerEditor/src/WinControls/FunctionList/functionParser.cpp,35,5,0
PowerEditor/src/icons/syncH_dis.ico,221,0,0
PowerEditor/misc/npp.help/HTML/Credits.html,0,0,0
scintilla/win32/SciTE.properties,5,0,0
PowerEditor/src/jsoncpp/test/jsonchecker/fail27.json,1,0,0
scintilla/scripts/LexGen.py,1,1,1
PowerEditor/src/jsoncpp/test/jsonchecker/fail13.json,1,0,0
PowerEditor/src/WinControls/AboutDlg/AboutDlg.cpp,276,12,8
PowerEditor/installer/nativeLang/azerbaijani.xml,2,1,1
PowerEditor/bin/themes/Plastic Code Wrap.xml,5,0,0
PowerEditor/src/icons/playrecord_m_dis.ico,221,0,0
PowerEditor/src/icons/CVS/Entries.Extra.Old,0,0,0
PowerEditor/src/jsoncpp/src/test_lib_json/jsontest.h,1,0,0
PowerEditor/misc/npp.help/HTML/Searching.html,0,0,0
scintilla/lexers/LexPerl.cxx,3,1,1
PowerEditor/src/jsoncpp/makerelease.py,1,0,0
PowerEditor/installer/themes/Hello Kitty.xml,3,4,0
scintilla/src/LexCsound.cxx,5,0,0
PowerEditor/Test/FunctionList/functionList.xsd,0,0,0
PowerEditor/bin/plugins/QuickText.dll,0,0,0
PowerEditor/src/icons/CVS/Repository,0,0,0
PowerEditor/src/icons/stopRecord.bmp,221,0,0
PowerEditor/installer/nativeLang/ukrainian.xml,4,1,0
readmeFirst.txt,1,3,1
scintilla/macosx/QuartzTextStyleAttribute.h,2,1,1
PowerEditor/installer/themes/Plastic Code Wrap.xml,3,4,0
PowerEditor/src/WinControls/ColourPicker/ColourPopup.aps,0,0,0
scintilla/lexers/LexSQL.cxx,3,1,1
scintilla/include/WindowAccessor.h,5,0,0
PowerEditor/src/font/LINEDRAW.TTF,222,0,0
scintilla/test/unit/LICENSE_1_0.txt,0,0,0
PowerEditor/gcc/resources.rc,234,2,1
PowerEditor/bin/themes/Deep Black.xml,5,0,0
scintilla/src/LexD.cxx,5,0,0
PowerEditor/src/xmlUpdater/makefile,0,0,0
PowerEditor/installer/nativeLang/punjabi.xml,0,0,0
scintilla/test/unit/testSplitVector.cxx,6,2,2
PowerEditor/src/jsoncpp/test/data/test_array_01.expected,1,0,0
scintilla/qt/ScintillaEditPy/sepbuild.py,1,1,1
PowerEditor/src/icons/redo_off.ico,221,0,0
scintilla/src/LexPerl.cxx,6,0,0
PowerEditor/gcc/delete.bat,222,1,0
scintilla/src/KeyMap.h,5,1,1
PowerEditor/installer/themes/Solarized-light.xml,4,5,0
PowerEditor/src/uchardet/nsBig5Prober.cpp,3,0,0
PowerEditor/src/WinControls/TaskList/TaskList.cpp,279,9,6
PowerEditor/src/jsoncpp/test/data/test_basic_05.json,1,0,0
PowerEditor/src/ScitillaComponent/UserDefineDialog.aps,0,0,0
PowerEditor/bin/themes/Twilight.xml,5,0,0
scintilla/version.txt,8,1,1
PowerEditor/src/tools/IExplorerShell/makefile,221,0,0
scintilla/src/LexOthers.cxx,6,0,0
PowerEditor/src/icons/findReplace.bmp,221,0,0
scintilla/README,6,0,0
scintilla/src/EditModel.cxx,0,0,0
PowerEditor/installer/bin/xmlUpdater.exe,221,1,0
scintilla/qt/ScintillaEditPy/typesystem_ScintillaEdit.xml.template,1,1,1
PowerEditor/installer/nativeLang/kazakh.xml,8,0,0
PowerEditor/src/Notepad_plus.cpp.bak,0,0,0
PowerEditor/src/uchardet/nsSBCharSetProber.cpp,3,0,0
PowerEditor/src/WinControls/shortcut/RunMacroDlg.rc,258,2,1
scintilla/test/unit/testSparseState.cxx,5,1,1
PowerEditor/src/WinControls/ColourPicker/ColourPopup.rc,256,1,1
PowerEditor/src/NppBigSwitch.cpp,175,33,17
PowerEditor/src/jsoncpp/test/jsonchecker/fail32.json,1,0,0
PowerEditor/src/cursors/drag_plus.cur,222,0,0
PowerEditor/installer/nativeLang/esperanto.xml,5,1,1
PowerEditor/src/ScitillaComponent/FunctionCallTip.cpp,283,10,4
PowerEditor/src/WinControls/WindowsDlg/WindowsDlg.h,301,6,4
PowerEditor/src/icons/saverecord_off.ico,221,0,0
PowerEditor/bin/plugins/APIs/vhdl.api,0,0,0
PowerEditor/src/jsoncpp/test/data/test_array_02.json,1,0,0
scintilla/win32/PlatWin.cxx,8,1,1
PowerEditor/installer/zipped.package.release/unicode/localization/placeholder,0,0,0
PowerEditor/src/tools/NppShell/src/Bitmap.h,3,1,1
scintilla/lexers/LexTxt2tags.cxx,2,0,0
PowerEditor/visual.net/notepadPlus.vs2005.vcproj,0,0,0
PowerEditor/src/jsoncpp/test/data/test_object_02.json,1,0,0
PowerEditor/src/icons/stoprecord_off.ico,221,0,0
scintilla/lexers/LexECL.cxx,1,1,1
scintilla/macosx/PlatMacOSX.cxx,3,1,1
scintilla/test/examples/x.rb.styled,1,1,1
PowerEditor/installer/nativeLang/slovakA.xml,6,0,0
scintilla/src/LexBash.cxx,6,0,0
scintilla/src/LexMetapost.cxx,5,0,0
scintilla/win32/PlatWin.h,1,1,1
PowerEditor/src/WinControls/ColourPicker/ColourPopupResource.h,233,0,0
PowerEditor/src/jsoncpp/test/data/test_string_02.expected,1,0,0
PowerEditor/src/jsoncpp/test/data/test_real_02.json,1,0,0
PowerEditor/src/jsoncpp/test/data/test_basic_08.json,1,0,0
scintilla/test/examples/x.vb.styled,5,1,1
PowerEditor/src/jsoncpp/test/data/test_integer_04.expected,1,0,0
PowerEditor/src/ScitillaComponent/columnEditor.h,264,1,1
scintilla/win32/scintilla.mak,12,2,1
PowerEditor/src/WinControls/ColourPicker/WordStyleDlg.h.dockable,1,1,1
PowerEditor/src/tools/ChangeIcon/ChangeIcon.vcproj,1,0,0
scintilla/src/KeyMap.cxx,6,1,1
scintilla/cocoa/ScintillaListBox.h,1,0,0
PowerEditor/misc/npp.help/HTML/Incremental search.html,1,1,1
PowerEditor/misc/npp.help/HTML/Images/Screenshots/fif.png,0,0,0
PowerEditor/src/tools/IExplorerShell/nppIExplorerShell.cpp,222,0,0
PowerEditor/src/tools/NppShell/src/Bitmap.cpp,3,2,1
PowerEditor/bin/plugins/NPPTextFX.ini,0,0,0
scintilla/macosx/TCarbonEvent.cxx,2,1,1
PowerEditor/misc/npp.help/HTML/File Shortcuts.html,2,0,0
PowerEditor/src/jsoncpp/test/data/test_integer_01.expected,1,0,0
PowerEditor/misc/npp.help/HTML/Edit Shortcuts.html,2,0,0
PowerEditor/src/jsoncpp/src/lib_json/sconscript,1,0,0
PowerEditor/src/jsoncpp/test/jsonchecker/fail25.json,1,0,0
PowerEditor/bin/themes/Vibrant Ink.xml,5,0,0
scintilla/src/LexAsn1.cxx,5,0,0
scintilla/test/unit/testRunStyles.cxx,6,2,2
PowerEditor/src/icons/syncV_on.ico,221,0,0
PowerEditor/installer/nativeLang/danish.xml,14,6,3
PowerEditor/src/TinyXml/tinystr.h,262,3,3
PowerEditor/src/TinyXml/tinyXmlA/tinystrA.cpp,228,1,1
scintilla/lexlib/Accessor.cxx,3,1,1
PowerEditor/src/WinControls/Window.h.bak,0,0,0
scintilla/lexers/LexOthers.cxx,3,1,1
PowerEditor/installer/themes/vim Dark Blue.xml,3,4,0
PowerEditor/src/WinControls/WindowsDlg/WinMgr.h,230,0,0
PowerEditor/bin/plugins/doc/NppExec.txt,0,0,0
PowerEditor/src/icons/funclstReload.bmp,4,0,0
PowerEditor/bin/plugins/APIs/python.api,0,0,0
PowerEditor/src/notepad++.exe.manifest,222,1,1
PowerEditor/misc/npp.help/HTML/Images/Screenshots/multiview.png,0,0,0
PowerEditor/src/MISC/Common/LongRunningOperation.cpp,9,3,2
scintilla/qt/ScintillaEdit/ScintillaDocument.cpp,1,1,1
PowerEditor/misc/npp.help/HTML/Continued search.html,2,0,0
PowerEditor/bin/plugins/APIs/nsis.xml,3,0,0
PowerEditor/src/uchardet/nsEscCharsetProber.h,1,0,0
PowerEditor/src/WinControls/DockingWnd/DockingManager.cpp,297,11,8
PowerEditor/src/ScitillaComponent/ScintillaEditView.h,388,50,35
PowerEditor/installer/APIs/nsis.xml,3,0,0
PowerEditor/src/jsoncpp/src/jsontestrunner/main.cpp,1,0,0
PowerEditor/src/MISC/md5/md5.h,1,0,0
PowerEditor/installer/nativeLang/uzbekCyrillic.xml,4,0,0
PowerEditor/src/jsoncpp/test/data/test_preserve_comment_01.json,1,0,0
PowerEditor/misc/npp.help/HTML/Activating.html,0,0,0
PowerEditor/src/WinControls/AnsiCharPanel/ansiCharPanel.rc,10,1,1
PowerEditor/src/WinControls/DocumentMap/documentSnapshot.h,4,0,0
scintilla/src/AutoComplete.h,5,1,1
PowerEditor/src/icons/wrap_dis.ico,221,0,0
scintilla/cocoa/ScintillaTest/AppController.h,2,0,0
PowerEditor/src/icons/save_off.ico,221,0,0
PowerEditor/src/jsoncpp/test/data/test_real_04.json,1,0,0
PowerEditor/src/WinControls/TaskList/TaskListDlg_rc.h,222,0,0
PowerEditor/src/WinControls/shortcut/shortcut.cpp,302,16,12
PowerEditor/bin/plugins/APIs/vb.api,0,0,0
PowerEditor/src/jsoncpp/test/data/test_array_01.json,1,0,0
scintilla/src/LexLisp.cxx,5,0,0
PowerEditor/src/icons/saveFile.bmp,221,0,0
PowerEditor/misc/npp.help/Table of Contents.hhc,6,1,1
PowerEditor/src/jsoncpp/scons-tools/srcdist.py,1,0,0
PowerEditor/installer/APIs/perl.xml,3,0,0
scintilla/src/LexAda.cxx,5,0,0
PowerEditor/misc/npp.help/HTML/Images/Screenshots/srwindow.png,5,0,0
scintilla/src/CaseFolder.cxx,1,1,1
PowerEditor/src/icons/xxxx.bmp,223,0,0
scintilla/lexers/LexMySQL.cxx,5,1,1
PowerEditor/src/WinControls/TabBar/ControlsTab.cpp,241,1,1
PowerEditor/src/jsoncpp/include/json/forwards.h,1,0,0
PowerEditor/misc/npp.help/HTML/Images/fold_min.png,0,0,0
PowerEditor/installer/externalTools/md5.src/md5s.png,1,1,1
PowerEditor/src/WinControls/Grid/ShortcutMapper_rc.h,263,1,1
PowerEditor/src/WinControls/shortcut/shortcut.rc,261,1,1
PowerEditor/src/WinControls/ClipboardHistory/clipboardHistoryPanel.h,17,0,0
scintilla/lexers/LexLout.cxx,2,0,0
PowerEditor/src/tools/nppCM/resource.h,224,0,0
PowerEditor/src/icons/cut_dis.ico,221,0,0
PowerEditor/src/dpiAware.manifest,0,0,0
PowerEditor/misc/npp.help/HTML/Document Switcher.html,0,0,0
PowerEditor/src/WinControls/FunctionList/functionListPanel.h,16,1,1
PowerEditor/src/WinControls/AnsiCharPanel/ansiCharPanel.h,23,2,2
scintilla/lexers/LexSpecman.cxx,2,0,0
PowerEditor/src/Parameters.cpp,441,101,49
PowerEditor/src/ScitillaComponent/xmlMatchedTagsHighlighter.h,271,5,4
scintilla/src/CharClassify.h,5,1,1
PowerEditor/bin/plugins/APIs/sql.xml,3,0,0
PowerEditor/src/uchardet/Big5Freq.tab,1,0,0
PowerEditor/src/jsoncpp/src/lib_json/json_valueiterator.inl,1,0,0
PowerEditor/misc/npp.help/HTML/Images/Toolbar/closeFile.png,0,0,0
PowerEditor/installer/nativeLang/hebrew.xml,1,0,0
PowerEditor/misc/chameleon/chameleon-pencil-200.png,4,0,0
PowerEditor/installer/images/headerLeft.bmp,222,0,0
PowerEditor/bin/doLocalConf.xml,0,1,0
PowerEditor/installer/nativeLang/farsi.xml,7,1,0
PowerEditor/bin/plugins/APIs/css.xml,3,0,0
PowerEditor/src/MISC/Exception/MiniDumper.cpp,231,1,1
PowerEditor/installer/nativeLang/sinhala.xml,1,0,0
.gitignore,11,4,1
scintilla/cocoa/common.mk,2,0,0
scintilla/lexers/LexEiffel.cxx,2,0,0
PowerEditor/installer/nativeLang/english.xml,38,8,2
PowerEditor/installer/nativeLang/afrikaans.xml,4,0,0
PowerEditor/misc/npp.help/HTML/Wrapping.html,0,0,0
PowerEditor/bin/plugins/APIs/cpp.xml,3,1,0
PowerEditor/src/jsoncpp/test/data/test_string_unicode_01.json,1,0,0
PowerEditor/src/uchardet/nsEUCJPProber.cpp,3,0,0
PowerEditor/src/jsoncpp/test/data/test_basic_02.expected,1,0,0
PowerEditor/misc/npp.help/HTML/Images/Toolbar/showPannel.png,0,0,0
PowerEditor/misc/npp.help/HTML/Images/Screenshots/goto.png,0,0,0
PowerEditor/src/WinControls/Preference/preference_rc.h.bak,0,0,0
scintilla/lexlib/CharacterCategory.h,1,1,1
PowerEditor/misc/npp.help/HTML/Images/Toolbar/print.png,0,0,0
PowerEditor/misc/npp.help/HTML/Images/Screenshots/preferences.png,1,0,0
PowerEditor/src/ScitillaComponent/columnEditor.cpp,280,9,6
PowerEditor/misc/npp.help/HTML/Mouse Gestures.html,2,0,0
PowerEditor/src/uchardet/CharDistribution.cpp,4,0,0
PowerEditor/src/jsoncpp/test/rununittests.py,1,0,0
PowerEditor/misc/npp.help/HTML/Status Bar.html,3,0,0
PowerEditor/installer/zipped.package.release/ansi/plugins/doc/placeholder,0,0,0
PowerEditor/src/icons/paste_on.ico,221,0,0
PowerEditor/installer/nativeLang/mongolian.xml,0,0,0
PowerEditor/src/icons/zoomIn_off.ico,221,0,0
PowerEditor/misc/npp.help/HTML/Dockable Windows.html,2,0,0
PowerEditor/src/jsoncpp/test/data/test_basic_02.json,1,0,0
PowerEditor/src/WinControls/OpenSaveFileDialog/FileDialog.cpp,287,16,11
PowerEditor/src/WinControls/TreeView/TreeView.cpp,241,1,1
scintilla/test/examples/x.lua,1,1,1
PowerEditor/installer/nsisInclude/tools.nsh,1,3,0
PowerEditor/installer/externalTools/md5.src/md5.c,1,1,1
scintilla/cocoa/ScintillaTest/ScintillaTest.xcodeproj/project.pbxproj,3,1,1
PowerEditor/src/WinControls/StatusBar/StatusBar.cpp,282,3,2
PowerEditor/src/EncodingMapper.cpp,41,6,3
PowerEditor/src/MISC/Process/Processus.h,6,0,0
PowerEditor/misc/npp.help/HTML/Replacing.html,0,0,0
PowerEditor/src/icons/new_off.ico,221,0,0
scintilla/src/LexAU3.cxx,5,0,0
scintilla/src/WindowAccessor.cxx,6,0,0
scintilla/macosx/ExtInput.h,2,1,1
PowerEditor/src/icons/project_folder_open.bmp,2,1,0
PowerEditor/installer/nativeLang/estonian.xml,0,0,0
scintilla/include/SciLexer.h.bak,0,0,0
PowerEditor/src/WinControls/Grid/BabyGrid.h,260,1,1
scintilla/lexlib/StyleContext.h,17,1,1
scintilla/qt/ScintillaEditBase/PlatQt.cpp,1,1,1
PowerEditor/misc/npp.help/HTML/Images/Screenshots/save_shortcut.png,0,0,0
scintilla/scripts/Face.py,1,1,1
scintilla/cocoa/checkbuildosx.sh,1,1,1
scintilla/test/examples/x.pl.styled,1,1,1
PowerEditor/src/ScitillaComponent/FindReplaceDlg.rc,294,16,10
PowerEditor/src/icons/project_work_space.bmp,3,1,0
scintilla/src/RunStyles.h,6,1,1
PowerEditor/src/jsoncpp/test/jsonchecker/fail19.json,1,0,0
PowerEditor/src/WinControls/FunctionList/functionListPanel.rc,2,0,0
PowerEditor/bin/plugins/NPPTextFX/libTidy.dll,0,0,0
PowerEditor/src/tools/nppCM/nppcm.h,224,0,0
PowerEditor/src/icons/startrecord_on.ico,221,0,0
scintilla/win32/deps.mak,5,1,1
PowerEditor/src/uchardet/JISFreq.tab,1,0,0
scintilla/src/SVector.h,5,1,1
PowerEditor/src/jsoncpp/version,1,0,0
scintilla/src/LexSmalltalk.cxx,5,0,0
PowerEditor/src/WinControls/DockingWnd/Gripper.cpp.bak,0,0,0
scintilla/src/LexVerilog.cxx,6,0,0
PowerEditor/installer/themes/Choco.xml,3,4,0
scintilla/src/LexAPDL.cxx,5,0,0
scintilla/include/SciLexer.h,44,10,7
scintilla/lexlib/LexerBase.cxx,3,1,1
PowerEditor/src/WinControls/DockingWnd/DockingSplitter.cpp,274,5,2
scintilla/lexers/LexAPDL.cxx,2,0,0
PowerEditor/visual.net/notepadPlus.vc.7.0.vcproj,291,5,4
PowerEditor/installer/nativeLang/portuguese.xml,7,3,1
PowerEditor/src/MISC/Process/ProcessAvecThread/ProcessThread.h,226,1,0
PowerEditor/src/icons/project_file_invalid.bmp,2,1,0
PowerEditor/src/WinControls/ColourPicker/WordStyleDlg.rc,260,5,2
PowerEditor/src/jsoncpp/test/data/test_integer_03.json,1,0,0
scintilla/src/LexForth.cxx,5,0,0
PowerEditor/src/WinControls/WindowsDlg/WindowsDlg.aps,0,0,0
scintilla/cocoa/res/mac_cursor_flipped.png,1,0,0
PowerEditor/src/jsoncpp/include/json/reader.h,1,0,0
PowerEditor/src/WinControls/DockingWnd/common_func.cpp.bak,0,0,0
scintilla/macosx/SciTest/version.plist,3,1,1
PowerEditor/src/jsoncpp/test/data/test_object_03.json,1,0,0
PowerEditor/installer/APIs/javascript.xml,3,0,0
PowerEditor/installer/nativeLang/vietnamese.xml,0,0,0
PowerEditor/src/WinControls/DockingWnd/DropData.h,224,0,0
PowerEditor/src/icons/project_work_space_dirty.bmp,3,1,0
PowerEditor/src/WinControls/DockingWnd/Gripper.cpp,295,9,4
PowerEditor/src/MISC/Common/precompiledHeaders.h,25,0,0
PowerEditor/installer/nativeLang/german.xml,13,4,0
scintilla/lexers/LexAU3.cxx,3,1,1
PowerEditor/misc/npp.help/HTML/Images/radioon.png,0,0,0
PowerEditor/misc/npp.help/HTML/Images/Toolbar/find.png,0,0,0
PowerEditor/misc/npp.help/HTML/MRU.html,0,0,0
PowerEditor/src/uchardet/nsEUCTWProber.h,1,0,0
PowerEditor/bin/plugins/APIs/nsis.api,0,0,0
PowerEditor/src/WinControls/Grid/BabyGrid.cpp,293,11,6
PowerEditor/src/uchardet/nsPkgInt.h,1,0,0
PowerEditor/installer/themes/Vibrant Ink.xml,3,4,0
PowerEditor/src/icons/readonly.ico,221,0,0
scintilla/src/LexSpice.cxx,5,0,0
PowerEditor/src/jsoncpp/test/data/test_basic_08.expected,1,0,0
PowerEditor/src/jsoncpp/src/lib_json/json_writer.cpp,1,0,0
scintilla/src/LexASY.cxx,5,0,0
PowerEditor/misc/npp.help/HTML/Images/Screenshots/column_editor.png,0,0,0
PowerEditor/src/icons/redo.bmp,221,0,0
scintilla/include/ScintillaWidget.h,7,1,1
PowerEditor/src/jsoncpp/test/data/test_basic_06.json,1,0,0
PowerEditor/installer/nativeLang/czech.xml,17,2,2
scintilla/lexlib/CharacterSet.cxx,2,0,0
scintilla/cocoa/ScintillaCocoa.mm,3,1,1
PowerEditor/src/WinControls/Preference/preferenceDlg.h,287,4,2
PowerEditor/installer/themes/Obsidian.xml,7,5,0
PowerEditor/misc/npp.help/HTML/Printing.html,1,1,1
PowerEditor/src/WinControls/ColourPicker/ColourPopup.cpp,281,5,3
PowerEditor/src/jsoncpp/test/data/test_real_05.json,1,0,0
PowerEditor/bin/plugins/APIs/java.api,0,0,0
PowerEditor/src/tools/NppShell/src/icon/nppNewIcon.ico,0,0,0
PowerEditor/src/jsoncpp/test/data/test_basic_09.json,1,0,0
PowerEditor/bin/plugins/APIs/html.xml,3,0,0
PowerEditor/src/WinControls/TabBar/TabBar.cpp.bak,0,0,0
PowerEditor/installer/nsisInclude/globalDef.nsh,0,1,0
PowerEditor/installer/images/npp_inst.ico,222,1,0
PowerEditor/src/jsoncpp/test/data/test_string_unicode_05.json,1,0,0
scintilla/lexers/LexModula.cxx,2,1,1
scintilla/test/xite.py,5,1,1
scintilla/doc/SciWord.jpg,5,0,0
scintilla/src/StyleContext.cxx,5,0,0
PowerEditor/src/icons/CVS/Entries.Extra,0,0,0
PowerEditor/src/MISC/Common/LongRunningOperation.h,9,1,1
PowerEditor/src/IExplorerShell/makefile,0,0,0
scintilla/test/examples/x.rb,1,1,1
PowerEditor/src/WinControls/TabBar/ControlsTab.h,275,4,3
PowerEditor/src/jsoncpp/test/data/test_basic_01.json,1,0,0
PowerEditor/src/ScitillaComponent/UserDefineDialog.cpp,328,15,8
scintilla/lexers/LexMPT.cxx,3,1,1
PowerEditor/src/jsoncpp/test/jsonchecker/fail8.json,1,0,0
PowerEditor/installer/nativeLang/aranese.xml,4,0,0
PowerEditor/src/WinControls/VerticalFileSwitcher/VerticalFileSwitcher.cpp,37,3,0
PowerEditor/src/uchardet/README.TXT,1,0,0
scintilla/src/DocumentAccessor.h,5,0,0
PowerEditor/src/winmain.cpp,360,33,18
PowerEditor/src/jsoncpp/scons-tools/targz.py,1,0,0
scintilla/doc/Design.html,5,0,0
scintilla/test/examples/x.asp.styled,5,1,1
scintilla/lexlib/LexerNoExceptions.cxx,2,0,0
PowerEditor/src/icons/find.bmp,221,0,0
PowerEditor/src/Notepad_plus.h,465,73,50
scintilla/scripts/GenerateCharacterCategory.py,1,1,1
PowerEditor/bin/plugins/APIs/c.api,0,0,0
scintilla/test/examples/x.py.styled,5,1,1
scintilla/doc/ScintillaRelated.html,6,1,1
PowerEditor/src/MISC/PluginsManager/PluginsManager.cpp,309,18,10
scintilla/include/KeyWords.h,5,0,0
PowerEditor/src/icons/save_on.ico,221,0,0
PowerEditor/src/tools/NppShell/src/resource.h,3,1,1
PowerEditor/gcc/makefile,234,3,2
PowerEditor/src/icons/fileMonitoring.bmp,3,0,0
PowerEditor/scintilla.original.forUpdating/scintillaUpdatingWorkFlow.txt,0,0,0
PowerEditor/src/jsoncpp/test/data/test_basic_04.json,1,0,0
PowerEditor/src/ScitillaComponent/colors.h,233,2,2
scintilla/cocoa/ScintillaTest/Info.plist,2,0,0
PowerEditor/installer/nativeLang/occitan.xml,4,0,0
PowerEditor/installer/nativeLang/tagalog.xml,6,1,1
PowerEditor/src/WinControls/ContextMenu/ContextMenu.h,266,4,4
scintilla/doc/Markers.png,0,0,0
PowerEditor/installer/nativeLang/bengali.xml,1,0,0
PowerEditor/src/WinControls/ToolTip/ToolTip.cpp,264,4,3
PowerEditor/src/WinControls/DocumentMap/documentMap.rc,13,0,0
scintilla/test/unit/SciTE.properties,5,1,1
PowerEditor/src/jsoncpp/test/data/test_large_01.json,1,0,0
PowerEditor/src/WinControls/StaticDialog/RunDlg/RunDlg.h,266,4,3
PowerEditor/src/WinControls/Preference/preference.rc,317,18,8
scintilla/src/EditView.h,0,0,0
PowerEditor/src/uchardet/nsMBCSGroupProber.cpp,3,0,0
scintilla/src/LexFlagship.cxx,6,0,0
PowerEditor/src/uchardet/nsGB2312Prober.h,1,0,0
PowerEditor/src/WinControls/DockingWnd/CloseUp.bmp,221,0,0
scintilla/src/LexR.cxx,5,0,0
PowerEditor/src/ScitillaComponent/ScintillaCtrls.cpp,55,0,0
PowerEditor/bin/updater/License.txt,0,0,0
PowerEditor/installer/APIs/java.xml,3,0,0
PowerEditor/src/ScitillaComponent/Printer.h,262,2,2
PowerEditor/src/jsoncpp/test/data/test_real_04.expected,1,0,0
scintilla/src/KeyWords.cxx,6,0,0
PowerEditor/src/MISC/crc16/Crc16.h,222,0,0
scintilla/win32/makefile,8,1,1
scintilla/macosx/ScintillaListBox.h,2,1,1
PowerEditor/misc/npp.help/HTML/Overtype.html,0,0,0
PowerEditor/bin/plugins/NPPTextFX/AsciiToEBCDIC.bin,0,0,0
PowerEditor/src/WinControls/PluginsAdmin/pluginsAdmin.rc,0,0,0
PowerEditor/src/uchardet/nscore.h,1,0,0
PowerEditor/installer/nsisInclude/langs4Npp.nsh,0,1,0
scintilla/lexlib/PropSetSimple.h,3,1,1
PowerEditor/src/WinControls/StatusBar/StatusBar.h,274,4,3
PowerEditor/installer/APIs/vb.xml,3,0,0
PowerEditor/src/tools/ChangeIcon/ChangeIcon.cpp,1,1,0
PowerEditor/src/MISC/PluginsManager/PluginsManager.h,300,9,6
scintilla/lexers/LexYAML.cxx,3,1,1
scintilla/qt/ScintillaEditBase/ScintillaEditBase.pro,1,1,1
PowerEditor/installer/nsisInclude/autoCompletion.nsh,1,0,0
PowerEditor/src/icons/find_on.ico,221,0,0
PowerEditor/src/jsoncpp/test/data/test_object_02.expected,1,0,0
PowerEditor/src/icons/closeTabButton.bmp,221,0,0
PowerEditor/installer/packageAll.bat,239,16,7
PowerEditor/src/icons/suppall_on.ico,221,0,0
PowerEditor/src/WinControls/DockingWnd/DockingManager.cpp.bak,0,0,0
PowerEditor/src/icons/npp.ico.new,0,0,0
PowerEditor/src/WinControls/DocumentMap/documentMap.cpp,56,17,11
PowerEditor/src/WinControls/VerticalFileSwitcher/VerticalFileSwitcher.rc,10,0,0
PowerEditor/bin/plugins/NPPTextFX/NPPTextFXdemo.TXT,0,0,0
PowerEditor/bin/ConvertExt.lng,0,0,0
PowerEditor/misc/npp.help/HTML/Images/Toolbar/findReplace.png,0,0,0
PowerEditor/src/Utf8.h,6,1,1
PowerEditor/src/sqlite/sqlite3.h,4,0,0
scintilla/lexers/LexHaskell.cxx,5,1,1
PowerEditor/src/sqlite/sqlite3.c,4,0,0
PowerEditor/src/ScitillaComponent/SmartHighlighter.cpp,276,7,4
PowerEditor/bin/plugins/APIs/perl.api,0,0,0
PowerEditor/misc/npp.help/HTML/index.txt,0,0,0
PowerEditor/src/WinControls/FileBrowser/fileBrowser.rc,8,0,0
PowerEditor/bin/nppIExplorerShell.exe,0,1,0
PowerEditor/src/WinControls/OpenSaveFileDialog/FileDialog.h,270,8,5
scintilla/lexlib/SubStyles.h,1,1,1
scintilla/vcbuild/SciLexer.plg,3,1,1
PowerEditor/src/icons/indentGuide_off.ico,221,0,0
PowerEditor/src/tools/xmlUpdater/xmlUpdater.vcproj,221,0,0
PowerEditor/src/icons/saved.ico.old,221,0,0
scintilla/cocoa/ScintillaCallTip.mm,1,0,0
PowerEditor/src/cursors/drag.cur,222,0,0
PowerEditor/src/WinControls/TrayIcon/trayIconControler.cpp,258,1,1
PowerEditor/src/ScitillaComponent/FindReplaceDlg.aps,0,0,0
scintilla/test/examples/x.d,5,1,1
PowerEditor/misc/npp.help/HTML/Commands.html,0,0,0
scintilla/src/MarginView.h,0,0,0
scintilla/src/LexPowerShell.cxx,6,0,0
PowerEditor/src/Notepad_plus.cpp,568,285,150
scintilla/doc/Lexer.txt,5,0,0
PowerEditor/src/jsoncpp/test/jsonchecker/fail3.json,1,0,0
scintilla/doc/SciRest.jpg,5,0,0
PowerEditor/src/WinControls/DocumentMap/documentSnapshot.cpp,4,1,0
scintilla/src/ViewStyle.cxx,5,1,1
PowerEditor/src/WinControls/AboutDlg/URLCtrl.cpp,274,4,3
PowerEditor/src/uchardet/LangGreekModel.cpp,3,0,0
scintilla/src/CellBuffer.h,6,1,1
PowerEditor/src/fonts/sourceCodePro/SourceCodePro-BoldIt.ttf,0,1,0
PowerEditor/src/jsoncpp/test/jsonchecker/readme.txt,1,0,0
PowerEditor/src/uchardet/nsUniversalDetector.h,1,0,0
PowerEditor/visual.net/no_ms_shit.vsprops,223,0,0
scintilla/lexers/LexSorcus.cxx,2,0,0
PowerEditor/src/WinControls/SplitterContainer/Splitter.h,233,2,0
scintilla/src/LexErlang.cxx,6,0,0
PowerEditor/misc/npp.help/HTML/Loading Sessions.html,0,0,0
scintilla/win32/ScintillaWin.cxx,13,1,1
PowerEditor/src/icons/new_on.ico,221,0,0
PowerEditor/src/icons/playRecord_m.bmp,221,0,0
PowerEditor/bin/plugins/APIs/php.api,0,0,0
PowerEditor/misc/npp.help/HTML/Main website and Forums.html,1,1,1
PowerEditor/src/jsoncpp/doc/roadmap.dox,1,0,0
PowerEditor/installer/nativeLang/french.xml,47,3,2
PowerEditor/installer/nativeLang/tamil.xml,1,1,0
scintilla/qt/ScintillaEditBase/ScintillaQt.h,1,1,1
PowerEditor/misc/npp.help/HTML/Auto Completion.html,1,1,1
PowerEditor/misc/npp.help/HTML/Images/Toolbar/syncH.png,0,0,0
PowerEditor/src/icons/dupli_off.ico,221,0,0
PowerEditor/visual.net/notepadPlus.vs2015.vcxproj,5,5,1
PowerEditor/misc/npp.help/HTML/Images/unsaved.png,0,0,0
PowerEditor/misc/npp.help/Index.hhk,2,0,0
PowerEditor/installer/nsisInclude/uninstall.nsh,1,5,0
PowerEditor/gcc/Makefile.win,2,1,1
PowerEditor/src/WinControls/TaskList/TaskListDlg.h,266,8,3
PowerEditor/misc/npp.help/HTML/Selecting.html,3,0,0
PowerEditor/src/WinControls/ClipboardHistory/clipboardHistoryPanel.cpp,39,4,0
scintilla/doc/index.html,8,1,1
scintilla/cocoa/ScintillaFramework/ScintillaFramework.xcodeproj/project.pbxproj,3,1,1
PowerEditor/src/WinControls/StaticDialog/RunDlg/RunDlg.rc,257,1,1
scintilla/tgzsrc,5,0,0
PowerEditor/misc/npp.help/HTML/Multi View.html,1,0,0
PowerEditor/src/MISC/Common/Common.cpp,302,24,12
scintilla/lexers/LexConf.cxx,3,1,1
scintilla/lexers/LexVisualProlog.cxx,1,1,1
scintilla/src/ExternalLexer.cxx,6,0,0
scintilla/boostregex/AnsiDocumentIterator.h,6,0,0
PowerEditor/src/NppNotification.cpp,151,35,16
PowerEditor/misc/npp.help/HTML/Standard Operations.html,0,0,0
PowerEditor/bin/plugins/APIs/lisp.api,0,0,0
PowerEditor/src/TinyXml/tinystr.cpp,262,3,3
PowerEditor/src/jsoncpp/makefiles/vs71/jsontest.vcproj,1,0,0
PowerEditor/src/WinControls/ReadDirectoryChanges/ReadDirectoryChanges.cpp,6,0,0
PowerEditor/src/icons/copy.bmp,221,0,0
PowerEditor/misc/npp.help/HTML/temp002~.htm,0,0,0
PowerEditor/src/WinControls/TrayIcon/trayIconControler.h,258,1,1
PowerEditor/src/jsoncpp/test/jsonchecker/fail16.json,1,0,0
PowerEditor/src/jsoncpp/test/data/test_object_01.expected,1,0,0
PowerEditor/src/icons/fb_root_open.bmp,1,0,0
scintilla/cocoa/res/mac_cursor_busy.png,1,0,0
PowerEditor/src/jsoncpp/test/data/test_basic_04.expected,1,0,0
PowerEditor/src/Parameters.cpp.bak,0,0,0
scintilla/lexers/LexUser.cxx,17,6,4
scintilla/src/Indicator.h,5,1,1
PowerEditor/src/WinControls/ImageListSet/ImageListSet.h,262,4,2
PowerEditor/src/WinControls/VerticalFileSwitcher/VerticalFileSwitcher.h,20,1,0
PowerEditor/src/WinControls/DockingWnd/Gripper.h,267,4,3
PowerEditor/bin/updater/LICENSE,0,0,0
PowerEditor/src/jsoncpp/test/data/test_basic_03.expected,1,0,0
scintilla/include/SString.h,5,0,0
PowerEditor/src/fonts/sourceCodePro/SourceCodePro-It.ttf,0,1,0
scintilla/src/ScintillaBase.cxx,6,1,1
PowerEditor/installer/nativeLang/uzbek.xml,4,0,0
PowerEditor/installer/nativeLang/aragonese.xml,0,0,0
PowerEditor/src/MISC/Exception/MiniDumper.h,228,0,0
PowerEditor/src/jsoncpp/test/data/test_integer_02.expected,1,0,0
scintilla/src/LexTCL.cxx,5,0,0
PowerEditor/src/ScitillaComponent/Buffer.cpp,371,76,44
PowerEditor/src/MISC/Common/Common.h,299,20,12
PowerEditor/installer/externalTools/md5.src/md5.h,1,1,1
PowerEditor/src/icons/readonly.ico.old,221,0,0
PowerEditor/src/jsoncpp/test/data/test_array_05.json,1,0,0
PowerEditor/src/WinControls/ProjectPanel/TreeView.h,22,2,1
PowerEditor/src/uchardet/nsUTF8Prober.cpp,3,0,0
appveyor-build.cmd,3,2,2
scintilla/src/Selection.cxx,3,1,1
PowerEditor/bin/md5summer.exe,0,0,0
scintilla/src/LexCmake.cxx,5,0,0
scintilla/qt/ScintillaEditBase/ScintillaEditBase.cpp,1,1,1
PowerEditor/src/icons/startrecord_dis.ico,221,0,0
PowerEditor/src/WinControls/ColourPicker/ColourPopup.h,239,1,0
scintilla/src/Catalogue.h,2,0,0
PowerEditor/src/uchardet/nsGB2312Prober.cpp,3,0,0
PowerEditor/src/WinControls/ToolBar/ToolBar.cpp,291,10,7
PowerEditor/misc/npp.help/HTML/Images/checkboxon.png,0,0,0
scintilla/lexers/LexInno.cxx,2,0,0
PowerEditor/src/jsoncpp/test/data/test_array_03.json,1,0,0
scintilla/win32/HanjaDic.cxx,0,0,0
PowerEditor/src/MISC/PluginsManager/Notepad_plus_msgs.h,310,22,12
PowerEditor/misc/npp.help/HTML/Images/Screenshots/autocomp.png,2,0,0
PowerEditor/installer/nativeLang/thai.xml,4,0,0
PowerEditor/misc/npp.help/HTML/Command Line.html,4,1,1
scintilla/src/Editor.cxx,14,3,2
PowerEditor/src/tools/xmlUpdater/stylers_remove.xml,221,0,0
PowerEditor/src/WinControls/TaskList/TaskListDlg.cpp,32,2,0
scintilla/lexers/LexHex.cxx,0,0,0
PowerEditor/src/WinControls/WindowsDlg/WindowsDlg.cpp,328,9,7
scintilla/src/LexHTML.cxx,6,0,0
PowerEditor/src/icons/open_on.ico,221,0,0
PowerEditor/src/ScitillaComponent/UserDefineLangReference.h,266,2,1
PowerEditor/installer/images/NppDownload.psd,1,0,0
PowerEditor/installer/nativeLang/malay.xml,4,0,0
PowerEditor/installer/nativeLang/extremaduran.xml,4,0,0
PowerEditor/misc/npp.help/HTML/Editing_Scint.html,1,1,1
PowerEditor/src/WinControls/ColourPicker/WordStyleDlg.h,276,8,4
PowerEditor/src/dpiManager.h,4,0,0
PowerEditor/src/uchardet/nsHebrewProber.cpp,2,0,0
PowerEditor/src/uchardet/nsEscCharsetProber.cpp,4,1,1
PowerEditor/bin/plugins/APIs/rc.xml,3,0,0
scintilla/lexers/LexNimrod.cxx,2,0,0
PowerEditor/src/lastRecentFileList.h,308,6,5
PowerEditor/src/UniConversion.h,256,1,1
PowerEditor/src/icons/redo_on.ico,221,0,0
scintilla/doc/SciTEIco.png,5,0,0
PowerEditor/src/jsoncpp/include/json/json.h,1,0,0
PowerEditor/src/jsoncpp/test/data/test_complex_01.expected,1,0,0
PowerEditor/license.txt,223,0,0
scintilla/cocoa/Framework.mk,4,0,0
PowerEditor/installer/nativeLang/gujarati.xml,1,1,0
PowerEditor/bin/plugins/FunctionList.dll,0,0,0
PowerEditor/misc/npp.help/HTML/Read-Only.html,0,0,0
scintilla/qt/README,1,1,1
scintilla/src/LexScriptol.cxx,5,0,0
PowerEditor/src/jsoncpp/include/json/autolink.h,1,0,0
PowerEditor/installer/langsModel.xml,221,1,0
scintilla/test/examples/x.py,5,1,1
scintilla/doc/ScintillaToDo.html,6,1,1
scintilla/macosx/ScintillaCallTip.h,2,1,1
scintilla/gtk/scintilla.mak,6,0,0
PowerEditor/src/jsoncpp/test/data/test_integer_01.json,1,0,0
scintilla/test/examples/x.pl,1,1,1
PowerEditor/src/WinControls/Preference/preference.rc.bak,0,0,0
scintilla/lexlib/SparseState.h,2,1,1
PowerEditor/bin/plugins/APIs/javascript.api,0,0,0
PowerEditor/src/WinControls/AnsiCharPanel/ansiCharPanel.cpp,27,1,1
PowerEditor/src/WinControls/ProjectPanel/demo.xml,5,1,1
scintilla/cocoa/QuartzTextStyleAttribute.h,2,1,1
PowerEditor/src/WinControls/ColourPicker/ColourPicker.cpp,286,6,4
PowerEditor/src/icons/wrap_off.ico,221,0,0
PowerEditor/bin/plugins/SpellChecker.dll,0,0,0
PowerEditor/misc/npp.help/HTML/Viewing Modes.html,0,0,0
PowerEditor/src/tools/NppShell/project/NppShell.vcproj,5,0,0
PowerEditor/src/WinControls/DockingWnd/DockingManager.h,279,3,3
scintilla/lexlib/WordList.h,3,2,1
PowerEditor/src/MISC/PluginsManager/deprecatedSymbols.h,226,0,0
scintilla/macosx/PlatMacOSX.h,2,1,1
PowerEditor/src/WinControls/ColourPicker/FontPreviewCombo.cpp.bak,2,1,1
PowerEditor/src/uchardet/nsEUCKRProber.cpp,3,0,0
PowerEditor/installer/nativeLang/marathi.xml,0,0,0
PowerEditor/src/jsoncpp/test/data/test_real_06.expected,1,0,0
scintilla/src/LexProgress.cxx,6,0,0
PowerEditor/src/constant.h,4,1,1
PowerEditor/src/icons/dupli_dis.ico,221,0,0
scintilla/src/LexAVE.cxx,6,0,0
PowerEditor/src/WinControls/ProjectPanel/TreeView.cpp,50,6,1
PowerEditor/misc/npp.help/HTML/Column Mode Editing.html,0,0,0
scintilla/src/LexLua.cxx,6,0,0
scintilla/src/CaseConvert.h,1,1,1
PowerEditor/src/ScitillaComponent/Buffer.h,350,32,23
PowerEditor/misc/npp.help/HTML/Images/fold_plus.png,0,0,0
PowerEditor/bin/plugins/APIs/java.xml,3,0,0
PowerEditor/src/jsoncpp/doc/header.html,1,0,0
PowerEditor/src/WinControls/DockingWnd/DockingCont.cpp.bak,0,0,0
PowerEditor/src/WinControls/DockingWnd/DropData.cpp,1,0,0
scintilla/delcvs.bat,5,0,0
PowerEditor/src/WinControls/StaticDialog/StaticDialog.cpp,286,6,4
PowerEditor/src/WinControls/shortcut/shortcut.h,287,8,5
PowerEditor/src/MISC/Process/Process.cpp,276,8,6
scintilla/lexers/LexBaan.cxx,2,0,0
PowerEditor/bin/plugins/APIs/xml.xml,3,0,0
scintilla/src/LexPS.cxx,5,0,0
scintilla/scripts/HFacer.py,1,1,1
PowerEditor/src/tools/nppCM/nppcm.RES,224,0,0
PowerEditor/src/icons/invisibleChar.bmp,221,0,0
PowerEditor/misc/npp.help/HTML/Run Shortcuts.html,2,0,0
PowerEditor/src/xmlUpdater/configModel.xml,0,0,0
PowerEditor/src/UniConversion.cpp,267,1,1
PowerEditor/src/uchardet/nsEUCTWProber.cpp,3,0,0
scintilla/win32/packages.config,0,0,0
PowerEditor/src/WinControls/ProjectPanel/ProjectPanel.rc,14,0,0
PowerEditor/src/xmlUpdater/Debug/BuildLog.htm,0,0,0
PowerEditor/src/TinyXml/tinyXmlA/tinyxmlA.cpp,233,3,2
PowerEditor/src/icons/cut_off.ico,221,0,0
PowerEditor/src/jsoncpp/src/test_lib_json/jsontest.cpp,1,0,0
PowerEditor/src/icons/paste_off.ico,221,0,0
PowerEditor/src/icons/paste_dis.ico,221,0,0
PowerEditor/misc/npp.help/HTML/Images/Screenshots/shortcut_mapper.png,0,0,0
PowerEditor/src/icons/find_off.ico,221,0,0
PowerEditor/bin/userDefineLang.xml,0,0,0
PowerEditor/src/uchardet/JpCntx.h,1,0,0
PowerEditor/bin/plugins/NPPTextFX/W3C-HTMLValidator.htm,0,0,0
scintilla/cocoa/QuartzTextStyle.h,2,1,1
PowerEditor/installer/nsisInclude/binariesComponents.nsh,1,0,0
PowerEditor/src/jsoncpp/test/data/test_preserve_comment_01.expected,1,0,0
PowerEditor/src/WinControls/DocumentMap/documentSnapshot_rc.h,2,0,0
PowerEditor/src/ScitillaComponent/columnEditor.rc,261,3,3
scintilla/lexers/LexTCMD.cxx,1,1,1
scintilla/src/LexCPP.cxx,6,0,0
PowerEditor/installer/zipped.package.release/ansi/plugins/Config/placeholder,0,0,0
PowerEditor/misc/npp.help/HTML/Images/Toolbar/indentGuide.png,0,0,0
PowerEditor/src/userDefineLang.xml,221,0,0
PowerEditor/src/jsoncpp/test/data/test_integer_02.json,1,0,0
PowerEditor/misc/npp.help/HTML/Log1.log,0,0,0
scintilla/test/examples/x.cxx,6,2,2
PowerEditor/installer/zipped.package.release/ansi/plugins/APIs/placeholder,0,0,0
PowerEditor/bin/themes/Zenburn.xml,5,0,0
scintilla/qt/ScintillaEditBase/ScintillaQt.cpp,1,1,1
PowerEditor/src/jsoncpp/test/data/test_integer_05.expected,1,0,0
scintilla/scripts/HeaderOrder.txt,0,0,0
PowerEditor/src/localization.h,22,2,0
PowerEditor/installer/themes/Ruby Blue.xml,3,4,0
scintilla/lexers/LexOpal.cxx,2,0,0
PowerEditor/misc/npp.help/HTML/Images/Toolbar/syncV.png,0,0,0
PowerEditor/src/RCa02172,0,0,0
PowerEditor/src/Notepad_plus_Window.h,44,2,0
PowerEditor/installer/nativeLang/dutch.xml,10,2,1
PowerEditor/src/icons/saved.ico,221,0,0
PowerEditor/src/WinControls/ReadDirectoryChanges/targetver.h,6,0,0
scintilla/gtk/deps.mak,7,1,1
scintilla/src/LexTeX.cxx.bak,0,0,0
PowerEditor/misc/npp.help/HTML/Feature Requests.html,4,1,1
scintilla/src/LexTeX.cxx,6,0,0
scintilla/macosx/ScintillaMacOSX.cxx,4,1,1
PowerEditor/misc/npp.help/HTML/Images/hide_start.png,0,0,0
PowerEditor/src/uchardet/nsUTF8Prober.h,1,0,0
PowerEditor/src/WinControls/DockingWnd/DockingSplitter.cpp.bak,0,0,0
scintilla/qt/ScintillaEditPy/ScintillaConstants.py.template,1,1,1
scintilla/src/PositionCache.h,5,1,1
PowerEditor/installer/nativeLang/hindi.xml,1,1,0
scintilla/macosx/ExtInput.cxx,2,1,1
PowerEditor/src/icons/docMap.ico,1,0,0
PowerEditor/misc/npp.help/HTML/Images/radiooff.png,0,0,0
PowerEditor/src/jsoncpp/test/data/test_basic_03.json,1,0,0
PowerEditor/src/EncodingMapper.h,15,1,1
PowerEditor/src/shortcuts.xml,231,4,2
PowerEditor/bin/updater/gup.xml,3,0,0
PowerEditor/visual.net/notepadPlus.vcxproj,29,9,3
PowerEditor/installer/nativeLang/indonesian.xml,1,0,0
scintilla/lexlib/CharacterSet.h,3,1,1
PowerEditor/src/TinyXml/tinyXmlA/tinyxmlerrorA.cpp,228,1,1
PowerEditor/installer/APIs/python.xml,3,1,0
PowerEditor/src/uchardet/GB2312Freq.tab,1,0,0
scintilla/src/Document.h.bak,0,0,0
scintilla/src/Document.cxx,14,5,4
PowerEditor/installer/nativeLang/uyghur.xml,3,0,0
PowerEditor/src/MISC/Common/mutex.h,0,1,0
PowerEditor/src/WinControls/TaskList/TaskListDlg.rc,256,2,2
scintilla/cocoa/PlatCocoa.mm,2,1,1
PowerEditor/src/IExplorerShell/nppIExplorerShell.cpp,0,0,0
PowerEditor/src/WinControls/DocumentMap/documentMap.h,28,6,5
PowerEditor/src/WinControls/Grid/BabyGrid.cpp.bak,0,0,0
PowerEditor/src/WinControls/ClipboardHistory/clipboardHistoryPanel_rc.h,9,0,0
PowerEditor/installer/APIs/cpp.xml,3,0,0
PowerEditor/misc/npp.help/HTML/File Creation.html,0,0,0
PowerEditor/src/WinControls/shortcut/RunMacroDlg_rc.h,222,0,0
PowerEditor/src/jsoncpp/test/jsonchecker/fail18.json,1,0,0
PowerEditor/installer/nppSetup.nsi,320,68,36
scintilla/src/LexOpal.cxx,5,0,0
scintilla/src/LexMySQL.cxx,3,1,1
PowerEditor/src/icons/functionList.ico,1,0,0
scintilla/win32/Margin.cur,5,0,0
PowerEditor/src/jsoncpp/src/lib_json/json_internalarray.inl,1,0,0
scintilla/lexers/LexKix.cxx,2,0,0
scintilla/lexers/LexBasic.cxx,3,1,1
scintilla/lexers/LexBash.cxx,3,1,1
PowerEditor/src/tools/xmlUpdater/configModel.xml,221,0,0
PowerEditor/installer/nsisInclude/themes.nsh,1,2,0
scintilla/src/ContractionState.h,5,0,0
PowerEditor/misc/npp.help/HTML/Images/Toolbar/copy.png,0,0,0
PowerEditor/installer/nativeLang/breton.xml,0,0,0
PowerEditor/src/TinyXml/tinyXmlA/tinyxmlparserA.cpp,237,2,1
PowerEditor/installer/nativeLang/brazilian_portuguese.xml,11,1,1
scintilla/lexers/LexMetapost.cxx,2,0,0
PowerEditor/src/icons/funcList_node.bmp,2,1,0
scintilla/src/CellBuffer.cxx,6,1,1
PowerEditor/src/rgba_icons.h,0,0,0
scintilla/lexers/LexDMIS.cxx,0,0,0
PowerEditor/src/tools/nppCM/license.txt,224,0,0
PowerEditor/installer/themes/Black board.xml,3,4,0
PowerEditor/src/jsoncpp/src/lib_json/json_reader.cpp,1,0,0
scintilla/src/MarginView.cxx,0,0,0
PowerEditor/src/icons/zoomIn.bmp,221,0,0
scintilla/qt/ScintillaEdit/ScintillaEdit.cpp.template,1,1,1
scintilla/lexers/LexPLM.cxx,2,0,0
PowerEditor/misc/npp.help/HTML/RTL.html,0,0,0
PowerEditor/misc/npp.help/HTML/Smart Highlighting.html,0,0,0
PowerEditor/installer/nativeLang/swedish.xml,8,2,1
PowerEditor/misc/npp.help/HTML/Images/Screenshots/docswitch.png,2,0,0
scintilla/include/Platform.h.bak,0,0,0
scintilla/cocoa/ScintillaFramework/Info.plist,2,0,0
scintilla/win32/CheckD2D.cxx,1,1,1
PowerEditor/src/MISC/Common/Sorters.h,5,3,0
PowerEditor/src/jsoncpp/makefiles/vs71/jsoncpp.sln,1,0,0
scintilla/src/LexCrontab.cxx,5,0,0
PowerEditor/misc/npp.help/HTML/Images/Toolbar/paste.png,0,0,0
scintilla/macosx/TCarbonEvent.h,2,1,1
PowerEditor/src/WinControls/TabBar/TabBar.h,319,9,5
scintilla/include/PropSet.h,5,0,0
PowerEditor/misc/npp.help/HTML/Images/Screenshots/styler_config.png,0,0,0
PowerEditor/src/WinControls/DockingWnd/Docking.h,262,2,1
PowerEditor/src/jsoncpp/test/data/test_comment_01.json,1,0,0
PowerEditor/misc/npp.help/HTML/Images/Screenshots/incremental_search.png,0,0,0
PowerEditor/src/jsoncpp/test/generate_expected.py,1,0,0
PowerEditor/installer/nativeLang/tajikCyrillic.xml,0,1,0
PowerEditor/installer/nativeLang/greek.xml,4,0,0
PowerEditor/bin/shortcuts.xml,0,0,0
PowerEditor/installer/externalTools/md5summer.exe,223,0,0
PowerEditor/src/ScitillaComponent/RCa02172,0,0,0
PowerEditor/src/icons/project_folder_close.bmp,2,1,0
PowerEditor/visual.net/notepadPlus.sln,0,1,0
PowerEditor/src/WinControls/ColourPicker/WordStyleDlg.aps,5,0,0
.gitattributes,0,0,0
scintilla/cocoa/QuartzTextLayout.h,2,1,1
scintilla/cocoa/ScintillaView.h,3,1,1
PowerEditor/installer/APIs/tex.xml,3,0,0
PowerEditor/src/MISC/PluginsManager/PluginInterface.h,262,1,1
PowerEditor/src/xmlUpdater/xmlUpdater.vcproj,0,0,0
PowerEditor/src/WinControls/FunctionList/functionParser.h,15,4,0
PowerEditor/bin/updater/GUP.exe,5,2,1
PowerEditor/src/icons/newFile.bmp,221,0,0
scintilla/macosx/deps.mak,3,1,1
PowerEditor/src/icons/CVS/Root,0,0,0
PowerEditor/src/WinControls/AnsiCharPanel/ansiCharPanel_rc.h,9,0,0
scintilla/src/Selection.h,2,0,0
scintilla/src/LexCLW.cxx,5,0,0
PowerEditor/installer/APIs/xml.xml,3,0,0
PowerEditor/misc/npp.help/HTML/Tool Bar.html,1,1,1
scintilla/scripts/FileGenerator.py,1,1,1
scintilla/lexers/LexBibTeX.cxx,0,0,0
scintilla/lexers/LexGui4Cli.cxx,2,0,0
PowerEditor/src/jsoncpp/README.txt,1,0,0
PowerEditor/src/jsoncpp/test/data/test_object_04.json,1,0,0
PowerEditor/src/MISC/SysMsg/SysMsg.cpp,40,5,5
PowerEditor/src/jsoncpp/test/jsonchecker/fail20.json,1,0,0
PowerEditor/src/icons/undo_off.ico,221,0,0
PowerEditor/misc/npp.help/HTML/Windows Dialog.html,0,0,0
PowerEditor/src/WinControls/FileBrowser/fileBrowser.h,8,2,0
scintilla/lexers/LexA68k.cxx,2,1,1
PowerEditor/installer/nativeLang/luxembourgish.xml,4,0,0
PowerEditor/src/tools/nppCM/nppcm.def,224,0,0
scintilla/src/LexGui4Cli.cxx,6,0,0
scintilla/gtk/scintilla-marshal.list,5,0,0
scintilla/lexers/LexLisp.cxx,2,0,0
scintilla/src/LineMarker.h,5,1,1
scintilla/lexers/LexPython.cxx,3,1,1
PowerEditor/installer/nsisInclude/langs.nsh,1,1,0
PowerEditor/visual.net/Debug/BuildLog.htm,0,0,0
PowerEditor/src/WinControls/SplitterContainer/Splitter.cpp,288,5,2
PowerEditor/src/icons/saverecord_on.ico,221,0,0
PowerEditor/src/jsoncpp/AUTHORS,1,0,0
PowerEditor/src/icons/fileBrowser.bmp,1,0,0
PowerEditor/src/WinControls/ProjectPanel/ProjectPanel.cpp,48,9,2
PowerEditor/bin/updater/libcurl.dll,1,1,0
PowerEditor/src/ScitillaComponent/DocTabView.h,306,2,2
scintilla/src/LexUser.cxx,5,0,0
PowerEditor/installer/nativeLang/latvian.xml,5,0,0
PowerEditor/src/jsoncpp/test/data/test_real_03.expected,1,0,0
scintilla/src/LexNimrod.cxx,2,0,0
Test/FunctionList/functionList.xsd,0,0,0
PowerEditor/src/Utf8_16.cpp,275,8,6
scintilla/lexlib/LexerSimple.cxx,4,0,0
scintilla/lexers/LexSML.cxx,2,0,0
PowerEditor/installer/themes/MossyLawn.xml,0,4,0
PowerEditor/src/jsoncpp/test/jsonchecker/fail23.json,1,0,0
scintilla/lexers/LexMSSQL.cxx,2,0,0
PowerEditor/src/tools/NppShell/src/export.def,3,0,0
PowerEditor/src/icons/saveall_dis.ico,221,0,0
scintilla/lexers/LexMagik.cxx,3,1,1
PowerEditor/bin/plugins/doc/NppExec_TechInfo.txt,0,0,0
PowerEditor/bin/themes/vim Dark Blue.xml,5,0,0
scintilla/macosx/TView.cxx,2,1,1
scintilla/qt/ScintillaEditPy/testsepq.py,1,1,1
PowerEditor/src/icons/Je_suis_Charlie.ico,1,0,0
scintilla/lexers/LexAda.cxx,3,1,1
scintilla/qt/ScintillaEditBase/Notes.txt,1,1,1
PowerEditor/src/MISC/PluginsManager/IDAllocator.h,11,0,0
scintilla/cocoa/ScintillaTest/TestData.sql,2,0,0
scintilla/src/LexPLM.cxx,5,0,0
scintilla/lexers/LexCPP.cxx,5,1,1
PowerEditor/misc/npp.help/HTML/Log3.log,0,0,0
PowerEditor/src/WinControls/DockingWnd/DockingCont.h,285,8,8
PowerEditor/bin/themes/Hello Kitty.xml,5,0,0
PowerEditor/src/jsoncpp/test/jsonchecker/fail10.json,1,0,0
PowerEditor/installer/nativeLang/romanian.xml,9,2,2
PowerEditor/installer/images/wizard.bmp,222,0,0
scintilla/doc/styledmargin.png,1,0,0
PowerEditor/src/TinyXml/tinyxml.cpp,264,4,3
scintilla/src/LexRuby.cxx,6,0,0
PowerEditor/bin/todo.txt,2,1,0
PowerEditor/src/WinControls/AnsiCharPanel/asciiListView.h,0,0,0
PowerEditor/src/stylers.model.xml,244,22,7
PowerEditor/src/WinControls/WindowInterface.h,222,0,0
PowerEditor/misc/npp.help/HTML/Search window.html,3,0,0
PowerEditor/src/jsoncpp/build/vs71/debug/lib_json/json_vc71_libmtd.lib,1,0,0
PowerEditor/misc/npp.help/HTML/Opening and Saving.html,3,0,0
PowerEditor/src/WinControls/FunctionList/functionListPanel.cpp,50,8,1
scintilla/lexers/LexOScript.cxx,1,1,1
scintilla/doc/Indicators.png,0,0,0
scintilla/src/LexVB.cxx,6,0,0
PowerEditor/src/WinControls/WindowsDlg/SizeableDlg.h,262,1,1
PowerEditor/misc/npp.help/HTML/Images/Screenshots/docking.png,0,0,0
PowerEditor/bin/plugins/APIs/cmake.xml,3,0,0
scintilla/cocoa/ScintillaTest/English.lproj/MainMenu.xib,3,1,1
scintilla/test/performanceTests.py,6,2,2
PowerEditor/src/icons/incrementalBg.bmp,1,0,0
PowerEditor/src/tools/NppShell/src/bitmap/npp.bmp,3,0,0
PowerEditor/installer/images/header.bmp,221,0,0
PowerEditor/bin/plugins/ConvertExt.dll,0,0,0
scintilla/src/XPM.h,5,1,1
scintilla/test/lexTests.py,6,2,2
PowerEditor/src/uchardet/LangHebrewModel.cpp,3,0,0
PowerEditor/src/TinyXml/tinyXmlA/tinyxmlA.h,232,3,1
PowerEditor/src/WinControls/Grid/ShortcutMapper.rc,263,1,1
PowerEditor/installer/nativeLang/kabyle.xml,0,0,0
PowerEditor/src/WinControls/PluginsAdmin/pluginsAdmin.cpp,0,0,0
PowerEditor/installer/APIs/css.xml,3,0,0
PowerEditor/src/WinControls/StaticDialog/StaticDialog.h,236,3,2
PowerEditor/src/jsoncpp/test/data/test_real_02.expected,1,0,0
PowerEditor/installer/zipped.package.release/unicode/plugins/doc/placeholder,0,0,0
PowerEditor/installer/APIs/c.xml,3,0,0
PowerEditor/src/WinControls/ToolBar/ToolBar.h.new,0,0,0
scintilla/qt/ScintillaEditPy/ScintillaEditPy.pro,1,1,1
PowerEditor/bin/updater/README.md,0,0,0
PowerEditor/bin/change.log,287,46,28
PowerEditor/src/icons/zoomOut_on.ico,221,0,0
PowerEditor/misc/npp.help/HTML/Macros.html,0,0,0
scintilla/src/Document.h,8,1,1
scintilla/macosx/ScintillaListBox.cxx,2,1,1
PowerEditor/gcc/include/eh.h,222,1,0
PowerEditor/bin/themes/Monokai.xml,5,0,0
PowerEditor/installer/nativeLang/galician.xml,4,0,0
PowerEditor/src/ScitillaComponent/ScintillaEditView.cpp,414,104,52
PowerEditor/src/ScitillaComponent/ScintillaRef.h,224,0,0
scintilla/src/LexEScript.cxx,5,0,0
scintilla/test/examples/x.d.styled,5,1,1
PowerEditor/installer/nativeLang/nynorsk.xml,4,1,0
PowerEditor/misc/npp.help/HTML/Images/fold_line.png,0,0,0
PowerEditor/src/fonts/sourceCodePro/SourceCodePro-Bold.ttf,0,1,0
scintilla/gtk/ScintillaGTK.cxx,8,1,1
scintilla/vcbuild/SciLexer.vcproj,7,0,0
PowerEditor/src/jsoncpp/test/data/test_basic_01.expected,1,0,0
scintilla/src/LexPOV.cxx,5,0,0
PowerEditor/src/icons/closeFile.bmp,221,0,0
PowerEditor/src/WinControls/DockingWnd/DockingDlgInterface.h,269,6,6
scintilla/src/LexCSS.cxx,8,1,1
PowerEditor/src/tools/NppShell/project/NppShell.sln,3,0,0
PowerEditor/src/config.xml,1,1,1
scintilla/src/LexEiffel.cxx,5,0,0
scintilla/src/LexPython.cxx,5,0,0
PowerEditor/src/WinControls/SplitterContainer/SplitterContainer.h,267,3,2
PowerEditor/src/icons/funcList_leaf.bmp,2,1,0
PowerEditor/src/WinControls/AboutDlg/AboutDlg.h,260,2,2
PowerEditor/installer/externalTools/md5.src/md5.vcproj,1,1,1
scintilla/win32/PlatformRes.h,5,0,0
PowerEditor/installer/nativeLang/lithuanian.xml,1,0,0
PowerEditor/installer/nativeLang/macedonian.xml,1,0,0
PowerEditor/bin/plugins/APIs/vhdl.xml,3,0,0
PowerEditor/bin/themes/Mono Industrial.xml,5,0,0
scintilla/test/unit/testDecoration.cxx,0,0,0
scintilla/cocoa/ScintillaFramework/English.lproj/InfoPlist.strings,2,0,0
PowerEditor/bin/plugins/NPPTextFX/TIDYCFG.INI,0,0,0
PowerEditor/src/WinControls/WindowsDlg/SizeableDlg.cpp,236,0,0
PowerEditor/src/jsoncpp/test/jsonchecker/fail5.json,1,0,0
scintilla/doc/ScintillaHistory.html,8,1,1
PowerEditor/installer/minimalist/placeholder,0,0,0
scintilla/delbin.bat,5,1,1
PowerEditor/src/menuCmdID.h,353,16,10
PowerEditor/src/WinControls/shortcut/shortcutRc.h,233,0,0
scintilla/src/CharClassify.cxx,5,1,1
PowerEditor/bin/license.txt,223,0,0
PowerEditor/src/WinControls/FunctionList/functionListPanel_rc.h,2,0,0
PowerEditor/installer/images/Thumbs.db,0,0,0
PowerEditor/src/contextMenu.xml,235,4,3
scintilla/src/LexMMIXAL.cxx,6,0,0
PowerEditor/bin/config.xml,0,0,0
PowerEditor/src/stylers.xml,5,2,2
PowerEditor/src/jsoncpp/test/jsonchecker/fail4.json,1,0,0
scintilla/src/LexRebol.cxx,6,0,0
PowerEditor/src/icons/syncV_dis.ico,221,0,0
scintilla/lexers/LexAVS.cxx,1,1,1
PowerEditor/src/tools/NppShell/src/NppShell.cpp,3,3,1
PowerEditor/installer/APIs/actionscript.xml,3,0,0
PowerEditor/src/WinControls/StaticDialog/RunDlg/RunDlg_rc.h,225,0,0
PowerEditor/src/WinControls/FileBrowser/fileBrowser.cpp,18,3,0
PowerEditor/misc/npp.help/HTML/Images/hide_end.png,0,0,0
PowerEditor/installer/nsisInclude/mainSectionFuncs.nsh,1,3,0
PowerEditor/src/Notepad_plus.cpp.internalDockingDlg,3,0,0
scintilla/src/Partitioning.h,5,0,0
PowerEditor/src/WinControls/PluginsAdmin/pluginsAdminRes.h,0,0,0
scintilla/lexers/LexRebol.cxx,2,0,0
scintilla/lexers/LexAVE.cxx,2,0,0
PowerEditor/src/ScitillaComponent/Printer.cpp,311,5,5
PowerEditor/src/icons/saveall_on.ico,221,0,0
PowerEditor/misc/npp.help/HTML/Images/Toolbar/cut.png,0,0,0
PowerEditor/src/uchardet/nsEscSM.cpp,3,0,0
scintilla/test/XiteMenu.py,6,2,2
PowerEditor/misc/npp.help/HTML/Images/Toolbar/startRecord.png,0,0,0
PowerEditor/src/icons/syncV_off.ico,221,0,0
scintilla/lexlib/WordList.cxx,3,1,1
PowerEditor/src/icons/findrep_on.ico,221,0,0
PowerEditor/src/uchardet/nsEUCKRProber.h,1,0,0
PowerEditor/src/jsoncpp/src/lib_json/json_batchallocator.h,1,0,0
PowerEditor/src/icons/fb_root_close.bmp,1,0,0
PowerEditor/src/WinControls/FileBrowser/fileBrowser_rc.h,8,0,0
PowerEditor/src/WinControls/Window.h,280,6,6
PowerEditor/src/MISC/md5/md5Dlgs.h,1,0,0
PowerEditor/misc/npp.help/HTML/Images/Screenshots/multiview_zoom.png,0,0,0
PowerEditor/src/jsoncpp/test/data/test_string_unicode_04.json,1,0,0
PowerEditor/src/jsoncpp/doc/jsoncpp.dox,1,0,0
PowerEditor/src/uchardet/nsBig5Prober.h,1,0,0
PowerEditor/src/MISC/Process/Processus.cpp,6,0,0
PowerEditor/misc/npp.help/HTML/Images/Toolbar/newFile.png,0,0,0
PowerEditor/src/jsoncpp/test/data/test_integer_05.json,1,0,0
scintilla/include/Platform.h,6,1,1
scintilla/src/EditModel.h,0,0,0
PowerEditor/src/icons/closeTabButton_push.bmp,221,0,0
PowerEditor/src/uchardet/nsLatin1Prober.h,1,0,0
PowerEditor/src/tools/xmlUpdater/stylesModel.xml,221,0,0
PowerEditor/src/icons/suppall_off.ico,221,0,0
PowerEditor/src/icons/projectPanel.ico,1,0,0
PowerEditor/src/jsoncpp/test/jsonchecker/fail26.json,1,0,0
scintilla/src/LexNsis.cxx,6,0,0
PowerEditor/src/jsoncpp/test/jsonchecker/fail11.json,1,0,0
PowerEditor/src/ScitillaComponent/FindReplaceDlg_rc.h,250,3,1
PowerEditor/misc/npp.help/HTML/User Defined languages.html,4,2,2
scintilla/src/LexObjC.cxx,5,0,0
PowerEditor/src/WinControls/ReadDirectoryChanges/ReadDirectoryChanges.h,6,0,0
PowerEditor/src/WinControls/DockingWnd/DockingManager.h.bak,0,0,0
scintilla/zipsrc.bat,5,0,0
PowerEditor/misc/npp.help/HTML/Shell Extension.html,3,0,0
PowerEditor/misc/npp.help/HTML/Images/readonly.png,0,0,0
PowerEditor/installer/build/dummy,0,1,0
PowerEditor/src/icons/cut.bmp,221,0,0
PowerEditor/src/icons/project_file.bmp,2,1,0
scintilla/lexers/LexFlagship.cxx,2,0,0
PowerEditor/src/icons/stoprecord_on.ico,221,0,0
scintilla/lexlib/LexAccessor.h,3,1,1
PowerEditor/src/uchardet/nsSBCharSetProber.h,2,0,0
PowerEditor/src/uchardet/nsSBCSGroupProber.cpp,3,0,0
PowerEditor/src/jsoncpp/include/json/features.h,1,0,0
scintilla/src/SplitVector.h,6,1,1
PowerEditor/src/WinControls/DockingWnd/DockingCont.cpp,294,18,12
PowerEditor/misc/npp.help/HTML/Images/Toolbar/undo.png,0,0,0
PowerEditor/misc/npp.help/HTML/Images/Toolbar/playRecord.png,0,0,0
PowerEditor/src/WinControls/FindCharsInRange/findCharsInRange_rc.h,8,0,0
scintilla/lexers/LexSmalltalk.cxx,2,0,0
PowerEditor/bin/plugins/APIs/xml.api,0,0,0
PowerEditor/installer/nativeLang/sardinian.xml,3,0,0
PowerEditor/installer/nsisInclude/gobalDef.nsh,1,2,0
PowerEditor/src/icons/userDefineDlg_off.ico,221,0,0
PowerEditor/installer/nativeLang/belarusian.xml,4,0,0
PowerEditor/src/jsoncpp/doc/readme.txt,1,0,0
PowerEditor/bin/QuickText.ini,0,0,0
scintilla/test/unit/makefile,6,2,2
PowerEditor/misc/npp.help/HTML/Built-in Languages.html,4,1,1
PowerEditor/src/ScitillaComponent/AutoCompletion.h,280,6,4
PowerEditor/src/MISC/Common/precompiledHeaders.cpp,22,1,0
PowerEditor/src/config.model.xml,231,4,3
PowerEditor/src/MISC/RegExt/regExtDlg.rc,259,3,1
PowerEditor/src/tools/NppShell/src/icon/npp_0.ico,3,0,0
PowerEditor/src/jsoncpp/test/pyjsontestrunner.py,1,0,0
PowerEditor/src/WinControls/WindowsDlg/WinRect.cpp,234,0,0
PowerEditor/src/jsoncpp/doxybuild.py,1,0,0
PowerEditor/src/jsoncpp/doc/doxyfile.in,1,0,0
PowerEditor/misc/npp.help/HTML/Images/Toolbar/wrap.png,0,0,0
scintilla/test/examples/x.asp,5,1,1
PowerEditor/src/icons/playrecord_dis.ico,221,0,0
PowerEditor/src/tools/xmlUpdater/makefile,221,0,0
scintilla/lexers/LexTADS3.cxx,3,1,1
PowerEditor/src/uchardet/nsCharSetProber.h,1,0,0
PowerEditor/src/jsoncpp/test/jsonchecker/fail17.json,1,0,0
PowerEditor/src/icons/supp_off.ico,221,0,0
PowerEditor/src/MISC/RegExt/regExtDlg.h,262,1,1
PowerEditor/src/jsoncpp/src/jsontestrunner/sconscript,1,0,0
PowerEditor/src/WinControls/AnsiCharPanel/ListView.h,15,2,1
PowerEditor/src/WinControls/DockingWnd/DropData.cpp.bak,225,0,0
scintilla/lexers/LexFortran.cxx,3,1,1
scintilla/src/LexMarkdown.cxx,2,0,0
PowerEditor/bin/contextMenu.xml,0,0,0
scintilla/lexers/LexCOBOL.cxx,3,1,1
PowerEditor/src/uchardet/prmem.h,1,0,0
PowerEditor/src/ScitillaComponent/FindReplaceDlg.h,348,34,24
PowerEditor/misc/npp.help/HTML/Newline format.html,0,0,0
PowerEditor/visual.net/notepadPlus.vcproj,372,24,18
PowerEditor/src/tools/NppShell/src/icon/npp_1.ico,3,0,0
PowerEditor/src/xmlUpdater/xmlUpdater.cpp,0,0,0
PowerEditor/src/icons/findrep_off.ico,221,0,0
PowerEditor/misc/npp.help/HTML/Images/Toolbar/zoomOut.png,0,0,0
scintilla/lexers/LexSpice.cxx,3,1,1
scintilla/src/CaseFolder.h,1,1,1
scintilla/lexers/LexProgress.cxx,2,0,0
PowerEditor/bin/session.xml,0,0,0
scintilla/include/Scintilla.iface,12,2,2
PowerEditor/src/WinControls/shortcut/RunMacroDlg.cpp,282,2,2
PowerEditor/installer/nativeLang/slovak.xml,7,1,0
PowerEditor/src/ScitillaComponent/GoToLineDlg.h,263,1,1
PowerEditor/bin/langs.xml,0,0,0
PowerEditor/installer/nativeLang/corsican.xml,0,0,0
scintilla/lexers/LexVHDL.cxx,3,1,1
scintilla/qt/ScintillaEdit/WidgetGen.py,1,1,1
PowerEditor/src/uchardet/LangThaiModel.cpp,3,0,0
PowerEditor/bin/plugins/Explorer.dll,0,0,0
scintilla/lexers/LexKVIrc.cxx,0,0,0
scintilla/src/LexBaan.cxx,5,0,0
scintilla/src/CallTip.cxx,5,1,1
PowerEditor/misc/npp.help/HTML/File Management.html,0,0,0
scintilla/lexers/LexPowerPro.cxx,5,1,1
PowerEditor/src/jsoncpp/test/data/test_integer_04.json,1,0,0
PowerEditor/misc/npp.help/HTML/Switching between Documents.html,0,0,0
scintilla/lexers/LexNsis.cxx,3,1,1
PowerEditor/src/WinControls/Grid/ShortcutMapper.cpp,285,4,2
scintilla/macosx/ScintillaMacOSX.h,5,1,1
PowerEditor/src/icons/fileBrowser.ico,1,0,0
PowerEditor/src/jsoncpp/test/runjsontests.py,1,0,0
PowerEditor/src/ScitillaComponent/FindReplaceDlg.cpp.bak,0,0,0
PowerEditor/src/lesDlgs.cpp,32,1,1
PowerEditor/installer/APIs/vhdl.xml,3,0,0
scintilla/test/XiteQt.py,1,1,1
PowerEditor/src/MISC/SysMsg/SysMsg.h,40,5,5
PowerEditor/installer/themes/khaki.xml,0,4,0
PowerEditor/installer/themes/Mono Industrial.xml,3,4,0
PowerEditor/src/icons/zoomIn_on.ico,221,0,0
scintilla/src/LexFortran.cxx,6,0,0
PowerEditor/src/uchardet/CharDistribution.h,1,0,0
PowerEditor/bin/NppHelp.chm,9,2,2
PowerEditor/src/icons/allChars_off.ico,221,0,0
scintilla/src/LexSQL.cxx,5,0,0
PowerEditor/bin/plugins/APIs/tex.xml,3,0,0
scintilla/src/LexCaml.cxx,5,0,0
PowerEditor/misc/npp.help/HTML/Images/Toolbar/zoomIn.png,0,0,0
PowerEditor/bin/themes/Obsidian.xml,5,0,0
readme.md,0,2,0
PowerEditor/src/jsoncpp/test/jsonchecker/fail6.json,1,0,0
PowerEditor/installer/nativeLang/albanian.xml,1,0,0
PowerEditor/misc/npp.help/HTML/Dummy.html,0,0,0
PowerEditor/src/jsoncpp/test/data/test_string_unicode_05.expected,1,0,0
PowerEditor/installer/themes/Zenburn.xml,7,5,0
PowerEditor/scintilla.original.forUpdating/scintilla.original.forUpdating.7z,1,1,1
PowerEditor/misc/npp.help/HTML/Images/Toolbar/saveAll.png,0,0,0
PowerEditor/src/jsoncpp/test/data/test_string_unicode_04.expected,1,0,0
PowerEditor/src/jsoncpp/test/jsonchecker/fail15.json,1,0,0
PowerEditor/misc/npp.help/HTML/Styler Configurator.html,1,1,1
PowerEditor/installer/nativeLang/italian.xml,21,4,3
PowerEditor/installer/nsisInclude/langs4Installer.nsh,0,1,0
scintilla/vcbuild/SciLexer.ncb,3,1,1
PowerEditor/src/uchardet/nsMBCSSM.cpp,3,0,0
scintilla/lexers/LexSTTXT.cxx,1,1,1
PowerEditor/installer/stylers_remove.xml,3,2,1
PowerEditor/installer/externalTools/md5.src/rfc1321.txt,1,1,1
scintilla/lexers/LexCrontab.cxx,2,0,0
PowerEditor/misc/npp.help/HTML/Images/closeTabButton.png,0,0,0
PowerEditor/misc/npp.help/HTML/Images/Screenshots/col_edit_after.png,2,0,0
PowerEditor/misc/vistaIconTool/ChangeIcon.exe,0,1,0
PowerEditor/src/keys.h,222,0,0
scintilla/lexers/LexCSS.cxx,3,1,1
scintilla/lexlib/Accessor.h,3,1,1
PowerEditor/bin/NppShell.dll,12,3,0
scintilla/test/XiteWin.py,6,2,2
PowerEditor/installer/zipped.package.release/ansi/themes/placeholder,0,0,0
PowerEditor/src/fonts/sourceCodePro/LICENSE.txt,1,0,0
PowerEditor/src/uchardet/EUCKRFreq.tab,1,0,0
PowerEditor/bin/updater/gpl.txt,0,0,0
PowerEditor/misc/npp.help/HTML/Menu.html,0,0,0
PowerEditor/src/Notepad_plus_Window.cpp,88,12,4
PowerEditor/src/fonts/sourceCodePro/SourceCodePro-Regular.ttf,0,1,0
PowerEditor/src/MISC/Common/mutex.hxx,0,1,0
PowerEditor/src/lesDlgs.h,263,3,3
scintilla/cocoa/res/info_bar_bg@2x.png,0,0,0
PowerEditor/misc/npp.help/HTML/Images/Toolbar/saveFile.png,0,0,0
scintilla/lexers/LexBullant.cxx,2,0,0
scintilla/doc/Icons.html,5,0,0
PowerEditor/src/WinControls/VerticalFileSwitcher/VerticalFileSwitcher_rc.h,8,0,0
PowerEditor/src/Parameters.h.bak,0,0,0
PowerEditor/misc/npp.help/HTML/Plugins.html,3,1,1
PowerEditor/src/icons/indentGuide_on.ico,221,0,0
PowerEditor/misc/npp.help/HTML/GUI elements.html,0,0,0
PowerEditor/src/WinControls/DockingWnd/CloseDown.bmp,221,0,0
PowerEditor/src/jsoncpp/test/data/test_string_01.expected,1,0,0
scintilla/macosx/SciTest/main.cpp,3,1,1
PowerEditor/bin/npp.pdb,243,16,10
PowerEditor/misc/npp.help/HTML/Languages.html,0,0,0
PowerEditor/installer/APIs/cmake.xml,3,0,0
scintilla/gtk/makefile,8,1,1
PowerEditor/src/icons/redo_dis.ico,221,0,0
scintilla/lexers/LexPascal.cxx,3,1,1
PowerEditor/src/icons/syncH_off.ico,221,0,0
PowerEditor/misc/npp.help/HTML/System Tray.html,3,0,0
scintilla/macosx/QuartzTextStyle.h,2,1,1
PowerEditor/src/icons/closeTabButton_inact.bmp,221,0,0
PowerEditor/src/WinControls/FindCharsInRange/FindCharsInRange.cpp,29,1,0
scintilla/src/ScintillaBase.h,5,1,1
PowerEditor/src/WinControls/Preference/preferenceDlg.cpp,354,52,21
PowerEditor/src/resource.h,384,38,30
PowerEditor/misc/npp.help/HTML/Context Menu.html,1,1,1
PowerEditor/misc/npp.help/HTML/Images/Toolbar/playRecord_m.png,0,0,0
PowerEditor/src/icons/zoomOut.bmp,221,0,0
scintilla/macosx/SciTest/SciTest_Prefix.pch,2,1,1
PowerEditor/src/WinControls/DockingWnd/DockingCont.h.bak,0,0,0
PowerEditor/src/jsoncpp/test/data/test_object_03.expected,1,0,0
PowerEditor/src/jsoncpp/test/data/test_real_07.expected,1,0,0
PowerEditor/src/jsoncpp/test/data/test_real_06.json,1,0,0
scintilla/cocoa/ScintillaTest/Scintilla-Info.plist,2,0,0
scintilla/src/LexBasic.cxx,6,0,0
PowerEditor/bin/plugins/NppExec.dll,0,0,0
scintilla/cocoa/ScintillaView.mm,3,1,1
PowerEditor/installer/nativeLang/spanish_ar.xml,8,0,0
PowerEditor/misc/npp.help/HTML/Bookmarks.html,0,0,0
scintilla/test/unit/testPartitioning.cxx,6,2,2
PowerEditor/src/icons/syncH.bmp,221,0,0
PowerEditor/src/jsoncpp/src/lib_json/json_internalmap.inl,1,0,0
PowerEditor/src/ScitillaComponent/columnEditor_rc.h,223,0,0
PowerEditor/src/WinControls/ReadDirectoryChanges/ReadDirectoryChangesPrivate.cpp,14,2,1
PowerEditor/misc/npp.help/HTML/Zooming.html,0,0,0
PowerEditor/src/xmlUpdater/stylesGlobalModel.xml,0,0,0
PowerEditor/src/WinControls/StaticDialog/RunDlg/RunDlg.cpp,284,8,3
PowerEditor/misc/npp.help/HTML/Images/Screenshots/windows.png,0,0,0
scintilla/src/PropSetSimple.h,2,0,0
scintilla/include/Accessor.h,5,0,0
scintilla/lexers/LexRegistry.cxx,0,0,0
PowerEditor/src/ScitillaComponent/AutoCompletion.cpp,335,24,8
PowerEditor/installer/themes/Bespin.xml,5,4,0
scintilla/src/Decoration.h,5,1,1
scintilla/include/Face.py,5,1,1
scintilla/lexlib/OptionSet.h,3,1,1
scintilla/cocoa/ScintillaCocoa.h,3,1,1
scintilla/lexers/LexTAL.cxx,2,0,0
PowerEditor/installer/zipped.package.release/unicode/user.manual/placeholder,0,0,0
PowerEditor/src/ScitillaComponent/GoToLineDlg.cpp,240,3,2
PowerEditor/src/uchardet/LangHungarianModel.cpp,3,0,0
PowerEditor/installer/zipped.package.release/unicode/themes/placeholder,0,0,0
PowerEditor/src/jsoncpp/test/data/test_string_unicode_03.json,1,0,0
PowerEditor/installer/externalTools/md5.src/md5.png,1,1,1
PowerEditor/src/NppLocalization.cpp,6,0,0
scintilla/src/LexAbaqus.cxx,6,0,0
PowerEditor/src/jsoncpp/test/data/test_real_05.expected,1,0,0
PowerEditor/src/jsoncpp/test/data/test_real_07.json,1,0,0
scintilla/src/LexGen.py,8,1,1
PowerEditor/src/jsoncpp/test/jsonchecker/fail22.json,1,0,0
scintilla/test/unit/README,5,1,1
PowerEditor/installer/APIs/html.xml,5,1,1
scintilla/lexers/LexRuby.cxx,3,1,1
PowerEditor/src/icons/CVS/Entries,0,0,0
PowerEditor/src/WinControls/Preference/RCa02240,0,0,0
PowerEditor/installer/externalTools/md5.src/rfc1321.html,1,1,1
PowerEditor/src/jsoncpp/test/jsonchecker/pass3.json,1,0,0
PowerEditor/bin/updater/gpup.exe,1,0,0
appveyor.yml,3,1,1
scintilla/lexers/LexObjC.cxx,3,1,1
PowerEditor/src/uchardet/uchardet.h,1,0,0
PowerEditor/src/jsoncpp/test/data/test_string_unicode_02.expected,1,0,0
scintilla/lexers/LexAbaqus.cxx,2,0,0
scintilla/macosx/SciTest/English.lproj/InfoPlist.strings,3,1,1
PowerEditor/installer/themes/Deep Black.xml,3,4,0
PowerEditor/src/jsoncpp/scons-tools/globtool.py,1,0,0
PowerEditor/src/WinControls/ToolTip/ToolTip.h,262,4,4
scintilla/cocoa/InfoBar.h,2,1,1
PowerEditor/bin/plugins/APIs/php.xml,3,0,0
scintilla/lexlib/LexerSimple.h,2,0,0
PowerEditor/installer/nativeLang/serbian.xml,4,0,0
scintilla/lexers/LexForth.cxx,2,0,0
scintilla/src/LexTAL.cxx,2,0,0
scintilla/src/LexHaskell.cxx,6,0,0
scintilla/lexers/LexTCL.cxx,3,1,1
PowerEditor/src/jsoncpp/test/data/test_array_06.json,1,0,0
PowerEditor/src/functionList.xml,12,7,0
scintilla/scripts/GenerateCaseConvert.py,1,1,1
scintilla/lexers/LexRust.cxx,0,0,0
PowerEditor/src/WinControls/FindCharsInRange/FindCharsInRange.h,12,0,0
PowerEditor/src/WinControls/AboutDlg/URLCtrl.h,262,3,2
PowerEditor/src/WinControls/VerticalFileSwitcher/VerticalFileSwitcherListView.cpp,42,3,0
scintilla/test/ScintillaCallable.py,1,1,1
PowerEditor/src/sqlite/shell.c,4,0,0
PowerEditor/installer/nativeLang/basque.xml,7,1,0
PowerEditor/misc/npp.help/HTML/Document properties.html,0,0,0
scintilla/src/UniConversion.h,6,1,1
PowerEditor/src/WinControls/DockingWnd/dockingResource.h,230,3,1
PowerEditor/installer/nativeLang/hungarian.xml,10,0,0
PowerEditor/bin/NppShell64.dll,0,3,0
PowerEditor/src/icons/save_dis.ico,221,0,0
PowerEditor/src/tools/NppShell/src/NppShell.rc,3,1,1
PowerEditor/misc/npp.help/HTML/Preferences.html,4,1,1
scintilla/src/LexSearchResult.cxx,17,2,1
scintilla/bin/empty.txt,5,0,0
PowerEditor/src/icons/CVS/Entries.Old,0,0,0
PowerEditor/installer/zipped.package.release/unicode/plugins/APIs/placeholder,0,0,0
scintilla/lexlib/StringCopy.h,0,0,0
scintilla/src/LexMatlab.cxx,6,0,0
PowerEditor/installer/APIs/cs.xml,3,0,0
PowerEditor/src/ScitillaComponent/columnEditor.aps,0,0,0
scintilla/cocoa/InfoBarCommunicator.h,1,0,0
scintilla/src/LexAsm.cxx,6,0,0
PowerEditor/src/icons/imprim_on.ico,221,0,0
PowerEditor/src/TinyXml/tinyXmlA/tinystrA.h,228,1,1
PowerEditor/src/WinControls/ImageListSet/ImageListSet.cpp,272,3,2
scintilla/src/LexInno.cxx,6,0,0
PowerEditor/src/MISC/Process/ProcessAvecThread/Process.h,228,1,0
scintilla/test/examples/x.cxx.styled,6,2,2
PowerEditor/src/jsoncpp/scons-tools/substinfile.py,1,0,0
scintilla/src/ExternalLexer.h,5,0,0
PowerEditor/installer/APIs/sql.xml,4,0,0
PowerEditor/bin/plugins/doc/quickText_README.txt,0,0,0
scintilla/lexers/LexMatlab.cxx,3,1,1
PowerEditor/bin/plugins/APIs/lisp.xml,3,0,0
PowerEditor/src/MISC/Exception/Win32Exception.h,272,1,1
PowerEditor/src/jsoncpp/test/data/test_basic_07.expected,1,0,0
PowerEditor/src/ScitillaComponent/FindReplaceDlg.cpp,386,88,48
PowerEditor/src/ScitillaComponent/UrlHighlighter.cpp,2,0,0
PowerEditor/src/icons/open_off.ico,221,0,0
PowerEditor/bin/allowAppDataPlugins.xml,0,0,0
PowerEditor/src/WinControls/SplitterContainer/SplitterContainer.cpp,280,5,3
PowerEditor/src/icons/startrecord_off.ico,221,0,0
PowerEditor/bin/plugins/APIs/cpp.api,0,0,0
PowerEditor/visual.net/notepadPlus.7.0.vcproj,6,2,2
PowerEditor/src/icons/functionList.bmp,1,0,0
PowerEditor/src/icons/saverecord_dis.ico,221,0,0
scintilla/src/SciTE.properties,5,1,1
PowerEditor/src/jsoncpp/test/jsonchecker/pass1.json,1,0,0
scintilla/scripts/ScintillaData.py,1,1,1
PowerEditor/misc/npp.help/HTML/Encoding.html,3,0,0
PowerEditor/gcc/readme.txt,223,2,1
PowerEditor/src/uchardet/nsSJISProber.h,1,0,0
scintilla/src/LexTADS3.cxx,5,0,0
scintilla/include/BoostRegexSearch.h,6,1,1
scintilla/boostregex/getboostver.cpp,0,1,0
scintilla/doc/annotations.png,1,0,0
PowerEditor/misc/npp.help/HTML/Display.html,3,0,0
scintilla/vcbuild/SciLexer.opt,3,1,1
PowerEditor/misc/npp.help/HTML/Brace Matching.html,0,0,0
scintilla/test/examples/x.php.styled,5,1,1
scintilla/lexlib/LexerBase.h,2,0,0
scintilla/test/unit/testCharClassify.cxx,1,1,1
PowerEditor/bin/plugins/Config/Explorer.ini,0,0,0
PowerEditor/src/cursors/drag_interdit.cur,222,0,0
PowerEditor/src/icons/wrap.bmp,221,0,0
scintilla/src/UnicodeFromUTF8.h,1,1,1
scintilla/boostregex/BuildBoost.bat,6,2,0
scintilla/lexers/LexTACL.cxx,2,0,0
PowerEditor/src/xmlUpdater/stylesLexerModel.xml,0,0,0
scintilla/macosx/QuartzTextLayout.h,2,1,1
scintilla/doc/Steps.html,5,0,0
PowerEditor/bin/plugins/APIs/fortran.xml,3,0,0
PowerEditor/src/icons/funclstSort.bmp,4,0,0
PowerEditor/src/ScitillaComponent/FunctionCallTip.h,277,3,2
PowerEditor/src/MISC/Exception/Win32Exception.cpp,239,1,0
PowerEditor/installer/nativeLang/hungarianA.xml,10,0,0
PowerEditor/misc/npp.help/HTML/Session Management.html,0,0,0
PowerEditor/src/ScitillaComponent/SmartHighlighter.h,231,2,1
PowerEditor/src/WinControls/Grid/BabyGridWrapper.cpp,259,2,1
scintilla/src/LexPascal.cxx,5,0,0
scintilla/src/LexMagik.cxx,5,0,0
scintilla/src/LexSML.cxx,2,0,0
PowerEditor/misc/npp.help/HTML/Shortcut Mapper.html,0,0,0
scintilla/lexers/LexMarkdown.cxx,5,1,1
PowerEditor/src/icons/zoomOut_off.ico,221,0,0
PowerEditor/installer/externalTools/md5.src/index.html,1,1,1
scintilla/doc/ScintillaDownload.html,8,1,1
PowerEditor/src/ScitillaComponent/UserDefineResource.h,239,1,1
PowerEditor/src/Utf8_16.h,299,4,4
PowerEditor/bin/SciLexer.dll,0,0,0
PowerEditor/src/icons/playrecord_m_on.ico,221,0,0
PowerEditor/misc/npp.help/HTML/styles.css,0,0,0
scintilla/src/LexMPT.cxx,5,0,0
PowerEditor/src/icons/chameleon.ico,10,2,2
PowerEditor/src/icons/allChars_on.ico,221,0,0
scintilla/src/PropSet.cxx,5,0,0
scintilla/cocoa/ScintillaTest/main.m,1,0,0
scintilla/lexers/LexCoffeeScript.cxx,1,1,1
scintilla/lexers/LexPO.cxx,1,1,1
PowerEditor/src/TinyXml/tinyxml.h,263,5,3
PowerEditor/src/tools/nppCM/nppcm.cpp,224,0,0
scintilla/src/LexPB.cxx,5,0,0
scintilla/src/PerLine.h,3,1,1
PowerEditor/src/cursors/drag_out.cur,221,0,0
PowerEditor/bin/plugins/APIs/pascal.api,0,0,0
PowerEditor/src/Notepad_plus.rc,396,38,20
PowerEditor/src/NppIO.cpp,144,49,21
PowerEditor/bin/plugins/APIs/cs.api,0,0,0
scintilla/src/Style.h,5,1,1
PowerEditor/src/jsoncpp/test/jsonchecker/fail31.json,1,0,0
PowerEditor/src/jsoncpp/test/jsonchecker/fail9.json,1,0,0
PowerEditor/src/tools/xmlApiSorter/sorter.cpp,222,0,0
scintilla/include/ILexer.h,5,1,1
PowerEditor/src/MISC/RegExt/regExtDlg.cpp,282,11,7
PowerEditor/src/tools/nppCM/Makefile,224,0,0
scintilla/test/examples/x.html,5,1,1
PowerEditor/src/icons/cut_on.ico,221,0,0
PowerEditor/installer/nativeLang/arabic.xml,1,0,0
PowerEditor/installer/nativeLang/serbianCyrillic.xml,7,2,1
scintilla/qt/ScintillaEdit/ScintillaEdit.h.template,1,1,1
PowerEditor/bin/Nppold.exe,3,1,0
PowerEditor/src/WinControls/AnsiCharPanel/asciiListView.cpp,0,0,0
PowerEditor/src/uchardet/nsHebrewProber.h,1,0,0
scintilla/win32/HanjaDic.h,0,0,0
PowerEditor/src/icons/stoprecord_dis.ico,221,0,0
PowerEditor/bin/plugins/APIs/pascal.xml,3,0,0
scintilla/include/HFacer.py,5,1,1
PowerEditor/src/WinControls/FindCharsInRange/findCharsInRange.rc,8,0,0
scintilla/vcbuild/SciLexer.dsp,8,0,0
scintilla/vcbuild/SciLexer.dsw,5,0,0
scintilla/qt/ScintillaEdit/ScintillaEdit.pro,1,1,1
scintilla/gtk/Converter.h,5,0,0
PowerEditor/misc/npp.help/HTML/Dialog free search.html,2,0,0
PowerEditor/src/MISC/Process/ProcessAvecThread/Process.cpp,226,1,0
PowerEditor/src/icons/unsaved.ico.old,221,0,0
PowerEditor/src/icons/userDefineDlg_on.ico,221,0,0
PowerEditor/src/jsoncpp/test/data/test_real_01.json,1,0,0
PowerEditor/misc/npp.help/HTML/Images/Toolbar/stopRecord.png,0,0,0
PowerEditor/misc/npp.help/HTML/Searching in Files.html,0,0,0
PowerEditor/bin/themes/Ruby Blue.xml,5,0,0
scintilla/src/Indicator.cxx,6,1,1
PowerEditor/src/icons/playRecord.bmp,221,0,0
PowerEditor/src/jsoncpp/test/data/test_array_05.expected,1,0,0
PowerEditor/misc/npp.help/HTML/Images/Screenshots/contextmenu.png,2,0,0
PowerEditor/src/WinControls/ReadDirectoryChanges/ReadDirectoryChangesPrivate.h,9,0,0
PowerEditor/src/icons/paste.bmp,221,0,0
PowerEditor/src/icons/docSwitcher.ico,1,0,0
PowerEditor/misc/npp.help/HTML/Exiting.html,0,0,0
PowerEditor/installer/nativeLang/chineseSimplified.xml,6,1,0
PowerEditor/src/jsoncpp/test/jsonchecker/fail30.json,1,0,0
PowerEditor/src/tools/nppCM/nppcm.rc,224,0,0
PowerEditor/src/jsoncpp/test/data/test_basic_05.expected,1,0,0
PowerEditor/src/WinControls/DockingWnd/DockingSplitter.h,236,1,1
PowerEditor/src/jsoncpp/test/data/test_string_unicode_02.json,1,0,0
PowerEditor/src/MISC/Common/verifySignedfile.h,2,0,0
PowerEditor/src/WinControls/shortcut/RunMacroDlg.h,264,1,1
PowerEditor/installer/APIs/php.xml,4,3,1
PowerEditor/src/jsoncpp/src/test_lib_json/main.cpp,1,0,0
PowerEditor/bin/plugins/APIs/python.xml,3,0,0
PowerEditor/src/icons/wrap_on.ico,221,0,0
PowerEditor/gcc/include/various.h,234,2,1
scintilla/cocoa/InfoBar.mm,2,1,1
PowerEditor/bin/insertExt.ini,0,0,0
PowerEditor/src/jsoncpp/test/jsonchecker/fail21.json,1,0,0
scintilla/src/LexConf.cxx,5,0,0
PowerEditor/src/uchardet/LangCyrillicModel.cpp,3,0,0
PowerEditor/src/icons/saveall_off.ico,221,0,0
PowerEditor/src/icons/dupli_on.ico,221,0,0
scintilla/cocoa/ScintillaTest/English.lproj/InfoPlist.strings,2,0,0
scintilla/lexers/LexASY.cxx,2,0,0
PowerEditor/installer/externalTools/md5.src/main.c,1,1,1
scintilla/test/examples/x.html.styled,5,1,1
PowerEditor/installer/zipped.package.release/ansi/updater/placeholder,0,0,0
PowerEditor/installer/nativeLang/spanish.xml,10,4,0
PowerEditor/src/WinControls/TabBar/TabBar.cpp,336,26,12
scintilla/src/XPM.cxx,5,1,1
PowerEditor/src/jsoncpp/SConstruct,1,0,0
PowerEditor/src/clipboardFormats.h,4,0,0
scintilla/lexers/LexSearchResult.cxx,4,2,1
PowerEditor/src/TinyXml/tinyxmlparser.cpp,270,6,3
PowerEditor/bin/plugins/Config/Favorites.dat,0,0,0
scintilla/lexers/LexPS.cxx,2,0,0
PowerEditor/src/sqlite/sqlite3ext.h,4,0,0
PowerEditor/src/jsoncpp/test/jsonchecker/fail33.json,1,0,0
PowerEditor/src/WinControls/Grid/BabyGridWrapper.h,266,3,1
PowerEditor/src/tools/xmlApiSorter/sorter.vcproj,221,0,0
scintilla/lexlib/StyleContext.cxx,2,0,0
scintilla/src/PerLine.cxx,5,1,1
PowerEditor/misc/npp.help/HTML/Images/Screenshots/run.png,0,0,0
PowerEditor/misc/npp.help/HTML/Introduction.html,6,0,0
PowerEditor/src/TinyXml/tinyxmlerror.cpp,258,1,1
PowerEditor/src/ScitillaComponent/UserDefineDialog.h,276,6,3
PowerEditor/src/jsoncpp/test/data/test_comment_01.expected,1,0,0
PowerEditor/src/WinControls/DockingWnd/common_func.h.bak,0,0,0
PowerEditor/misc/npp.help/HTML/Images/Screenshots/systemtray.png,5,0,0
scintilla/test/examples/x.lua.styled,1,1,1
PowerEditor/src/jsoncpp/test/jsonchecker/fail1.json,1,0,0
scintilla/qt/ScintillaEditPy/global.h,1,1,1
scintilla/lexers/LexAsm.cxx,3,1,1
scintilla/boostregex/UTF8DocumentIterator.h,7,2,1
scintilla/lexers/LexPowerShell.cxx,5,1,1
PowerEditor/src/jsoncpp/doc/footer.html,1,0,0
scintilla/src/FontQuality.h,2,1,1
PowerEditor/src/jsoncpp/test/data/test_object_01.json,1,0,0
scintilla/boostregex/nppSpecifics.mak,6,1,0
PowerEditor/src/tools/NppShell/codeblocks/NppShell.cbp,3,1,1
PowerEditor/src/MISC/PluginsManager/PluginsManager.cpp.bak,0,0,0
PowerEditor/src/jsoncpp/build/vs71/release/lib_json/json_vc71_libmt.lib,1,0,0
PowerEditor/src/jsoncpp/makefiles/vs71/test_lib_json.vcproj,1,0,0
PowerEditor/src/icons/startRecord.bmp,221,0,0
scintilla/lexers/LexCLW.cxx,2,0,0
scintilla/boostregex/getboostver.mak,0,1,0
PowerEditor/src/uchardet/nsSJISProber.cpp,3,0,0
PowerEditor/src/jsoncpp/test/data/test_real_03.json,1,0,0
scintilla/cocoa/res/mac_cursor_busy@2x.png,0,0,0
PowerEditor/src/tools/xmlUpdater/langsModel.xml,221,0,0
PowerEditor/installer/APIs/rc.xml,3,0,0
PowerEditor/src/uchardet/EUCTWFreq.tab,1,0,0
PowerEditor/bin/ConvertExt.enc,0,0,0
scintilla/boostregex/BoostRegExSearch.cxx,12,3,2
PowerEditor/src/jsoncpp/test/jsonchecker/fail28.json,1,0,0
PowerEditor/src/langs.xml,5,3,2
scintilla/lexers/LexTeX.cxx,3,1,1
scintilla/src/RunStyles.cxx,5,1,1
scintilla/cocoa/ScintillaFramework/Scintilla_Prefix.pch,1,0,0
scintilla/qt/ScintillaEditPy/README,1,1,1
PowerEditor/src/jsoncpp/test/data/test_real_01.expected,1,0,0
PowerEditor/installer/nativeLang/croatian.xml,7,1,0
PowerEditor/bin/plugins/APIs/tex.api,0,0,0
PowerEditor/src/icons/undo.bmp,221,0,0
PowerEditor/src/MISC/FileNameStringSplitter.h,265,6,3
scintilla/src/StyleContext.h,5,0,0
PowerEditor/src/xmlUpdater/langsModel.xml,0,0,0
PowerEditor/installer/nativeLang/kannada.xml,0,0,0
scintilla/macosx/makefile,3,1,1
PowerEditor/bin/plugins/APIs/fortran.api,0,0,0
PowerEditor/src/WinControls/DockingWnd/common_func.cpp,37,2,2
PowerEditor/src/Notepad_plus.aps,0,0,0
PowerEditor/src/jsoncpp/test/data/test_array_04.expected,1,0,0
PowerEditor/misc/npp.help/HTML/Images/Toolbar/saveRecord.png,0,0,0
scintilla/src/LexLout.cxx,5,0,0
PowerEditor/src/WinControls/ProjectPanel/ProjectPanel_rc.h,11,0,0
PowerEditor/src/uchardet/nsUniversalDetector.cpp,3,0,0
PowerEditor/src/jsoncpp/test/jsonchecker/fail7.json,1,0,0
PowerEditor/src/WinControls/TaskList/TaskList.h,267,4,4
scintilla/lexers/LexScriptol.cxx,3,1,1
PowerEditor/src/WinControls/ClipboardHistory/clipboardHistoryPanel.rc,13,0,0
PowerEditor/src/CMakeLists.txt,221,0,0
PowerEditor/bin/updater/readme.txt,0,0,0
PowerEditor/bin/themes/Black board.xml,5,0,0
PowerEditor/src/uchardet/JpCntx.cpp,3,0,0
scintilla/macosx/ScintillaCallTip.cxx,2,1,1
scintilla/test/unit/test.mak,0,0,0
PowerEditor/bin/plugins/Config/SpellChecker.ini,0,0,0
PowerEditor/src/MISC/md5/md5Dlgs.cpp,1,1,0
PowerEditor/misc/npp.help/HTML/Tab Bar.html,3,0,0
PowerEditor/src/jsoncpp/test/data/test_array_04.json,1,0,0
PowerEditor/src/icons/closeTabButton_hover.bmp,221,0,0
scintilla/lexers/LexErlang.cxx,2,0,0
PowerEditor/misc/npp.help/HTML/Upgrading.html,2,0,0
PowerEditor/src/localizationString.h,234,8,4
PowerEditor/src/icons/openFile.bmp,221,0,0
PowerEditor/installer/nativeLang/turkish.xml,7,0,0
PowerEditor/misc/npp.help/HTML/Saving Sessions.html,1,1,1
PowerEditor/bin/plugins/NPPTextFX/W3C-CSSValidator.htm,0,0,0
scintilla/lexers/LexLua.cxx,3,1,1
PowerEditor/src/WinControls/ColourPicker/WordStyleDlg.cpp,309,23,10
PowerEditor/src/WinControls/ToolBar/ToolBar.cpp.new,0,0,0
PowerEditor/src/jsoncpp/test/data/test_integer_03.expected,1,0,0
PowerEditor/src/jsoncpp/src/lib_json/json_value.cpp,1,0,0
PowerEditor/src/jsoncpp/test/jsonchecker/pass2.json,1,0,0
PowerEditor/bin/plugins/APIs/css.api,0,0,0
PowerEditor/misc/npp.help/HTML/Closing.html,0,0,0
PowerEditor/installer/nativeLang/norwegian.xml,6,1,0
PowerEditor/bin/plugins/Config/HexEditor.ini,0,0,0
PowerEditor/src/jsoncpp/test/data/test_string_unicode_01.expected,1,0,0
PowerEditor/bin/plugins/Config/NppExec.ini,0,0,0
PowerEditor/installer/nativeLang/english_customizable.xml,10,4,1
scintilla/src/Catalogue.cxx,5,1,1
PowerEditor/src/ScitillaComponent/ScintillaCtrls.h,32,0,0
PowerEditor/installer/nativeLang/polish.xml,7,2,0
PowerEditor/installer/nativeLang/bulgarian.xml,4,0,0
PowerEditor/installer/nativeLang/korean.xml,4,1,0
PowerEditor/src/WinControls/AnsiCharPanel/ListView.cpp,45,4,2
scintilla/src/Style.cxx,5,1,1
PowerEditor/installer/nativeLang/telugu.xml,2,1,1
scintilla/src/LexSpecman.cxx,5,0,0
PowerEditor/installer/zipped.package.release/ansi/user.manual/placeholder,0,0,0
PowerEditor/src/jsoncpp/test/data/test_basic_06.expected,1,0,0
PowerEditor/src/uchardet/nsCodingStateMachine.h,1,0,0
scintilla/test/examples/x.php,5,1,1
PowerEditor/installer/nativeLang/ligurian.xml,1,0,0
PowerEditor/src/jsoncpp/test/jsonchecker/fail24.json,1,0,0
scintilla/lexers/LexMMIXAL.cxx,3,1,1
PowerEditor/misc/npp.help/HTML/Images/checkboxoff.png,0,0,0
scintilla/qt/ScintillaEditBase/PlatQt.h,1,1,1
scintilla/win32/scintilla_vc6.mak,6,1,1
PowerEditor/installer/externalTools/md5.src/Makefile,1,1,1
PowerEditor/installer/zipped.package.release/unicode/updater/placeholder,0,0,0
PowerEditor/bin/LINEDRAW.TTF,0,0,0
scintilla/src/nppBackup/Editor.cxx.2007-05-22_000024.bak,0,0,0
PowerEditor/bin/nppcm.dll,0,0,0
PowerEditor/misc/chameleon/chameleon-pencil-1000.png,4,0,0
PowerEditor/src/icons/undo_on.ico,221,0,0
PowerEditor/installer/nativeLang/friulian.xml,4,0,0
PowerEditor/src/icons/npp.ico,222,2,2
PowerEditor/installer/images/splash.bmp,221,0,0
PowerEditor/installer/nativeLang/japanese.xml,8,0,0
PowerEditor/src/WinControls/ReadDirectoryChanges/ThreadSafeQueue.h,6,0,0
PowerEditor/installer/nativeLang/tatar.xml,0,0,0
scintilla/lexers/LexR.cxx,2,0,0
PowerEditor/misc/npp.help/HTML/Marking search results.html,3,0,0
PowerEditor/src/icons/asciiPanel.ico,1,0,0
README.md,0,1,0
PowerEditor/misc/npp.help/HTML/Images/Screenshots/macro_multiple.png,0,0,0
scintilla/src/LexBullant.cxx,5,0,0
PowerEditor/misc/npp.help/Notepad++Help.hhp,7,1,1
PowerEditor/src/tools/xmlUpdater/stylesLexerModel.xml,0,0,0
PowerEditor/src/WinControls/DockingWnd/RCa02172,0,0,0
PowerEditor/src/icons/imprim_off.ico,221,0,0
PowerEditor/installer/images/headerRight.bmp,221,0,0
scintilla/src/Editor.h,9,1,1
PowerEditor/src/icons/indentGuide.bmp,221,0,0
scintilla/lexers/LexCsound.cxx,2,0,0
PowerEditor/src/tools/NppShell/src/NppShell.h,3,2,1
PowerEditor/src/jsoncpp/test/jsonchecker/fail14.json,1,0,0
PowerEditor/misc/npp.help/HTML/Images/Toolbar/closeAll.png,0,0,0
PowerEditor/src/icons/monitoring.ico,3,0,0
scintilla/include/Scintilla.h,32,3,3
scintilla/src/RESearch.h,6,1,1
PowerEditor/installer/nativeLang/urdu.xml,0,0,0
scintilla/lexers/LexDMAP.cxx,0,0,0
scintilla/src/LexYAML.cxx,6,1,0
scintilla/lexers/LexCmake.cxx,2,0,0
PowerEditor/misc/npp.help/HTML/Images/Toolbar/redo.png,0,0,0
PowerEditor/bin/nppv42RC.zip,0,0,0
PowerEditor/src/localization.cpp,70,10,3
PowerEditor/misc/npp.help/HTML/Control files.html,0,0,0
scintilla/cocoa/ScintillaListBox.mm,1,0,0
PowerEditor/bin/ConvertExt.ini,0,0,0
PowerEditor/src/StaticControl.h,222,0,0
PowerEditor/misc/npp.help/HTML/Images/Screenshots/replace.png,0,0,0
PowerEditor/installer/nativeLang/georgian.xml,5,1,1
scintilla/qt/ScintillaEdit/ScintillaDocument.h,1,1,1
PowerEditor/src/uchardet/LangBulgarianModel.cpp,3,0,0
PowerEditor/src/icons/project_root.bmp,2,1,0
PowerEditor/src/WinControls/VerticalFileSwitcher/VerticalFileSwitcherListView.h,29,2,1
scintilla/macosx/TView.h,2,1,1
PowerEditor/installer/nativeLang/slovenian.xml,4,2,0
scintilla/src/RESearch.cxx,6,1,1
scintilla/gtk/scintilla-marshal.c,5,0,0
scintilla/gtk/scintilla-marshal.h,5,0,0
PowerEditor/src/tools/xmlUpdater/xmlUpdater.cpp,225,0,0
PowerEditor/installer/nativeLang/chinese.xml,25,2,1
PowerEditor/misc/npp.help/HTML/Images/fold_bar.png,0,0,0
PowerEditor/src/WinControls/DockingWnd/Gripper.h.bak,0,0,0
PowerEditor/src/WinControls/ToolBar/ToolBar.h,282,4,4
PowerEditor/installer/nativeLang/bosnian.xml,2,0,0
PowerEditor/src/xpm_icons.h,265,4,2
scintilla/lexers/LexHTML.cxx,5,4,1
PowerEditor/src/WinControls/Preference/preference_rc.h,281,5,3
scintilla/lexers/LexGAP.cxx,2,0,0
scintilla/cocoa/res/info_bar_bg.png,1,0,0
scintilla/lexlib/CharacterCategory.cxx,1,1,1
PowerEditor/installer/externalTools/md5.exe,1,1,1
scintilla/qt/ScintillaEditBase/ScintillaEditBase.h,1,1,1
PowerEditor/misc/npp.help/HTML/Images/Screenshots/fif_result.png,2,0,0
PowerEditor/installer/themes/HotFudgeSundae.xml,0,4,0
scintilla/src/LexTACL.cxx,2,0,0
PowerEditor/src/tools/xmlUpdater/stylesGlobalModel.xml,0,0,0
PowerEditor/src/jsoncpp/include/json/writer.h,1,0,0
PowerEditor/src/jsoncpp/test/jsonchecker/fail12.json,1,0,0
scintilla/src/DocumentAccessor.cxx,6,0,0
scintilla/macosx/SciTest/Info.plist,3,1,1
scintilla/lexers/LexPB.cxx,2,0,0
PowerEditor/src/jsoncpp/test/jsonchecker/fail29.json,1,0,0
PowerEditor/src/icons/playrecord_m_off.ico,221,0,0
PowerEditor/misc/npp.help/HTML/Folding.html,0,0,0
PowerEditor/misc/npp.help/HTML/Images/Screenshots/main.png,2,0,0
PowerEditor/src/ScitillaComponent/UrlHighlighter.h,2,0,0
PowerEditor/src/jsoncpp/test/data/test_basic_09.expected,1,0,0
scintilla/cocoa/ScintillaTest/ScintillaTest_Prefix.pch,1,0,0
PowerEditor/bin/plugins/HexEditor.dll,0,0,0
PowerEditor/src/uchardet/nsMBCSGroupProber.h,1,0,0
PowerEditor/src/icons/saveRecord.bmp,221,0,0
PowerEditor/bin/themes/Choco.xml,5,0,0
scintilla/test/examples/x.vb,5,1,1
PowerEditor/misc/npp.help/HTML/Images/Toolbar/openFile.png,0,0,0
PowerEditor/installer/nativeLang/kyrgyz.xml,4,1,0
PowerEditor/src/WinControls/ProjectPanel/ProjectPanel.h,22,4,1
PowerEditor/src/tools/NppShell/src/afxres.h,3,0,0
PowerEditor/installer/nativeLang/samogitian.xml,1,0,0
PowerEditor/misc/npp.help/HTML/Further help.html,0,0,0
PowerEditor/installer/themes/Monokai.xml,3,4,0
PowerEditor/src/toolbarIcons.xml,221,0,0
scintilla/test/unit/testUnicodeFromUTF8.cxx,0,0,0
scintilla/src/nppBackup/Editor.cxx.2007-05-22_002237.bak,0,0,0
PowerEditor/src/WinControls/DockingWnd/common_func.h,0,0,0
PowerEditor/installer/themes/Navajo.xml,0,4,0
NULL,0,0,0
PowerEditor/misc/npp.help/HTML/Bug Reports.html,1,1,1
PowerEditor/installer/themes/Solarized.xml,4,5,0
PowerEditor/src/WinControls/DockingWnd/DockingGUIWidget.rc,258,2,1
PowerEditor/misc/npp.help/HTML/Volatile Search.html,2,0,0
PowerEditor/misc/npp.help/HTML/Hiding lines.html,0,0,0
PowerEditor/src/jsoncpp/test/data/test_array_06.expected,1,0,0
PowerEditor/src/tools/nppCM/readme.txt,224,0,0
PowerEditor/misc/npp.help/HTML/Images/saved.png,0,0,0
PowerEditor/misc/npp.help/HTML/Go to dialog.html,0,0,0
scintilla/test/unit/unitTest.cxx,5,1,1
PowerEditor/src/icons/undo_dis.ico,221,0,0
PowerEditor/bin/plugins/APIs/actionscript.xml,3,0,0
PowerEditor/bin/plugins/NPPTextFX.dll,0,0,0
scintilla/lexers/LexEScript.cxx,2,0,0
scintilla/test/unit/testCellBuffer.cxx,0,0,0
PowerEditor/misc/npp.help/HTML/Unprintable characters.html,0,0,0
PowerEditor/src/WinControls/WindowsDlg/WinMgr.cpp,277,1,1
scintilla/lexers/LexVB.cxx,2,0,0
PowerEditor/src/icons/closeAll.bmp,221,0,0
PowerEditor/src/icons/syncV.bmp,221,0,0
LICENSE,0,0,0
PowerEditor/src/jsoncpp/test/data/test_basic_07.json,1,0,0
scintilla/src/AutoComplete.cxx,6,1,1
PowerEditor/src/MISC/md5/md5Dlgs_rc.h,1,0,0
PowerEditor/misc/vistaIconTool/changeIcon.bat,1,0,0
scintilla/cocoa/ScintillaCallTip.h,1,0,0
PowerEditor/misc/npp.help/HTML/Indentation.html,1,1,1
PowerEditor/misc/npp.help/HTML/Images/Screenshots/col_edit_before.png,2,0,0
PowerEditor/src/jsoncpp/test/data/test_string_01.json,1,0,0
PowerEditor/src/Parameters.h,411,53,35
scintilla/lexers/LexD.cxx,3,1,1
PowerEditor/src/WinControls/ColourPicker/FontPreviewCombo.cpp,1,0,0
PowerEditor/src/icons/docMap.bmp,4,0,0
PowerEditor/src/uchardet/nsEUCJPProber.h,1,0,0
scintilla/win32/Scintilla.def,5,0,0
PowerEditor/src/NppCommands.cpp,199,44,22
PowerEditor/src/WinControls/ColourPicker/ColourPicker.h,231,1,1
PowerEditor/src/jsoncpp/include/json/value.h,1,0,0
scintilla/doc/SciBreak.jpg,5,0,0
scintilla/src/CallTip.h,5,1,1
PowerEditor/visual.net/Release/BuildLog.htm,0,0,0
PowerEditor/src/uchardet/nsSBCSGroupProber.h,1,0,0
PowerEditor/bin/plugins/APIs/javascript.xml,3,0,0
scintilla/src/CaseConvert.cxx,1,1,1
PowerEditor/installer/zipped.package.release/unicode/plugins/Config/placeholder,0,0,0
scintilla/win32/SciLexer.vcxproj,0,1,0
PowerEditor/bin/stylers.xml,0,0,0
scintilla/src/LexGAP.cxx,5,0,0
PowerEditor/src/MISC/md5/md5Dlgs.rc,1,0,0
PowerEditor/src/jsoncpp/test/cleantests.py,1,0,0
PowerEditor/src/WinControls/WindowsDlg/WindowsDlg.rc,258,1,1
scintilla/macosx/SciTest/English.lproj/main.nib/objects.xib,3,1,1
PowerEditor/installer/nsisInclude/winVer.nsh,1,0,0
PowerEditor/installer/nativeLang/catalan.xml,11,3,2
PowerEditor/src/MISC/Common/mutex.cpp,0,1,0
scintilla/lexers/LexAsn1.cxx,3,1,1
PowerEditor/src/WinControls/Grid/ShortcutMapper.h,269,3,2
PowerEditor/installer/externalTools/md5.src/md5.sln,1,1,1
scintilla/lexlib/LexerNoExceptions.h,2,0,0
PowerEditor/src/jsoncpp/test/data/test_array_02.expected,1,0,0
scintilla/lexers/LexCaml.cxx,2,0,0
scintilla/macosx/SciTest/SciTest.xcode/project.pbxproj,3,1,1
scintilla/vcbuild/SciLexer.7.vcproj,5,1,0
scintilla/test/simpleTests.py,6,2,2
PowerEditor/src/WinControls/ColourPicker/WordStyleDlg.cpp.dockable,1,1,1
PowerEditor/src/WinControls/DocumentMap/documentSnapshot.rc,2,0,0
scintilla/lexers/LexVerilog.cxx,2,0,0
PowerEditor/installer/themes/Twilight.xml,3,4,0
PowerEditor/src/lastRecentFileList.cpp,327,12,7
PowerEditor/installer/stylesGlobalModel.xml,221,1,0
scintilla/test/MessageNumbers.py,5,1,1
PowerEditor/src/ScitillaComponent/FindReplaceDlg,2,0,0
PowerEditor/misc/chameleon/chameleon-pencil.eps,4,0,0
PowerEditor/misc/npp.help/HTML/Images/Screenshots/find.png,0,0,0
PowerEditor/src/icons/unsaved.ico,221,0,0
scintilla/src/EditView.cxx,0,0,0
scintilla/test/README,6,2,2
scintilla/boostregex/UTF8DocumentIterator.cxx,6,0,0
PowerEditor/src/icons/playrecord_on.ico,221,0,0
PowerEditor/bin/readme.txt,223,3,2
scintilla/cocoa/res/mac_cursor_flipped@2x.png,0,0,0
PowerEditor/bin/plugins/APIs/flash.api,0,0,0
PowerEditor/src/tools/nppCM/npp.bmp,224,0,0
PowerEditor/src/uchardet/nsCharSetProber.cpp,10,0,0
scintilla/lexlib/PropSetSimple.cxx,3,1,1
PowerEditor/src/icons/print.bmp,221,0,0
scintilla/doc/ScintillaUsage.html,5,0,0
PowerEditor/src/langs.model.xml,240,20,5
PowerEditor/src/WinControls/ColourPicker/WordStyleDlgRes.h,227,0,0
PowerEditor/src/WinControls/WindowsDlg/WindowsDlgRc.h,259,2,1
scintilla/src/LexSorcus.cxx,2,0,0
PowerEditor/src/ScitillaComponent/xmlMatchedTagsHighlighter.cpp,286,14,8
scintilla/lexers/LexLaTeX.cxx,1,1,1
scintilla/lexlib/LexerModule.h,2,0,0
PowerEditor/installer/nativeLang/finnish.xml,18,1,1
scintilla/test/unit/testContractionState.cxx,6,2,2
PowerEditor/misc/npp.help/HTML/Editing.html,0,0,0
PowerEditor/src/jsoncpp/test/data/test_string_02.json,1,0,0
PowerEditor/misc/npp.help/HTML/Normal Search.html,1,1,1
PowerEditor/src/WinControls/DocumentMap/documentMap_rc.h,13,0,0
scintilla/lexlib/LexerModule.cxx,3,1,1
scintilla/src/PositionCache.cxx,5,1,1
PowerEditor/src/MISC/RegExt/regExtDlgRc.h,226,0,0
PowerEditor/src/jsoncpp/test/data/test_array_03.expected,1,0,0
PowerEditor/src/icons/nppNewIcon.ico,1,0,0
scintilla/src/LexVHDL.cxx,6,0,0
PowerEditor/bin/SourceCodePro-Regular.otf,1,0,0
scintilla/macosx/SciTest/English.lproj/main.nib/info.nib,3,1,1
PowerEditor/src/icons/clipboardPanel.ico,1,0,0
PowerEditor/src/icons/showPannel.bmp,221,0,0
PowerEditor/src/icons/findResult.ico,221,0,0
scintilla/doc/SciCoding.html,5,0,0
PowerEditor/misc/npp.help/HTML/Settings.html,1,1,1
PowerEditor/src/jsoncpp/include/json/config.h,1,0,0
PowerEditor/src/jsoncpp/src/test_lib_json/sconscript,1,0,0
PowerEditor/src/WinControls/Preference/preferenceDlg.cpp.bak,0,0,0
PowerEditor/src/jsoncpp/test/data/test_complex_01.json,1,0,0
PowerEditor/src/ScitillaComponent/DocTabView.cpp,324,7,5
PowerEditor/misc/npp.help/HTML/Images/Screenshots/shortcut_mapper_scint.png,0,0,0
scintilla/License.txt,5,0,0
scintilla/src/Document.cxx.bak,0,0,0
PowerEditor/src/jsoncpp/test/data/test_large_01.expected,1,0,0
scintilla/src/UniConversion.cxx,5,1,1
PowerEditor/misc/npp.help/HTML/Images/Screenshots/styler_config_default.png,0,0,0
scintilla/src/CharacterSet.h,5,0,0
ISSUE_TEMPLATE.md,0,1,0
PowerEditor/src/WinControls/PluginsAdmin/pluginsAdmin.h,0,0,0
PowerEditor/src/jsoncpp/LICENSE,1,0,0
scintilla/src/LexKix.cxx,6,0,0
PowerEditor/misc/npp.help/HTML/Display Shortcuts.html,2,0,0
PowerEditor/src/MISC/PluginsManager/IDAllocator.cpp,12,0,0
PowerEditor/src/MISC/Common/verifySignedfile.cpp,2,2,0
scintilla/cocoa/PlatCocoa.h,2,1,1
PowerEditor/bin/plugins/APIs/cs.xml,3,0,0
PowerEditor/src/jsoncpp/makefiles/vs71/lib_json.vcproj,1,0,0
scintilla/macosx/SciTest/English.lproj/main.nib/classes.nib,3,1,1
scintilla/gtk/PlatGTK.cxx,8,1,1
PowerEditor/src/icons/delete.ico,221,0,0
scintilla/cocoa/ScintillaTest/AppController.mm,3,1,1
scintilla/src/LexPowerPro.cxx,2,0,0
PowerEditor/misc/npp.help/HTML/Other editing tools.html,1,1,1
scintilla/src/ViewStyle.h,5,1,1
PowerEditor/installer/nativeLang/russian.xml,16,6,2
PowerEditor/src/jsoncpp/test/jsonchecker/fail2.json,1,0,0
PowerEditor/src/icons/playrecord_off.ico,221,0,0
