commit_hash,author_name,author_date_unix_timestamp,author_email,author_date,commit_message,fix,classification,linked,contains_bug,fixes,ns,nd,nf,entrophy,la,ld,fileschanged,lt,ndev,age,nuc,exp,rexp,sexp,npf,npbc,glm_probability,repository_id,DRE,BADFIX
b99bf1cee53929d9dad7fe25d86492d2eb262495,Kevin Kwok,1484245239,antimatter15@gmail.com,Thu Jan 12 13:20:39 2017 -0500,Update index.js,False,None,False,False,,1.0,1.0,1.0,0.0,3.0,1.0,"src/index.js,CAS_DELIMITER",148.0,3.0,78.98081018518519,13.0,329.0,1.0126613033932585,143.0,8.0,13.0,0.0,f99bab7e-870c-11e7-ae77-080027bda63f,0.6666666666666666,0.5
157d9b0e0a927602d511e9dcd9c16ce7b14f5c11,Rainer Eli,1477893422,claushellsing@gmail.com,Sun Oct 30 23:57:02 2016 -0600,Update README.md (#76)fix grammar,True,Corrective,True,False,,1.0,1.0,1.0,0.0,2.0,2.0,"README.md,CAS_DELIMITER",748.0,3.0,2.2779629629629627,226.0,1.0,1.4389887001056825,1.0,6.0,0.0,0.0,f99bab7e-870c-11e7-ae77-080027bda63f,0.5,0.0
d7ba0e32a884e80f84432a9da29b88c9a1367228,Kevin Kwok,1477696606,antimatter15@gmail.com,Fri Oct 28 19:16:46 2016 -0400,Update README.md,False,None,False,False,,1.0,1.0,1.0,0.0,1.0,1.0,"README.md,CAS_DELIMITER",748.0,3.0,0.0003935185185185185,225.0,328.0,2542.176470588235,87.0,6.0,13.0,0.0,f99bab7e-870c-11e7-ae77-080027bda63f,0.5,0.0
61447d8ebdc43da66185081dd84bf2a9f5fac38f,Kevin Kwok,1477696572,antimatter15@gmail.com,Fri Oct 28 19:16:12 2016 -0400,Update README.md,False,None,False,False,,1.0,1.0,1.0,0.0,2.0,2.0,"README.md,CAS_DELIMITER",748.0,3.0,0.19023148148148147,224.0,327.0,6.25675346799708,86.0,6.0,13.0,0.0,f99bab7e-870c-11e7-ae77-080027bda63f,0.5,0.0
f4289d124e437261280be6e2848ea513d9ec3029,Guillermo,1477680545,gui@mit.edu,Fri Oct 28 14:49:05 2016 -0400,build,False,None,False,False,,1.0,1.0,1.0,0.0,4.0,1.0,"dist/tesseract.js,CAS_DELIMITER",1253.0,3.0,0.004976851851851852,41.0,693.0,201.93023255813952,43.0,10.0,10.0,0.0,f99bab7e-870c-11e7-ae77-080027bda63f,0.5,0.0
c27f07a2928e01155b06285f78043a0de8fe1092,Guillermo,1477680136,gui@mit.edu,Fri Oct 28 14:42:16 2016 -0400,fix README,True,Corrective,True,False,,1.0,1.0,1.0,0.0,1.0,1.0,"README.md,CAS_DELIMITER",748.0,3.0,0.00024305555555555555,223.0,692.0,4115.285714285715,319.0,6.0,10.0,0.0,f99bab7e-870c-11e7-ae77-080027bda63f,0.5,0.0
beabea0c712cc7cb8a57df10630014fe9f017615,Guillermo,1477680115,gui@mit.edu,Fri Oct 28 14:41:55 2016 -0400,fix README,True,Corrective,True,False,,2.0,2.0,3.0,0.9672657801751956,148.0,244.0,"README.md,CAS_DELIMITER,dist/tesseract.js,CAS_DELIMITER,dist/worker.js,CAS_DELIMITER",6607.666666666667,3.0,0.7061844135802469,286.0,690.0,1.472020235682326,42.0,27.0,10.0,0.0,f99bab7e-870c-11e7-ae77-080027bda63f,0.47222222222222215,0.1111111111111111
d079a59b002a71df56ba4a73205904f62cff27e0,Kevin Kwok,1477679748,antimatter15@gmail.com,Fri Oct 28 14:35:48 2016 -0400,Merge pull request #74 from varunshenoy/patch-1Added link to wikipedia page for OCR,False,Merge,False,False,,0.0,0.0,0.0,0.0,0.0,0.0,NULL,0.0,0.0,0.0,0.0,0.0,0.0,0.0,0.0,0.0,0.0,f99bab7e-870c-11e7-ae77-080027bda63f,0,0
5e6e6d4ceb9204976002d2b0c4b2fe2645e657cd,Varun Shenoy,1477497072,varun.nshenoy@gmail.com,Wed Oct 26 08:51:12 2016 -0700,Added link to wikipedia page for OCR,False,Feature Addition,False,False,,1.0,1.0,1.0,0.0,1.0,1.0,"README.md,CAS_DELIMITER",748.0,3.0,0.8770254629629629,221.0,1.0,2.140217749917519,1.0,6.0,0.0,0.0,f99bab7e-870c-11e7-ae77-080027bda63f,0.25,0.0
15bb5c41459a7478bab70546bdcd80c532454391,Guillermo,1477421297,gui@mit.edu,Tue Oct 25 14:48:17 2016 -0400,fix #72,True,Corrective,True,False,,2.0,2.0,2.0,0.863120568566631,5.0,2.0,"README.md,CAS_DELIMITER,src/index.js,CAS_DELIMITER",446.5,3.0,3.3733043981481483,233.0,687.5,1.1482226152713897,93.0,14.0,10.0,0.0,f99bab7e-870c-11e7-ae77-080027bda63f,0.375,0.25
d08ac24b82c2019a2a3e4fc5f0c03a05c6f899ea,Guillermo,1477151192,gui@mit.edu,Sat Oct 22 11:46:32 2016 -0400,add back lang string as a valid option,False,Feature Addition,False,False,,1.0,1.0,1.0,0.0,1.0,0.0,"src/index.js,CAS_DELIMITER",144.0,3.0,0.0030439814814814813,12.0,686.0,329.5171102661597,92.0,8.0,10.0,0.0,f99bab7e-870c-11e7-ae77-080027bda63f,0.25,1.0
91f9be7e81092282d4023639895a2ffb8fa6f620,Kiran Kota,1477150929,kiranmkota@gmail.com,Sat Oct 22 11:42:09 2016 -0400,"Es6 and code cleanup (#41)* Fixed syntax errorrnrnand added process.exit() to the examplesrnrn* es6 and code cleanuprnrnSaw arrow notation used sporadically, so figured the node parts arernmeant to be es6 compatible anyway, so implemented it where applicable.rnrnSpacing and semicolonsrnrnVersion 1.0.8rnrn* revert changes to distrnrn* attempt to use standard spacingrnrn* resolve conflictrn",True,Corrective,True,True,"[""15bb5c41459a7478bab70546bdcd80c532454391""]",3.0,5.0,7.0,2.2498811116747053,141.0,166.0,"examples/node/basic.js,CAS_DELIMITER,examples/node/detect.js,CAS_DELIMITER,package.json,CAS_DELIMITER,src/common/worker.js,CAS_DELIMITER,src/index.js,CAS_DELIMITER,src/node/index.js,CAS_DELIMITER,src/node/lang.js,CAS_DELIMITER",136.71428571428572,3.0,1.2076058201058202,85.0,10.0,1.118297825729777,7.0,39.0,0.0,0.0,f99bab7e-870c-11e7-ae77-080027bda63f,0.4113095238095238,0.9047619047619048
21fe5729ebd1ba26f0c8e39377a6a546bea9645e,Guillermo,1476838390,gui@mit.edu,Tue Oct 18 20:53:10 2016 -0400,fix badge,True,Corrective,True,False,,1.0,1.0,1.0,0.0,1.0,1.0,"README.md,CAS_DELIMITER",748.0,3.0,0.0010648148148148149,219.0,685.0,940.1304347826086,316.0,6.0,10.0,0.0,f99bab7e-870c-11e7-ae77-080027bda63f,0.25,0.0
e01c63e8641d5abf90477b8eb27ff7e4607c9a5d,Guillermo,1476838298,gui@mit.edu,Tue Oct 18 20:51:38 2016 -0400,update readme,False,None,False,False,,1.0,1.0,1.0,0.0,4.0,4.0,"README.md,CAS_DELIMITER",748.0,3.0,0.17043981481481482,218.0,684.0,6.867173706369686,315.0,6.0,10.0,0.0,f99bab7e-870c-11e7-ae77-080027bda63f,0.25,0.0
fc15b0ef43cbf2d8729f8db2ef06a16b2497a16e,Kevin Kwok,1476823572,antimatter15@gmail.com,Tue Oct 18 16:46:12 2016 -0400,new release,False,Feature Addition,False,True,"[""beabea0c712cc7cb8a57df10630014fe9f017615""]",2.0,2.0,4.0,0.3097915078258192,97.0,97.0,"README.md,CAS_DELIMITER,dist/tesseract.js,CAS_DELIMITER,dist/worker.js,CAS_DELIMITER,package.json,CAS_DELIMITER",4995.25,3.0,0.008240740740740741,322.0,324.5,31.337078651685392,85.0,36.0,12.0,0.0,f99bab7e-870c-11e7-ae77-080027bda63f,0.14583333333333331,0.125
afabe9eab87836b1c1645f290ae4e46e78c6619a,Kevin Kwok,1476820724,antimatter15@gmail.com,Tue Oct 18 15:58:44 2016 -0400,Fix #57,True,Corrective,True,False,,1.0,1.0,1.0,0.0,1.0,0.0,"README.md,CAS_DELIMITER",747.0,3.0,0.17288194444444444,216.0,322.0,6.784294034946777,83.0,5.0,12.0,0.0,f99bab7e-870c-11e7-ae77-080027bda63f,0.25,0.0
107883062809ebb88f7423cccdcdada23d84b848,Kevin Kwok,1476820533,antimatter15@gmail.com,Tue Oct 18 15:55:33 2016 -0400,Update package.json,False,None,False,False,,1.0,1.0,1.0,0.0,1.0,1.0,"package.json,CAS_DELIMITER",158.0,3.0,0.17103009259259258,40.0,321.0,6.846924274209921,82.0,12.0,12.0,0.0,f99bab7e-870c-11e7-ae77-080027bda63f,0.0,0.0
5a536f1599be36301d260ca13225f30bef6afaf4,Guillermo,1476805787,gui@mit.edu,Tue Oct 18 11:49:47 2016 -0400,update cdn url,False,None,False,False,,1.0,1.0,1.0,0.0,1.0,1.0,"README.md,CAS_DELIMITER",747.0,3.0,1.4564930555555555,215.0,683.0,1.6865806851503087,314.0,5.0,10.0,0.0,f99bab7e-870c-11e7-ae77-080027bda63f,0.25,0.0
2f3cec857d58ff1d250c14fd714267b6b6414e02,Guillermo,1476805756,gui@mit.edu,Tue Oct 18 11:49:16 2016 -0400,new release,False,Feature Addition,False,False,,2.0,2.0,2.0,1.0,2.0,2.0,"dist/tesseract.js,CAS_DELIMITER,package.json,CAS_DELIMITER",752.0,3.0,0.7261458333333334,80.0,681.5,1.6885669200975468,313.0,21.0,10.0,0.0,f99bab7e-870c-11e7-ae77-080027bda63f,0.0,0.0
f18b01fd2a40793cc938a91822ab36ff391da59a,Guillermo,1476680278,gui@mit.edu,Mon Oct 17 00:57:58 2016 -0400,whoops,False,None,False,True,"[""beabea0c712cc7cb8a57df10630014fe9f017615""]",1.0,1.0,2.0,0.9834928374034126,497.0,417.0,"dist/tesseract.js,CAS_DELIMITER,dist/worker.js,CAS_DELIMITER",9497.5,3.0,0.0014467592592592592,62.0,679.5,346.6,39.0,17.0,9.0,0.0,f99bab7e-870c-11e7-ae77-080027bda63f,0.16666666666666666,0.25
8b42b232cd9c982e1c9cf3edc44504d199ae82e0,Guillermo,1476680028,gui@mit.edu,Mon Oct 17 00:53:48 2016 -0400,add git push to publish script,False,Feature Addition,False,True,"[""beabea0c712cc7cb8a57df10630014fe9f017615""]",2.0,2.0,3.0,1.00334568351199,419.0,499.0,"dist/tesseract.js,CAS_DELIMITER,dist/worker.js,CAS_DELIMITER,package.json,CAS_DELIMITER",6411.0,3.0,0.00031635802469135804,101.0,677.0,1054.658536585366,312.0,26.0,8.0,0.0,f99bab7e-870c-11e7-ae77-080027bda63f,0.1111111111111111,0.16666666666666666
30d252e6f6794bc04cd345420f06770ef12ae653,Guillermo,1476679946,gui@mit.edu,Mon Oct 17 00:52:26 2016 -0400,new release,False,Feature Addition,False,False,,2.0,2.0,4.0,0.4834437160451229,102.0,100.0,"README.md,CAS_DELIMITER,dist/tesseract.js,CAS_DELIMITER,dist/worker.js,CAS_DELIMITER,package.json,CAS_DELIMITER",4994.5,3.0,0.7413425925925926,315.0,673.5,1.3372260038718542,311.0,31.0,8.0,0.0,f99bab7e-870c-11e7-ae77-080027bda63f,0.14583333333333331,0.125
221908f3ff0c3ff9f9b5afe1e0332f100c2963f1,Guillermo Webster,1476679343,gui@mit.edu,Mon Oct 17 00:42:23 2016 -0400,Merge pull request #49 from rowasc/license-spdx-expression-correctionApache 2.0 license identifier fix,False,Merge,False,False,,0.0,0.0,0.0,0.0,0.0,0.0,NULL,0.0,0.0,0.0,0.0,0.0,0.0,0.0,0.0,0.0,0.0,f99bab7e-870c-11e7-ae77-080027bda63f,0,0
29ff2f283c228a529fec8dc7859d966f3a3f0476,Romina Suarez,1476676904,rowasc@gmail.com,Mon Oct 17 01:01:44 2016 -0300,Apache 2.0 license - specified according to https://spdx.org/licenses/ to avoid npm warnings,False,None,False,False,,1.0,1.0,1.0,0.0,1.0,1.0,"package.json,CAS_DELIMITER",158.0,3.0,0.446412037037037,39.0,3.0,3.240082966035779,1.0,11.0,0.0,0.0,f99bab7e-870c-11e7-ae77-080027bda63f,0.0,0.0
e8e19d383bd26485ca0e76250e2e245915a655e6,Guillermo Webster,1476654582,gui@mit.edu,Sun Oct 16 17:49:42 2016 -0400,Merge pull request #46 from rowasc/typo-fix-src-node-indexFixed typo (extra parentheses),False,Merge,False,False,,0.0,0.0,0.0,0.0,0.0,0.0,NULL,0.0,0.0,0.0,0.0,0.0,0.0,0.0,0.0,0.0,0.0,f99bab7e-870c-11e7-ae77-080027bda63f,0,0
39f5fcc17a8f155a3774a9f16981102e164533ff,Romina Suarez,1476650895,rowasc@gmail.com,Sun Oct 16 17:48:15 2016 -0300,Fixed typo (extra parentheses),True,Corrective,True,False,,1.0,1.0,1.0,0.0,1.0,1.0,"src/node/index.js,CAS_DELIMITER",186.0,3.0,0.13945601851851852,12.0,2.0,8.17071956178936,1.0,5.0,0.0,0.0,f99bab7e-870c-11e7-ae77-080027bda63f,0.25,0.0
35c546d0625ec46adf8073cd57164017c6d1a1a1,Guillermo,1476638846,gui@mit.edu,Sun Oct 16 13:27:26 2016 -0400,syntax error (we really should add tests),False,Feature Addition,False,False,,1.0,1.0,1.0,0.0,1.0,1.0,"src/node/index.js,CAS_DELIMITER",186.0,3.0,0.005925925925925926,11.0,671.0,169.75,91.0,5.0,8.0,0.0,f99bab7e-870c-11e7-ae77-080027bda63f,0.0,0.0
52ddac57f3d4fc10ed378313f29e269b1a93ae75,Guillermo,1476638334,gui@mit.edu,Sun Oct 16 13:18:54 2016 -0400,switch to node-fetch from isomorphic fetch,False,None,False,True,"[""91f9be7e81092282d4023639895a2ffb8fa6f620""]",2.0,2.0,2.0,1.0,2.0,2.0,"package.json,CAS_DELIMITER,src/node/index.js,CAS_DELIMITER",172.0,3.0,1.0754108796296296,49.0,669.5,1.4649385732197535,90.0,14.0,7.0,0.0,f99bab7e-870c-11e7-ae77-080027bda63f,0.0,0.0
3645946a5d056f620bf717dedcd3df1839d13b01,Kevin Kwok,1476636634,antimatter15@gmail.com,Sun Oct 16 12:50:34 2016 -0400,"Merge pull request #44 from hemanth/patch-1Using log for now, fixes #40",False,Merge,False,False,,0.0,0.0,0.0,0.0,0.0,0.0,NULL,0.0,0.0,0.0,0.0,0.0,0.0,0.0,0.0,0.0,0.0,f99bab7e-870c-11e7-ae77-080027bda63f,0,0
64d2b8cb85d963d313b0ece95e84dc01953e5108,hemanth.hm,1476613002,hemanth.hm@gmail.com,Sun Oct 16 15:46:42 2016 +0530,"Using log for now, fixes #40`log` or `debug` must not matter much in this case.",True,Corrective,True,False,,1.0,1.0,1.0,0.0,2.0,2.0,"src/common/job.js,CAS_DELIMITER",162.0,3.0,2.2272337962962965,3.0,1.0,1.4489874397842366,1.0,2.0,0.0,0.0,f99bab7e-870c-11e7-ae77-080027bda63f,0.5,0.0
915fadb9bc98a3a98e5a06b350a477c553003843,bijection,1476463922,gui@mit.edu,Fri Oct 14 12:52:02 2016 -0400,Merge pull request #34 from hemanth/url-supportSupport URLs,False,Merge,False,False,,0.0,0.0,0.0,0.0,0.0,0.0,NULL,0.0,0.0,0.0,0.0,0.0,0.0,0.0,0.0,0.0,0.0,f99bab7e-870c-11e7-ae77-080027bda63f,0,0
32565dc725928fafdad5c8eb06677f30548d6054,Hemanth.HM,1476452503,hemanth.hm@gmail.com,Fri Oct 14 19:11:43 2016 +0530,Support URLs,False,None,False,True,"[""39f5fcc17a8f155a3774a9f16981102e164533ff"", ""91f9be7e81092282d4023639895a2ffb8fa6f620""]",2.0,2.0,2.0,0.8812908992306927,17.0,3.0,"package.json,CAS_DELIMITER,src/node/index.js,CAS_DELIMITER",165.0,3.0,0.16646412037037037,48.0,2.5,4.003650269424648,1.0,12.0,0.0,0.0,f99bab7e-870c-11e7-ae77-080027bda63f,0.0,0.0
ba2841329d9126330dc712e8fcdcd236a607aea2,Kevin Kwok,1476425052,antimatter15@gmail.com,Fri Oct 14 02:04:12 2016 -0400,fixing dist,True,Corrective,True,False,,1.0,1.0,1.0,0.0,5089.0,20.0,"dist/worker.js,CAS_DELIMITER",12660.0,3.0,0.003136574074074074,22.0,320.0,319.8191881918819,55.0,8.0,12.0,0.0,f99bab7e-870c-11e7-ae77-080027bda63f,0.25,0.5
a5cde759802ae9dfd5c76853cb7a7d10dc69f001,Kevin Kwok,1476424781,antimatter15@gmail.com,Fri Oct 14 01:59:41 2016 -0400,using pako/inflate,False,None,False,True,"[""ba2841329d9126330dc712e8fcdcd236a607aea2""]",2.0,2.0,2.0,0.0020413021529850344,2686.0,11234.0,"dist/worker.js,CAS_DELIMITER,src/browser/lang.js,CAS_DELIMITER",10680.0,3.0,0.0064756944444444445,29.0,318.5,78.21179624664879,142.0,10.0,11.0,0.0,f99bab7e-870c-11e7-ae77-080027bda63f,0.16666666666666666,0.5
15058e036cc8f58ba5c23ecc8f4a44425d2056d8,Kevin Kwok,1476423738,antimatter15@gmail.com,Fri Oct 14 01:42:18 2016 -0400,new release,False,Feature Addition,False,False,,2.0,2.0,3.0,1.5219280948873621,5.0,5.0,"README.md,CAS_DELIMITER,dist/tesseract.js,CAS_DELIMITER,package.json,CAS_DELIMITER",749.0,3.0,0.0002932098765432099,288.0,316.0,1137.842105263158,81.0,21.0,11.0,0.0,f99bab7e-870c-11e7-ae77-080027bda63f,0.08333333333333333,0.0
c09d4655b54d821aba70dda00f9f7d25e36d2270,Kevin Kwok,1476423662,antimatter15@gmail.com,Fri Oct 14 01:41:02 2016 -0400,new version,False,Feature Addition,False,False,,2.0,2.0,4.0,1.192250860234642,26.0,12.0,"README.md,CAS_DELIMITER,dist/tesseract.js,CAS_DELIMITER,dist/worker.js,CAS_DELIMITER,package.json,CAS_DELIMITER",5860.25,3.0,0.006848958333333334,308.0,312.5,37.50190114068441,79.0,28.0,11.0,0.0,f99bab7e-870c-11e7-ae77-080027bda63f,0.0625,0.25
9d13b2339f426a7cd4c0bf84503f9325a398e47a,Kevin Kwok,1476423531,antimatter15@gmail.com,Fri Oct 14 01:38:51 2016 -0400,catching errors,False,None,False,False,,1.0,1.0,1.0,0.0,5.0,2.0,"src/browser/lang.js,CAS_DELIMITER",149.0,3.0,0.005636574074074074,7.0,310.0,178.41273100616016,141.0,3.0,11.0,0.0,f99bab7e-870c-11e7-ae77-080027bda63f,0.5,0.0
2b141f8aa58c30c7c5eba36df992728dbb3a7001,Kevin Kwok,1476423044,antimatter15@gmail.com,Fri Oct 14 01:30:44 2016 -0400,works on iOS Safari,False,None,False,True,"[""91f9be7e81092282d4023639895a2ffb8fa6f620""]",2.0,3.0,4.0,1.3092000326978117,22.0,6.0,"examples/file-input/demo.html,CAS_DELIMITER,src/browser/index.js,CAS_DELIMITER,src/browser/lang.js,CAS_DELIMITER,src/common/worker.js,CAS_DELIMITER",281.25,3.0,0.4729224537037037,44.0,307.5,1.5286278924633816,140.0,16.0,10.0,0.0,f99bab7e-870c-11e7-ae77-080027bda63f,0.125,0.25
acc2b835ce8de29daa7fa73d2f4c7c0adc4cb9b1,Kevin Kwok,1476421295,antimatter15@gmail.com,Fri Oct 14 01:01:35 2016 -0400,updating urls,False,None,False,False,,1.0,1.0,2.0,0.9182958340544896,3.0,3.0,"README.md,CAS_DELIMITER,package.json,CAS_DELIMITER",451.5,3.0,0.006342592592592592,248.0,304.5,79.83211678832117,77.0,14.0,10.0,0.0,f99bab7e-870c-11e7-ae77-080027bda63f,0.125,0.0
2733c9a03031348253a2ee1b10dcdc69e0831c07,Kevin Kwok,1476421094,antimatter15@gmail.com,Fri Oct 14 00:58:14 2016 -0400,building new version,False,Feature Addition,False,True,"[""91f9be7e81092282d4023639895a2ffb8fa6f620"", ""beabea0c712cc7cb8a57df10630014fe9f017615""]",3.0,4.0,5.0,1.0631314548595205,859.0,498.0,"dist/tesseract.js,CAS_DELIMITER,dist/worker.js,CAS_DELIMITER,package.json,CAS_DELIMITER,src/browser/index.js,CAS_DELIMITER,src/index.js,CAS_DELIMITER",4564.2,3.0,0.0020717592592592593,126.0,301.0,97.53631284916202,137.0,30.0,9.0,0.0,f99bab7e-870c-11e7-ae77-080027bda63f,0.0,0.2
9a9db107714ad7fdd696ec4f89002f3a44463e9c,Kevin Kwok,1476420574,antimatter15@gmail.com,Fri Oct 14 00:49:34 2016 -0400,Merge branch 'master' of github.com:naptha/tesseract.js,False,Merge,False,False,,0.0,0.0,0.0,0.0,0.0,0.0,NULL,0.0,0.0,0.0,0.0,0.0,0.0,0.0,0.0,0.0,0.0,f99bab7e-870c-11e7-ae77-080027bda63f,0,0
ea54eaa23fb622fb777009e7260bac4c7f5bc8cf,Kevin Kwok,1476420569,antimatter15@gmail.com,Fri Oct 14 00:49:29 2016 -0400,choosing memory usage dynamically,False,None,False,True,"[""64d2b8cb85d963d313b0ece95e84dc01953e5108"", ""91f9be7e81092282d4023639895a2ffb8fa6f620""]",3.0,3.0,4.0,0.8907280850606047,88.0,75.0,".gitignore,CAS_DELIMITER,examples/node/basic.js,CAS_DELIMITER,src/common/job.js,CAS_DELIMITER,src/common/worker.js,CAS_DELIMITER",130.75,3.0,0.4941521990740741,25.0,296.5,1.505917003847077,135.0,10.0,8.0,0.0,f99bab7e-870c-11e7-ae77-080027bda63f,0.1875,0.5
752038921efee4241e8aec3d386b35e3ab2a410f,Guillermo,1476420199,gui@mit.edu,Fri Oct 14 00:43:19 2016 -0400,add node version note,False,Feature Addition,False,True,"[""beabea0c712cc7cb8a57df10630014fe9f017615""]",2.0,2.0,2.0,0.06507307495461,180.0,80.0,"README.md,CAS_DELIMITER,dist/tesseract.js,CAS_DELIMITER",836.0,3.0,0.2932060185185185,247.0,667.5,2.7052855958631037,33.0,9.0,6.0,0.0,f99bab7e-870c-11e7-ae77-080027bda63f,0.125,0.0
b20c4a8c6ec0a7c0303ad1d6413a0f3950ccd7fa,Kevin Kwok,1476383768,antimatter15@gmail.com,Thu Oct 13 14:36:08 2016 -0400,Merge pull request #27 from zzarcon/finally_job_methodImplement finally TesseractJob method,False,Merge,False,False,,0.0,0.0,0.0,0.0,0.0,0.0,NULL,0.0,0.0,0.0,0.0,0.0,0.0,0.0,0.0,0.0,0.0,f99bab7e-870c-11e7-ae77-080027bda63f,0,0
46add665c001d7da0b2f8497e0ba9f01a8e2a229,bijection,1476374214,gui@mit.edu,Thu Oct 13 11:56:54 2016 -0400,Merge pull request #26 from jayathungek/masterFix typo in README.md,False,Merge,False,False,,0.0,0.0,0.0,0.0,0.0,0.0,NULL,0.0,0.0,0.0,0.0,0.0,0.0,0.0,0.0,0.0,0.0,f99bab7e-870c-11e7-ae77-080027bda63f,0,0
d8a30989c0a713479b8b24e9540192ad731db84b,bijection,1476374191,gui@mit.edu,Thu Oct 13 11:56:31 2016 -0400,Merge pull request #25 from katamaritaco/patch-1Corrected typo of 'Enlish' to 'English',False,Merge,False,False,,0.0,0.0,0.0,0.0,0.0,0.0,NULL,0.0,0.0,0.0,0.0,0.0,0.0,0.0,0.0,0.0,0.0,f99bab7e-870c-11e7-ae77-080027bda63f,0,0
122b74d7d7b4bd5510099280edd9cc9590f42c60,Hector Leon Zarco Garcia,1476369533,hezarco@gmail.com,Thu Oct 13 16:38:53 2016 +0200,Implement finally job method and move TesseractJob to a different file,False,None,False,True,"[""64d2b8cb85d963d313b0ece95e84dc01953e5108"", ""91f9be7e81092282d4023639895a2ffb8fa6f620""]",3.0,4.0,4.0,1.6978820583089247,109.0,82.0,"README.md,CAS_DELIMITER,examples/node/basic.js,CAS_DELIMITER,src/common/job.js,CAS_DELIMITER,src/index.js,CAS_DELIMITER",266.25,3.0,0.0011284722222222221,230.0,11.5,222.53846153846155,5.0,10.0,1.0,0.0,f99bab7e-870c-11e7-ae77-080027bda63f,0.1875,0.25
b04e4ccf55bc55493d2e027b2e7e90608c9ba6f2,Your Name,1476369143,jayathungek@yahoo.com,Thu Oct 13 15:32:23 2016 +0100,Fix typo in README.md,True,Corrective,True,False,,1.0,1.0,1.0,0.0,1.0,1.0,"README.md,CAS_DELIMITER",737.0,3.0,0.004340277777777778,208.0,3.0,231.39999999999998,3.0,3.0,0.0,0.0,f99bab7e-870c-11e7-ae77-080027bda63f,0.25,0.0
91b326981fbc81c11844e98dfc2e28baeab29ac5,Your Name,1476368768,jayathungek@yahoo.com,Thu Oct 13 15:26:08 2016 +0100,Fix typo in README.md,True,Corrective,True,False,,1.0,1.0,1.0,0.0,1.0,1.0,"README.md,CAS_DELIMITER",737.0,3.0,0.24043981481481483,207.0,2.0,5.159044960046211,2.0,3.0,0.0,0.0,f99bab7e-870c-11e7-ae77-080027bda63f,0.25,0.0
0e50365683df4eecbea8565f515d3b9b12808820,Nick Heindl,1476368660,nheindl@wisc.edu,Thu Oct 13 09:24:20 2016 -0500,Corrected typo of 'Enlish' to 'English',False,None,False,False,,1.0,1.0,1.0,0.0,1.0,1.0,"docs/tesseract_lang_list.md,CAS_DELIMITER",142.0,3.0,8.62193287037037,4.0,1.0,1.1159832737084443,1.0,1.0,0.0,0.0,f99bab7e-870c-11e7-ae77-080027bda63f,0.0,0.0
471ed0997ab94a41f19da20348a90a361393dff2,bijection,1476362870,gui@mit.edu,Thu Oct 13 08:47:50 2016 -0400,Merge pull request #22 from zzarcon/fix_passing_wrong_image_pathBetter error handling when file is not reachable in Node.js,False,Merge,False,False,,0.0,0.0,0.0,0.0,0.0,0.0,NULL,0.0,0.0,0.0,0.0,0.0,0.0,0.0,0.0,0.0,0.0,f99bab7e-870c-11e7-ae77-080027bda63f,0,0
b38b3a8c1f3a7965115ab473994d4c2452d0faab,bijection,1476362824,gui@mit.edu,Thu Oct 13 08:47:04 2016 -0400,Merge pull request #21 from andrewthehan/readmeTypoFixes README typo.,False,Merge,False,False,,0.0,0.0,0.0,0.0,0.0,0.0,NULL,0.0,0.0,0.0,0.0,0.0,0.0,0.0,0.0,0.0,0.0,f99bab7e-870c-11e7-ae77-080027bda63f,0,0
e9735cdc9c0bbf6b34ff77e73756a8026a4c663a,bijection,1476362806,gui@mit.edu,Thu Oct 13 08:46:46 2016 -0400,Merge pull request #20 from radarhere/patch-1Fixed typos,False,Merge,False,False,,0.0,0.0,0.0,0.0,0.0,0.0,NULL,0.0,0.0,0.0,0.0,0.0,0.0,0.0,0.0,0.0,0.0,f99bab7e-870c-11e7-ae77-080027bda63f,0,0
800c83440db94c877d91d32fe0326396337a03c9,Hector Leon Zarco Garcia,1476359685,hezarco@gmail.com,Thu Oct 13 13:54:45 2016 +0200,Fix file resolving from examples,True,Corrective,True,True,"[""91f9be7e81092282d4023639895a2ffb8fa6f620""]",1.0,1.0,2.0,1.0,6.0,2.0,"examples/node/basic.js,CAS_DELIMITER,examples/node/detect.js,CAS_DELIMITER",21.0,3.0,4.263721064814815,8.0,8.5,1.1172684592634619,4.0,2.0,0.0,0.0,f99bab7e-870c-11e7-ae77-080027bda63f,0.5,1.0
87643df023f08a87afabb489e308f05230556337,Hector Leon Zarco Garcia,1476359669,hezarco@gmail.com,Thu Oct 13 13:54:29 2016 +0200,Throw error if readFile fails,True,Corrective,True,False,,1.0,1.0,1.0,0.0,1.0,0.0,"src/node/index.js,CAS_DELIMITER",173.0,3.0,1.2717476851851852,10.0,7.0,1.7863194969011367,3.0,3.0,0.0,0.0,f99bab7e-870c-11e7-ae77-080027bda63f,0.0,0.0
5a71378efc95b001ef8fa5dc4382c9be530136be,Andrew Han,1476347994,andrewthehan@gmail.com,Thu Oct 13 01:39:54 2016 -0700,Fixed README typo.,True,Corrective,True,False,,1.0,1.0,1.0,0.0,1.0,1.0,"README.md,CAS_DELIMITER",737.0,3.0,0.490787037037037,206.0,1.0,3.0375436279596264,1.0,3.0,0.0,0.0,f99bab7e-870c-11e7-ae77-080027bda63f,0.25,0.0
162deeebdbec445da2deda51b57a156b7975f4a0,Andrew Murray,1476346675,radarhere@gmail.com,Thu Oct 13 19:17:55 2016 +1100,Fixed typos,True,Corrective,True,False,,1.0,1.0,1.0,0.0,7.0,7.0,"docs/tesseract_parameters.md,CAS_DELIMITER",1366.0,3.0,8.367476851851851,3.0,1.0,1.1195103395808839,1.0,1.0,0.0,0.0,f99bab7e-870c-11e7-ae77-080027bda63f,0.0,0.0
b3cc0c029365b889a2afe9b15e245c25dd545012,bijection,1476306218,gui@mit.edu,Wed Oct 12 17:03:38 2016 -0400,Merge pull request #15 from helloandre/patch-1fix example code for logging progress,False,Merge,False,False,,0.0,0.0,0.0,0.0,0.0,0.0,NULL,0.0,0.0,0.0,0.0,0.0,0.0,0.0,0.0,0.0,0.0,f99bab7e-870c-11e7-ae77-080027bda63f,0,0
7a47cdaa981bdb33107e136908a5ddf35a9dd623,Andre Bluehs,1476305590,hello@andrebluehs.net,Wed Oct 12 13:53:10 2016 -0700,fix example code for logging progress,True,Corrective,True,False,,1.0,1.0,1.0,0.0,1.0,1.0,"README.md,CAS_DELIMITER",737.0,3.0,0.11524305555555556,205.0,1.0,9.67731244350708,1.0,3.0,0.0,0.0,f99bab7e-870c-11e7-ae77-080027bda63f,0.25,0.0
95769915beb4a01bb59d439787534c17880fb4ff,Guillermo,1476295633,gui@mit.edu,Wed Oct 12 14:07:13 2016 -0400,add note about upscaling,False,Feature Addition,False,False,,1.0,1.0,1.0,0.0,1.0,1.0,"README.md,CAS_DELIMITER",737.0,3.0,0.00019675925925925926,204.0,666.0,5083.35294117647,307.0,3.0,6.0,0.0,f99bab7e-870c-11e7-ae77-080027bda63f,0.25,0.0
3fb3d2f45b092bf939d0b50ec2d54ede15b093e1,Guillermo,1476295616,gui@mit.edu,Wed Oct 12 14:06:56 2016 -0400,add note about upscaling,False,Feature Addition,False,False,,1.0,1.0,1.0,0.0,1.0,0.0,"README.md,CAS_DELIMITER",736.0,3.0,0.00016203703703703703,203.0,665.0,6172.428571428572,306.0,3.0,6.0,0.0,f99bab7e-870c-11e7-ae77-080027bda63f,0.25,0.0
edfa1d8b4fb60ae7a5628a7ccb2af65ffea5b6b4,Guillermo,1476295602,gui@mit.edu,Wed Oct 12 14:06:42 2016 -0400,add note about upscaling,False,Feature Addition,False,False,,1.0,1.0,1.0,0.0,3.0,1.0,"README.md,CAS_DELIMITER",734.0,3.0,0.00042824074074074075,202.0,664.0,2336.135135135135,305.0,3.0,6.0,0.0,f99bab7e-870c-11e7-ae77-080027bda63f,0.25,0.0
7a872d03672142aefe693440077d3a0fb2e7fa34,Guillermo,1476295565,gui@mit.edu,Wed Oct 12 14:06:05 2016 -0400,add note about upscaling,False,Feature Addition,False,False,,1.0,1.0,1.0,0.0,1.0,1.0,"README.md,CAS_DELIMITER",734.0,3.0,0.06699074074074074,201.0,663.0,15.92743607463718,304.0,3.0,6.0,0.0,f99bab7e-870c-11e7-ae77-080027bda63f,0.25,0.0
c26cae7ee956c399eeb992de0135e3af29b4edb5,Guillermo,1476291004,gui@mit.edu,Wed Oct 12 12:50:04 2016 -0400,update package.json,False,None,False,True,"[""beabea0c712cc7cb8a57df10630014fe9f017615""]",2.0,2.0,3.0,1.0000373649685947,479.0,844.0,"dist/tesseract.js,CAS_DELIMITER,dist/worker.js,CAS_DELIMITER,package.json,CAS_DELIMITER",7535.0,3.0,0.12401234567901236,94.0,661.0,3.687904430064709,303.0,16.0,5.0,0.0,f99bab7e-870c-11e7-ae77-080027bda63f,0.0,0.3333333333333333
8434f599771d6dd4e68287627de12705dfe4281c,bijection,1476290975,gui@mit.edu,Wed Oct 12 12:49:35 2016 -0400,Create LICENSE.md,False,Feature Addition,False,False,,1.0,1.0,1.0,0.0,201.0,0.0,"LICENSE.md,CAS_DELIMITER",201.0,1.0,0.0,1.0,1.0,0.0,1.0,0.0,0.0,0.0,f99bab7e-870c-11e7-ae77-080027bda63f,0.5,0.0
8585b7fa830d1adb05037b845b57e69f049f14f2,Guillermo,1476289777,gui@mit.edu,Wed Oct 12 12:29:37 2016 -0400,fixe broken language list links,True,Corrective,True,False,,1.0,1.0,1.0,0.0,4.0,4.0,"README.md,CAS_DELIMITER",734.0,3.0,0.31721064814814814,200.0,659.0,4.152479293611121,302.0,3.0,5.0,0.0,f99bab7e-870c-11e7-ae77-080027bda63f,0.25,0.0
287e8289d45bd354ccb5f0b1540531165f8fbb4c,Guillermo,1476286819,gui@mit.edu,Wed Oct 12 11:40:19 2016 -0400,update demo gif,False,None,False,False,,1.0,1.0,1.0,0.0,0.0,0.0,"demo.gif,CAS_DELIMITER",0.0,1.0,1.3307986111111112,3.0,658.0,1.7514284968820935,301.0,0.0,5.0,0.0,f99bab7e-870c-11e7-ae77-080027bda63f,0.5,0.0
41a7b4d427628e8ff6f69ffe74f7856796f84c67,Kevin Kwok,1476262370,antimatter15@gmail.com,Wed Oct 12 04:52:50 2016 -0400,readme,False,None,False,False,,1.0,1.0,1.0,0.0,6.0,2.0,"README.md,CAS_DELIMITER",730.0,3.0,0.004548611111111111,199.0,294.0,220.84732824427482,73.0,3.0,8.0,0.0,f99bab7e-870c-11e7-ae77-080027bda63f,0.25,0.0
048384951f848e70464445a31bb142c37f78ba0e,Kevin Kwok,1476262028,antimatter15@gmail.com,Wed Oct 12 04:47:08 2016 -0400,package json,False,None,False,False,,1.0,1.0,1.0,0.0,3.0,3.0,"package.json,CAS_DELIMITER",155.0,3.0,0.0005902777777777778,36.0,293.0,1695.1176470588234,72.0,7.0,8.0,0.0,f99bab7e-870c-11e7-ae77-080027bda63f,0.0,0.0
ada7e8364c9652226b401a529f1058f2b7b5abdf,Kevin Kwok,1476261977,antimatter15@gmail.com,Wed Oct 12 04:46:17 2016 -0400,updating,False,None,False,False,,1.0,1.0,2.0,1.0,3.0,1.0,"README.md,CAS_DELIMITER,package.json,CAS_DELIMITER",441.5,3.0,0.0011979166666666666,234.0,291.5,418.3913043478261,71.0,10.0,8.0,0.0,f99bab7e-870c-11e7-ae77-080027bda63f,0.125,0.0
5886ebba1ff1aa6b40a389879758f85d6d7dfadf,Kevin Kwok,1476261770,antimatter15@gmail.com,Wed Oct 12 04:42:50 2016 -0400,readme,False,None,False,False,,1.0,1.0,1.0,0.0,3.0,18.0,"README.md,CAS_DELIMITER",743.0,3.0,0.030752314814814816,197.0,290.0,33.517877305231465,69.0,3.0,8.0,0.0,f99bab7e-870c-11e7-ae77-080027bda63f,0.25,0.0
681d08c1d50c3905e969d4295547d1e23c1df667,Kevin Kwok,1476259602,antimatter15@gmail.com,Wed Oct 12 04:06:42 2016 -0400,fixing demo,True,Corrective,True,False,,1.0,1.0,1.0,0.0,4.0,2.0,"examples/file-input/demo.html,CAS_DELIMITER",327.0,3.0,0.009166666666666667,10.0,289.0,110.0909090909091,29.0,4.0,8.0,0.0,f99bab7e-870c-11e7-ae77-080027bda63f,0.0,0.0
1ef222cca8eb30710e1f7a140111e9a72565cee5,Kevin Kwok,1476259113,antimatter15@gmail.com,Wed Oct 12 03:58:33 2016 -0400,image,False,None,False,False,,1.0,1.0,1.0,0.0,9.0,9.0,"README.md,CAS_DELIMITER",743.0,3.0,0.001099537037037037,196.0,288.0,910.4736842105262,68.0,3.0,8.0,0.0,f99bab7e-870c-11e7-ae77-080027bda63f,0.25,0.0
16685bab65055fdc4d922885180863bf11dfd925,Kevin Kwok,1476259018,antimatter15@gmail.com,Wed Oct 12 03:56:58 2016 -0400,readme,False,None,False,False,,1.0,1.0,1.0,0.0,4.0,4.0,"README.md,CAS_DELIMITER",743.0,3.0,0.009143518518518518,195.0,287.0,110.36708860759495,67.0,3.0,8.0,0.0,f99bab7e-870c-11e7-ae77-080027bda63f,0.25,0.0
45aa21603cb9074e245be2d54b8e6ef5f1775c09,Kevin Kwok,1476258860,antimatter15@gmail.com,Wed Oct 12 03:54:20 2016 -0400,updating,False,None,False,False,,2.0,2.0,3.0,1.0230370655328809,12.0,9.0,"dist/tesseract.js,CAS_DELIMITER,dist/worker.js,CAS_DELIMITER,src/browser/index.js,CAS_DELIMITER",7591.333333333333,3.0,0.033233024691358026,75.0,285.0,11.030183422335732,133.0,13.0,8.0,0.0,f99bab7e-870c-11e7-ae77-080027bda63f,0.0,0.3333333333333333
872284b112acc0dccebba93e5435eb25df2e9a12,Kevin Kwok,1476258810,antimatter15@gmail.com,Wed Oct 12 03:53:30 2016 -0400,adding lnaguage selector,False,Feature Addition,False,False,,1.0,1.0,1.0,0.0,74.0,2.0,"examples/file-input/demo.html,CAS_DELIMITER",255.0,3.0,0.006736111111111111,9.0,283.0,149.4536082474227,28.0,4.0,8.0,0.0,f99bab7e-870c-11e7-ae77-080027bda63f,0.0,0.0
8e88eaca5e4f46e0a5b3b4c9c574623de233e0db,Kevin Kwok,1476258228,antimatter15@gmail.com,Wed Oct 12 03:43:48 2016 -0400,stuff,False,None,False,True,"[""91f9be7e81092282d4023639895a2ffb8fa6f620""]",3.0,4.0,5.0,1.4608305577413787,112.0,32.0,"README.md,CAS_DELIMITER,examples/file-input/basic.html,CAS_DELIMITER,examples/file-input/demo.html,CAS_DELIMITER,src/browser/worker.js,CAS_DELIMITER,src/common/worker.js,CAS_DELIMITER",257.0,3.0,0.018476851851851852,217.0,280.0,11.824354798296167,132.0,10.0,7.0,0.0,f99bab7e-870c-11e7-ae77-080027bda63f,0.05,0.2
1a7429d0224a45e1ddc2d464ee1c06c69f51b8ec,Kevin Kwok,1476250246,antimatter15@gmail.com,Wed Oct 12 01:30:46 2016 -0400,cors proxy,False,None,False,False,,3.0,3.0,5.0,2.004886164091843,17.0,5.0,"README.md,CAS_DELIMITER,dist/tesseract.js,CAS_DELIMITER,dist/worker.js,CAS_DELIMITER,src/browser/index.js,CAS_DELIMITER,src/browser/worker.js,CAS_DELIMITER",4712.8,3.0,0.0010555555555555557,274.0,275.0,190.4736842105263,130.0,17.0,7.0,0.0,f99bab7e-870c-11e7-ae77-080027bda63f,0.05,0.2
7bf3725fc99c3536eee21c649196c451bb8aed02,Kevin Kwok,1476249790,antimatter15@gmail.com,Wed Oct 12 01:23:10 2016 -0400,stuff,False,None,False,True,"[""91f9be7e81092282d4023639895a2ffb8fa6f620""]",4.0,6.0,13.0,1.5651460261819479,350.0,52.0,".gitignore,CAS_DELIMITER,README.md,CAS_DELIMITER,dist/tesseract.js,CAS_DELIMITER,dist/worker.js,CAS_DELIMITER,examples/file-input/demo.html,CAS_DELIMITER,package.json,CAS_DELIMITER,src/browser/index.js,CAS_DELIMITER,src/browser/lang.js,CAS_DELIMITER,src/browser/worker.js,CAS_DELIMITER,src/index.js,CAS_DELIMITER,src/node/index.js,CAS_DELIMITER,src/node/lang.js,CAS_DELIMITER,src/node/worker.js,CAS_DELIMITER",1865.3076923076924,3.0,0.0022409188034188034,362.0,266.0,35.326579261025024,128.0,30.0,6.0,0.0,f99bab7e-870c-11e7-ae77-080027bda63f,0.07692307692307693,0.07692307692307693
036f8debfcb8938de5eda257c6262ff439a419ac,Kevin Kwok,1476247273,antimatter15@gmail.com,Wed Oct 12 00:41:13 2016 -0400,updating readme,False,None,False,True,"[""91f9be7e81092282d4023639895a2ffb8fa6f620"", ""beabea0c712cc7cb8a57df10630014fe9f017615""]",4.0,6.0,9.0,1.4497023737716699,601.0,504.0,".gitignore,CAS_DELIMITER,README.md,CAS_DELIMITER,dist/tesseract.js,CAS_DELIMITER,dist/worker.js,CAS_DELIMITER,examples/file-input/demo.html,CAS_DELIMITER,package.json,CAS_DELIMITER,src/browser/index.js,CAS_DELIMITER,src/index.js,CAS_DELIMITER,src/node/index.js,CAS_DELIMITER",2650.8888888888887,3.0,52.58556841563786,342.0,255.0,1.0021129582594386,121.0,17.0,5.0,0.0,f99bab7e-870c-11e7-ae77-080027bda63f,0.05555555555555555,0.1111111111111111
ab13d7b891d4f983a85893bad503f7f362b3cc25,Guillermo,1476218697,gui@mit.edu,Tue Oct 11 16:44:57 2016 -0400,fix firefox issue,True,Corrective,True,False,,1.0,1.0,1.0,0.0,1.0,1.0,"src/browser/lang.js,CAS_DELIMITER",137.0,3.0,6.902106481481481,6.0,657.0,1.1448833052174758,89.0,1.0,5.0,0.0,f99bab7e-870c-11e7-ae77-080027bda63f,0.3333333333333333,0.0
d8f3db3d9168ebbf68f0f1d3913a0f9442618b81,Guillermo,1476172832,gui@mit.edu,Tue Oct 11 04:00:32 2016 -0400,add notice back because firefox,False,Feature Addition,False,False,,1.0,1.0,1.0,0.0,1.0,1.0,"README.md,CAS_DELIMITER",739.0,3.0,0.00037037037037037035,192.0,656.0,2701.0,300.0,0.0,5.0,0.0,f99bab7e-870c-11e7-ae77-080027bda63f,0.5,0.0
d296f163148f447cf72795fc24caadc6e33fdbe2,Guillermo,1476172800,gui@mit.edu,Tue Oct 11 04:00:00 2016 -0400,add notice back because firefox,False,Feature Addition,False,False,,1.0,1.0,1.0,0.0,1.0,1.0,"README.md,CAS_DELIMITER",739.0,3.0,0.00032407407407407406,191.0,655.0,3086.714285714286,299.0,0.0,5.0,0.0,f99bab7e-870c-11e7-ae77-080027bda63f,0.5,0.0
22b3ab842375816addb9720af51a032913ce0754,Guillermo,1476172772,gui@mit.edu,Tue Oct 11 03:59:32 2016 -0400,add notice back because firefox,False,Feature Addition,False,False,,1.0,1.0,1.0,0.0,3.0,0.0,"README.md,CAS_DELIMITER",736.0,3.0,0.003148148148148148,190.0,654.0,318.6470588235294,298.0,0.0,5.0,0.0,f99bab7e-870c-11e7-ae77-080027bda63f,0.5,0.0
34d4fb799dbadc9fb090d78252d8a26fedc984d5,Guillermo,1476172500,gui@mit.edu,Tue Oct 11 03:55:00 2016 -0400,remove construction notice,False,None,False,False,,1.0,1.0,1.0,0.0,0.0,3.0,"README.md,CAS_DELIMITER",739.0,3.0,0.0007060185185185185,189.0,653.0,1417.393442622951,297.0,0.0,5.0,0.0,f99bab7e-870c-11e7-ae77-080027bda63f,0.5,0.0
0acbb71e663d99268cc964d3d777035191de0130,Guillermo,1476172439,gui@mit.edu,Tue Oct 11 03:53:59 2016 -0400,lang options,False,None,False,False,,1.0,1.0,1.0,0.0,1.0,1.0,"README.md,CAS_DELIMITER",739.0,3.0,0.0010532407407407407,188.0,652.0,950.4505494505495,296.0,0.0,5.0,0.0,f99bab7e-870c-11e7-ae77-080027bda63f,0.5,0.0
e8a286988f1e4c708d9ee20c34b5552a71b4e606,Guillermo,1476172348,gui@mit.edu,Tue Oct 11 03:52:28 2016 -0400,add note about lang instead of options,False,Feature Addition,False,False,,1.0,1.0,1.0,0.0,1.0,1.0,"README.md,CAS_DELIMITER",739.0,3.0,0.001875,187.0,651.0,534.3333333333334,295.0,0.0,5.0,0.0,f99bab7e-870c-11e7-ae77-080027bda63f,0.5,0.0
e5c8df3aaca8de4ba8106a2db8f091fcb1a14c5b,Guillermo,1476172186,gui@mit.edu,Tue Oct 11 03:49:46 2016 -0400,probably different people have different ips lol,False,None,False,False,,1.0,1.0,1.0,0.0,1.0,1.0,"README.md,CAS_DELIMITER",739.0,3.0,0.0005208333333333333,186.0,650.0,1921.0,294.0,0.0,5.0,0.0,f99bab7e-870c-11e7-ae77-080027bda63f,0.5,0.0
274c54db1ecdeaa122b6f849cc7b1b79201918ed,Guillermo,1476172141,gui@mit.edu,Tue Oct 11 03:49:01 2016 -0400,update contrib,False,None,False,False,,1.0,1.0,1.0,0.0,0.0,1.0,"README.md,CAS_DELIMITER",740.0,3.0,0.0005671296296296297,185.0,649.0,1764.265306122449,293.0,0.0,5.0,0.0,f99bab7e-870c-11e7-ae77-080027bda63f,0.5,0.0
c61ee098d7d124861414ddc9599a2fbe724fe6d0,Guillermo,1476172092,gui@mit.edu,Tue Oct 11 03:48:12 2016 -0400,update contrib,False,None,False,False,,2.0,2.0,3.0,1.0464713888701764,378.0,438.0,"README.md,CAS_DELIMITER,dist/tesseract.js,CAS_DELIMITER,dist/worker.js,CAS_DELIMITER",7628.333333333333,3.0,0.00028935185185185184,240.0,647.0,1153.0,30.0,5.0,5.0,0.0,f99bab7e-870c-11e7-ae77-080027bda63f,0.16666666666666666,0.3333333333333333
c7f63647105b83fdd3148dd762b95554d0f64ae4,Guillermo,1476172017,gui@mit.edu,Tue Oct 11 03:46:57 2016 -0400,update readme,False,None,False,False,,1.0,1.0,1.0,0.0,1.0,1.0,"README.md,CAS_DELIMITER",738.0,3.0,0.0007638888888888889,183.0,645.0,1310.090909090909,291.0,0.0,5.0,0.0,f99bab7e-870c-11e7-ae77-080027bda63f,0.5,0.0
2fa9421cedbce004ce45cb9e84b3dac8be21102b,Guillermo,1476171951,gui@mit.edu,Tue Oct 11 03:45:51 2016 -0400,update readme,False,None,False,False,,1.0,1.0,1.0,0.0,1.0,1.0,"README.md,CAS_DELIMITER",738.0,3.0,0.0006828703703703704,182.0,644.0,1465.406779661017,290.0,0.0,5.0,0.0,f99bab7e-870c-11e7-ae77-080027bda63f,0.5,0.0
4b43a0ef04c4c0253d2ec36468df0f8050c36cfc,Guillermo,1476171892,gui@mit.edu,Tue Oct 11 03:44:52 2016 -0400,update readme,False,None,False,False,,1.0,1.0,1.0,0.0,1.0,1.0,"README.md,CAS_DELIMITER",738.0,3.0,0.0010879629629629629,181.0,643.0,920.1489361702128,289.0,0.0,5.0,0.0,f99bab7e-870c-11e7-ae77-080027bda63f,0.5,0.0
3042a8ca06a58769c57582b223af302a50d57394,Guillermo,1476171838,gui@mit.edu,Tue Oct 11 03:43:58 2016 -0400,add demo gif,False,Feature Addition,False,False,,1.0,1.0,1.0,0.0,0.0,0.0,"demo.gif,CAS_DELIMITER",0.0,1.0,-1.3307986111111112,2.0,642.0,0.24857150311790643,288.0,0.0,5.0,0.0,f99bab7e-870c-11e7-ae77-080027bda63f,0.5,0.0
f67374a03ca7449687b62ec5fc1e7637d9a49d3e,Guillermo,1476171810,gui@mit.edu,Tue Oct 11 03:43:30 2016 -0400,erge branch 'master' of https://github.com/naptha/tesseract.js,False,Merge,False,False,,0.0,0.0,0.0,0.0,0.0,0.0,NULL,0.0,0.0,0.0,0.0,0.0,0.0,0.0,0.0,0.0,0.0,f99bab7e-870c-11e7-ae77-080027bda63f,0,0
7675a986735d72de236ed4a8899a429c3c41f498,Guillermo,1476171798,gui@mit.edu,Tue Oct 11 03:43:18 2016 -0400,update readme,False,None,False,False,,1.0,1.0,1.0,0.0,2.0,2.0,"README.md,CAS_DELIMITER",738.0,3.0,3.2909375,180.0,641.0,1.3038647801728231,287.0,0.0,5.0,0.0,f99bab7e-870c-11e7-ae77-080027bda63f,0.5,0.0
dbf43bbe601a9ab559230cda3c0f0bdb8af433aa,Kevin Kwok,1475897117,antimatter15@gmail.com,Fri Oct 7 23:25:17 2016 -0400,update dist,False,None,False,False,,1.0,1.0,1.0,0.0,7.0,2.0,"dist/tesseract.js,CAS_DELIMITER",968.0,3.0,0.009189814814814816,34.0,250.0,109.816120906801,40.0,2.0,5.0,0.0,f99bab7e-870c-11e7-ae77-080027bda63f,0.0,0.0
090d0c786e47a28c403cfee105439bad87724974,Kevin Kwok,1475897106,antimatter15@gmail.com,Fri Oct 7 23:25:06 2016 -0400,undocument languiches,False,Non Functional,False,True,"[""91f9be7e81092282d4023639895a2ffb8fa6f620""]",1.0,1.0,1.0,0.0,7.0,2.0,"src/index.js,CAS_DELIMITER",219.0,3.0,3.165613425925926,11.0,249.0,1.3158945409474643,118.0,2.0,4.0,0.0,f99bab7e-870c-11e7-ae77-080027bda63f,0.0,0.0
1331ef8f18a3217795811b13ed5782df0bb34d33,Kevin Kwok,1475896323,antimatter15@gmail.com,Fri Oct 7 23:12:03 2016 -0400,this is only mildly annoying,False,None,False,False,,2.0,2.0,2.0,1.0,2.0,2.0,"dist/tesseract.js,CAS_DELIMITER,src/browser/index.js,CAS_DELIMITER",636.0,3.0,0.0014641203703703704,52.0,247.5,342.501976284585,117.0,4.0,4.0,0.0,f99bab7e-870c-11e7-ae77-080027bda63f,0.0,0.0
cb6419203f92c148b9646acc3461efa9e7e6eebc,Kevin Kwok,1475896187,antimatter15@gmail.com,Fri Oct 7 23:09:47 2016 -0400,Fixing opts,True,Corrective,True,True,"[""91f9be7e81092282d4023639895a2ffb8fa6f620"", ""beabea0c712cc7cb8a57df10630014fe9f017615""]",2.0,2.0,2.0,1.0,2.0,0.0,"dist/worker.js,CAS_DELIMITER,src/common/worker.js,CAS_DELIMITER",10742.5,3.0,0.003130787037037037,27.0,245.5,160.70425138632163,116.0,4.0,3.0,0.0,f99bab7e-870c-11e7-ae77-080027bda63f,0.0,1.0
c2a06b4b12767a0e47994e9ca0c1a540df95aaa4,Kevin Kwok,1475896070,antimatter15@gmail.com,Fri Oct 7 23:07:50 2016 -0400,import with cors,False,None,False,False,,1.0,1.0,1.0,0.0,7.0,1.0,"dist/tesseract.js,CAS_DELIMITER",962.0,3.0,0.004907407407407407,32.0,244.0,204.77358490566039,37.0,2.0,3.0,0.0,f99bab7e-870c-11e7-ae77-080027bda63f,0.0,0.0
16d9e9d0881dbc44bbe8266e8305cf936dfe9142,Kevin Kwok,1475895928,antimatter15@gmail.com,Fri Oct 7 23:05:28 2016 -0400,wumbo,False,None,False,False,,1.0,1.0,1.0,0.0,7.0,1.0,"src/browser/index.js,CAS_DELIMITER",298.0,3.0,0.003263888888888889,18.0,243.0,307.3829787234042,115.0,2.0,3.0,0.0,f99bab7e-870c-11e7-ae77-080027bda63f,0.0,0.0
8817639572218f39c39bc16ced1bd9bacd8fb5d1,Kevin Kwok,1475895646,antimatter15@gmail.com,Fri Oct 7 23:00:46 2016 -0400,derp,False,None,False,False,,2.0,2.0,3.0,1.0293773301885598,32.0,18.0,"dist/tesseract.js,CAS_DELIMITER,dist/worker.js,CAS_DELIMITER,src/browser/index.js,CAS_DELIMITER",7473.0,3.0,0.2522878086419753,69.0,241.0,2.3212423348064775,114.0,6.0,3.0,0.0,f99bab7e-870c-11e7-ae77-080027bda63f,0.0,0.0
b7dd138ea4ae4e93ca8bc734ce6b9daf5a2faae2,Kevin Kwok,1475887461,antimatter15@gmail.com,Fri Oct 7 20:44:21 2016 -0400,Update README.md,False,None,False,False,,1.0,1.0,1.0,0.0,1.0,2.0,"README.md,CAS_DELIMITER",739.0,3.0,3.634212962962963,179.0,239.0,1.275162740926636,58.0,0.0,3.0,0.0,f99bab7e-870c-11e7-ae77-080027bda63f,0.5,0.0
c5e3aeb5ef741b379885a77869883843afc1db63,Guillermo,1475830255,gui@mit.edu,Fri Oct 7 04:50:55 2016 -0400,1.0.1,False,None,False,False,,1.0,1.0,1.0,0.0,1.0,1.0,"package.json,CAS_DELIMITER",153.0,3.0,2.391875,35.0,640.0,1.418082048602038,286.0,5.0,5.0,0.0,f99bab7e-870c-11e7-ae77-080027bda63f,0.0,0.0
e25f31aac5a6a77dc1e7865d7208cdfec4e01d5d,Guillermo,1475830253,gui@mit.edu,Fri Oct 7 04:50:53 2016 -0400,build,False,None,False,False,,1.0,1.0,2.0,0.2544608946766894,88.0,76.0,"dist/tesseract.js,CAS_DELIMITER,dist/worker.js,CAS_DELIMITER",11055.0,3.0,1.1959259259259258,50.0,638.5,1.4180860947661815,28.0,4.0,5.0,0.0,f99bab7e-870c-11e7-ae77-080027bda63f,0.0,0.0
4d120482ba06607adebedb84e7c97b20ea7dd1ae,Kevin Kwok,1475624095,antimatter15@gmail.com,Tue Oct 4 19:34:55 2016 -0400,adding comments,False,Feature Addition,False,False,,1.0,3.0,6.0,1.9873251898788338,33.0,22.0,"src/browser/worker.js,CAS_DELIMITER,src/common/circularize.js,CAS_DELIMITER,src/common/desaturate.js,CAS_DELIMITER,src/common/dump.js,CAS_DELIMITER,src/node/index.js,CAS_DELIMITER,src/node/worker.js,CAS_DELIMITER",124.66666666666667,3.0,0.0033564814814814816,24.0,235.5,50.6551724137931,113.0,6.0,3.0,0.0,f99bab7e-870c-11e7-ae77-080027bda63f,0.0,0.0
973ed2fed56f364c8955af2ec92f3825ed0ad33c,Kevin Kwok,1475623725,antimatter15@gmail.com,Tue Oct 4 19:28:45 2016 -0400,adding titles,False,Feature Addition,False,False,,1.0,1.0,2.0,0.9182958340544896,5.0,1.0,"docs/tesseract_lang_list.md,CAS_DELIMITER,docs/tesseract_parameters.md,CAS_DELIMITER",752.0,3.0,0.007928240740740741,6.0,231.5,64.06569343065694,7.0,2.0,3.0,0.0,f99bab7e-870c-11e7-ae77-080027bda63f,0.0,0.0
19ac89478a0c1a40a37f3f329b8157adbde6d39f,Kevin Kwok,1475623597,antimatter15@gmail.com,Tue Oct 4 19:26:37 2016 -0400,circularize,False,None,False,True,"[""91f9be7e81092282d4023639895a2ffb8fa6f620""]",3.0,5.0,7.0,1.618601503425391,161.0,83.0,".babelrc,CAS_DELIMITER,dist/tesseract.js,CAS_DELIMITER,dist/worker.js,CAS_DELIMITER,package.json,CAS_DELIMITER,src/browser/index.js,CAS_DELIMITER,src/common/worker.js,CAS_DELIMITER,src/index.js,CAS_DELIMITER",3289.8571428571427,3.0,0.31286871693121693,126.0,227.0,1.4566041126078755,107.0,9.0,2.0,0.0,f99bab7e-870c-11e7-ae77-080027bda63f,0.0,0.0
7c66c3844c808d36dcf61ed6062d1f0943a18c67,Kevin Kwok,1475622914,antimatter15@gmail.com,Tue Oct 4 19:15:14 2016 -0400,nodejs examples,False,None,False,True,"[""800c83440db94c877d91d32fe0326396337a03c9"", ""91f9be7e81092282d4023639895a2ffb8fa6f620""]",3.0,3.0,6.0,1.6970391995785947,16.0,25.0,"dist/README.md,CAS_DELIMITER,examples/node/basic.js,CAS_DELIMITER,examples/node/cosmic.png,CAS_DELIMITER,examples/node/detect.js,CAS_DELIMITER,examples/node/test.js,CAS_DELIMITER,package.json,CAS_DELIMITER",35.5,3.0,0.0006114969135802469,49.0,220.5,273.5552050473186,55.0,4.0,1.0,0.0,f99bab7e-870c-11e7-ae77-080027bda63f,0.0,0.0
699c029e89d431feaba6ec4f9c78ec3585c8ed04,Kevin Kwok,1475622597,antimatter15@gmail.com,Tue Oct 4 19:09:57 2016 -0400,stuff,False,None,False,False,,3.0,3.0,4.0,1.5469371097526865,18.0,6.0,"dist/README.md,CAS_DELIMITER,examples/file-input/README.md,CAS_DELIMITER,examples/file-input/demo.html,CAS_DELIMITER,package.json,CAS_DELIMITER",80.25,3.0,-0.00021701388888888888,46.0,215.5,-711.2776025236593,54.0,4.0,1.0,0.0,f99bab7e-870c-11e7-ae77-080027bda63f,0.25,0.0
c5a1726e1d0619ab576f0acde40898fb12c284ba,Kevin Kwok,1475622355,antimatter15@gmail.com,Tue Oct 4 19:05:55 2016 -0400,rewriting with node support,False,None,False,True,"[""ab13d7b891d4f983a85893bad503f7f362b3cc25"", ""91f9be7e81092282d4023639895a2ffb8fa6f620"", ""beabea0c712cc7cb8a57df10630014fe9f017615""]",5.0,11.0,34.0,1.613331575962837,14144.0,1516.0,"devServer.js,CAS_DELIMITER,dist/tesseract.js,CAS_DELIMITER,dist/worker.js,CAS_DELIMITER,docs/tesseract_lang_list.md,CAS_DELIMITER,docs/tesseract_parameters.md,CAS_DELIMITER,examples/file-input/demo.html,CAS_DELIMITER,examples/node/test.js,CAS_DELIMITER,index.html,CAS_DELIMITER,package.json,CAS_DELIMITER,src/browser/index.js,CAS_DELIMITER,src/browser/lang.js,CAS_DELIMITER,src/browser/worker.js,CAS_DELIMITER,src/common/circularize.js,CAS_DELIMITER,src/common/desaturate.js,CAS_DELIMITER,src/common/dump.js,CAS_DELIMITER,src/common/langdata.json,CAS_DELIMITER,src/common/worker.js,CAS_DELIMITER,src/index.js,CAS_DELIMITER,src/node/index.js,CAS_DELIMITER,src/node/lang.js,CAS_DELIMITER,src/node/worker.js,CAS_DELIMITER,src/shared/circularize.js,CAS_DELIMITER,src/shared/desaturate.js,CAS_DELIMITER,src/shared/dump.js,CAS_DELIMITER,src/shared/fileSizes.js,CAS_DELIMITER,src/worker/db.js,CAS_DELIMITER,src/worker/detect.js,CAS_DELIMITER,src/worker/index.js,CAS_DELIMITER,src/worker/loadLanguage.js,CAS_DELIMITER,src/worker/recognize.js,CAS_DELIMITER,tesseract_lang_list.md,CAS_DELIMITER,tesseract_parameters.md,CAS_DELIMITER,webpack.config.dev.js,CAS_DELIMITER,webpack.config.prod.js,CAS_DELIMITER",406.5,3.0,0.06452205882352942,239.0,196.5,1.455840455840457,53.0,2.0,0.0,0.0,f99bab7e-870c-11e7-ae77-080027bda63f,0.0,0.0
b5267918fd4538a25119e1d6d238fc7f257354b4,Guillermo,1475573465,gui@mit.edu,Tue Oct 4 05:31:05 2016 -0400,delay,False,None,False,False,,1.0,1.0,1.0,0.0,1.0,1.0,"README.md,CAS_DELIMITER",739.0,3.0,0.0002546296296296296,178.0,637.0,3928.2727272727275,285.0,0.0,5.0,0.0,f99bab7e-870c-11e7-ae77-080027bda63f,0.5,0.0
d16101b686a0e1f4270ca0015f469ed28466c087,Guillermo,1475573443,gui@mit.edu,Tue Oct 4 05:30:43 2016 -0400,delay,False,None,False,False,,1.0,1.0,1.0,0.0,2.0,1.0,"README.md,CAS_DELIMITER",738.0,3.0,0.3390162037037037,177.0,636.0,3.9497115154825715,284.0,0.0,5.0,0.0,f99bab7e-870c-11e7-ae77-080027bda63f,0.5,0.0
ca7f4966e408390b2ab4c725a7c0395b326e1a5b,Guillermo,1475544152,gui@mit.edu,Mon Oct 3 21:22:32 2016 -0400,readme stuff,False,None,False,False,,1.0,1.0,1.0,0.0,8.0,5.0,"README.md,CAS_DELIMITER",735.0,3.0,0.008425925925925925,176.0,635.0,119.68131868131869,283.0,0.0,5.0,0.0,f99bab7e-870c-11e7-ae77-080027bda63f,0.5,0.0
9b1d09a72e299bc8b7045cfeabb6a41be9773163,Guillermo,1475543424,gui@mit.edu,Mon Oct 3 21:10:24 2016 -0400,readme stuff,False,None,False,False,,1.0,1.0,1.0,0.0,16.0,2.0,"README.md,CAS_DELIMITER",721.0,3.0,0.012094907407407407,175.0,634.0,83.67942583732058,282.0,0.0,5.0,0.0,f99bab7e-870c-11e7-ae77-080027bda63f,0.5,0.0
5972594575d66f8333652124772409d92a665304,Guillermo,1475542379,gui@mit.edu,Mon Oct 3 20:52:59 2016 -0400,readme stuff,False,None,False,False,,1.0,1.0,1.0,0.0,3.0,1.0,"README.md,CAS_DELIMITER",719.0,3.0,0.0004166666666666667,174.0,633.0,2401.0,281.0,0.0,5.0,0.0,f99bab7e-870c-11e7-ae77-080027bda63f,0.5,0.0
0c6f96de8d3225e5b58dfd056449b2de6948fb6a,Guillermo,1475542343,gui@mit.edu,Mon Oct 3 20:52:23 2016 -0400,readme stuff,False,None,False,False,,1.0,1.0,1.0,0.0,1.0,1.0,"README.md,CAS_DELIMITER",719.0,3.0,0.0040625,173.0,632.0,247.15384615384613,280.0,0.0,5.0,0.0,f99bab7e-870c-11e7-ae77-080027bda63f,0.5,0.0
6a92dd3a945e7b587101bdec01d3facfc13465f4,Guillermo,1475541992,gui@mit.edu,Mon Oct 3 20:46:32 2016 -0400,readme stuff,False,None,False,False,,1.0,1.0,1.0,0.0,2.0,2.0,"README.md,CAS_DELIMITER",719.0,3.0,0.0008449074074074074,172.0,631.0,1184.5616438356165,279.0,0.0,5.0,0.0,f99bab7e-870c-11e7-ae77-080027bda63f,0.5,0.0
5ee01d4265c7ac686afde2284c313227d08f8140,Guillermo,1475541919,gui@mit.edu,Mon Oct 3 20:45:19 2016 -0400,readme stuff,False,None,False,False,,1.0,1.0,1.0,0.0,3.0,6.0,"README.md,CAS_DELIMITER",722.0,3.0,0.0015277777777777779,171.0,630.0,655.5454545454545,278.0,0.0,5.0,0.0,f99bab7e-870c-11e7-ae77-080027bda63f,0.5,0.0
c88a769818e4bbf1827625f458307229365111e1,Guillermo,1475541787,gui@mit.edu,Mon Oct 3 20:43:07 2016 -0400,readme stuff,False,None,False,False,,1.0,1.0,1.0,0.0,2.0,0.0,"README.md,CAS_DELIMITER",720.0,3.0,0.002384259259259259,170.0,629.0,420.41747572815535,277.0,0.0,5.0,0.0,f99bab7e-870c-11e7-ae77-080027bda63f,0.5,0.0
9644f8764013a41be3c9b35cc8b7cd1b0608ff79,Guillermo,1475541581,gui@mit.edu,Mon Oct 3 20:39:41 2016 -0400,readme stuff,False,None,False,False,,1.0,1.0,1.0,0.0,2.0,2.0,"README.md,CAS_DELIMITER",720.0,3.0,0.0008217592592592593,169.0,628.0,1217.9014084507041,276.0,0.0,5.0,0.0,f99bab7e-870c-11e7-ae77-080027bda63f,0.5,0.0
7d978ac8135c54058832173985cdc6b0c5888bcf,Guillermo,1475541510,gui@mit.edu,Mon Oct 3 20:38:30 2016 -0400,readme stuff,False,None,False,False,,1.0,1.0,1.0,0.0,3.0,3.0,"README.md,CAS_DELIMITER",720.0,3.0,0.003287037037037037,168.0,627.0,305.22535211267603,275.0,0.0,5.0,0.0,f99bab7e-870c-11e7-ae77-080027bda63f,0.5,0.0
26c0f4cc305435a6231167bbb29e0c6b5823e9cd,Guillermo,1475541226,gui@mit.edu,Mon Oct 3 20:33:46 2016 -0400,readme stuff,False,None,False,False,,1.0,1.0,1.0,0.0,0.0,1.0,"README.md,CAS_DELIMITER",721.0,3.0,0.0005324074074074074,167.0,626.0,1879.2608695652173,274.0,0.0,5.0,0.0,f99bab7e-870c-11e7-ae77-080027bda63f,0.5,0.0
f8b9d2e70e037c286969e6a4ebd5ca966cbc39ea,Guillermo,1475541180,gui@mit.edu,Mon Oct 3 20:33:00 2016 -0400,readme stuff,False,None,False,False,,1.0,1.0,1.0,0.0,1.0,1.0,"README.md,CAS_DELIMITER",721.0,3.0,0.0025925925925925925,166.0,625.0,386.7142857142857,273.0,0.0,5.0,0.0,f99bab7e-870c-11e7-ae77-080027bda63f,0.5,0.0
b1aa51da67c1bfb3f4b66523d2d07b865bfac9ff,Guillermo,1475540956,gui@mit.edu,Mon Oct 3 20:29:16 2016 -0400,readme stuff,False,None,False,False,,1.0,1.0,1.0,0.0,1.0,1.0,"README.md,CAS_DELIMITER",721.0,3.0,0.0009027777777777777,165.0,624.0,1108.6923076923078,272.0,0.0,5.0,0.0,f99bab7e-870c-11e7-ae77-080027bda63f,0.5,0.0
87858dd8b61c405515cbbd75345f03b98352a0bd,Guillermo,1475540878,gui@mit.edu,Mon Oct 3 20:27:58 2016 -0400,readme stuff,False,None,False,False,,1.0,1.0,1.0,0.0,1.0,1.0,"README.md,CAS_DELIMITER",721.0,3.0,0.0025,164.0,623.0,401.0,271.0,0.0,5.0,0.0,f99bab7e-870c-11e7-ae77-080027bda63f,0.5,0.0
b09665cf22ff0931ecc9a016c35918d578bb33ae,Guillermo,1475540662,gui@mit.edu,Mon Oct 3 20:24:22 2016 -0400,readme stuff,False,None,False,False,,1.0,1.0,1.0,0.0,11.0,10.0,"README.md,CAS_DELIMITER",720.0,3.0,0.0043287037037037035,163.0,622.0,232.01604278074868,270.0,0.0,5.0,0.0,f99bab7e-870c-11e7-ae77-080027bda63f,0.5,0.0
fb476b24b5eda511d7654923c5518e3265d8a59b,Guillermo,1475540288,gui@mit.edu,Mon Oct 3 20:18:08 2016 -0400,readme stuff,False,None,False,False,,1.0,1.0,1.0,0.0,10.0,17.0,"README.md,CAS_DELIMITER",727.0,3.0,0.46392361111111113,162.0,621.0,3.155527280892149,269.0,0.0,5.0,0.0,f99bab7e-870c-11e7-ae77-080027bda63f,0.5,0.0
628febf0a6af146808f3d663f3bbd31a0039f3f8,Guillermo,1475500205,gui@mit.edu,Mon Oct 3 09:10:05 2016 -0400,push date back lol,False,None,False,False,,1.0,1.0,1.0,0.0,1.0,1.0,"README.md,CAS_DELIMITER",727.0,3.0,0.0005324074074074074,161.0,620.0,1879.2608695652173,268.0,0.0,5.0,0.0,f99bab7e-870c-11e7-ae77-080027bda63f,0.5,0.0
a770a679116c130ba8d9f4374ede3b2980d76a5f,Guillermo,1475500166,gui@mit.edu,Mon Oct 3 09:09:26 2016 -0400,Merge branch 'master' of https://github.com/naptha/tesseract.js,False,Merge,False,False,,0.0,0.0,0.0,0.0,0.0,0.0,NULL,0.0,0.0,0.0,0.0,0.0,0.0,0.0,0.0,0.0,0.0,f99bab7e-870c-11e7-ae77-080027bda63f,0,0
3501505423606588f80c3a15939c02f76ae051b3,Guillermo,1475500159,gui@mit.edu,Mon Oct 3 09:09:19 2016 -0400,push date back lol,False,None,False,False,,1.0,1.0,1.0,0.0,1.0,1.0,"README.md,CAS_DELIMITER",727.0,3.0,0.26493055555555556,160.0,619.0,4.774574049803407,267.0,0.0,5.0,0.0,f99bab7e-870c-11e7-ae77-080027bda63f,0.5,0.0
733328e99bc0286250b76ed4c00353ea4f2fd810,Kevin Kwok,1475479372,antimatter15@gmail.com,Mon Oct 3 03:22:52 2016 -0400,moving things to shared,False,None,False,False,,2.0,3.0,13.0,2.573661270526748,265.0,265.0,"src/shared/circularize.js,CAS_DELIMITER,src/shared/desaturate.js,CAS_DELIMITER,src/shared/dump.js,CAS_DELIMITER,src/shared/fileSizes.js,CAS_DELIMITER,src/worker/circularize.js,CAS_DELIMITER,src/worker/desaturate.js,CAS_DELIMITER,src/worker/detect.js,CAS_DELIMITER,src/worker/dump.js,CAS_DELIMITER,src/worker/fileSizes.js,CAS_DELIMITER,src/worker/index.js,CAS_DELIMITER,src/worker/loadLanguage.js,CAS_DELIMITER,src/worker/recognize.js,CAS_DELIMITER,webpack.config.dev.js,CAS_DELIMITER",124.53846153846153,3.0,-0.08584935897435897,53.0,173.0,0.19374726103304166,46.0,0.0,0.0,0.0,f99bab7e-870c-11e7-ae77-080027bda63f,0.5,0.0
d31667831a2f0d700ce9aa70a64e456ddb3aeb19,Guillermo,1475477269,gui@mit.edu,Mon Oct 3 02:47:49 2016 -0400,polish intro a bit,False,None,False,False,,1.0,1.0,1.0,0.0,2.0,2.0,"README.md,CAS_DELIMITER",727.0,3.0,0.0025,159.0,618.0,401.0,266.0,0.0,5.0,0.0,f99bab7e-870c-11e7-ae77-080027bda63f,0.5,0.0
df676ff110618676125dabf28db2a1f822426d90,Guillermo,1475477053,gui@mit.edu,Mon Oct 3 02:44:13 2016 -0400,polish intro a bit,False,None,False,False,,1.0,1.0,1.0,0.0,2.0,1.0,"README.md,CAS_DELIMITER",726.0,3.0,0.0003356481481481481,158.0,617.0,2980.3103448275865,265.0,0.0,5.0,0.0,f99bab7e-870c-11e7-ae77-080027bda63f,0.5,0.0
1594f7528d4fe449daa6e7334221bfa87419ba6d,Guillermo,1475477024,gui@mit.edu,Mon Oct 3 02:43:44 2016 -0400,polish intro a bit,False,None,False,False,,1.0,1.0,1.0,0.0,1.0,1.0,"README.md,CAS_DELIMITER",726.0,3.0,0.0005092592592592592,157.0,616.0,1964.6363636363637,264.0,0.0,5.0,0.0,f99bab7e-870c-11e7-ae77-080027bda63f,0.5,0.0
82ea60d2c3577eda54222a6a2232b31fb2f096e0,Guillermo,1475476980,gui@mit.edu,Mon Oct 3 02:43:00 2016 -0400,polish intro a bit,False,None,False,False,,1.0,1.0,1.0,0.0,3.0,1.0,"README.md,CAS_DELIMITER",724.0,3.0,0.0007754629629629629,156.0,615.0,1290.55223880597,263.0,0.0,5.0,0.0,f99bab7e-870c-11e7-ae77-080027bda63f,0.5,0.0
3216553d62797c317f34723e1161a67a8516dfbd,Guillermo,1475476913,gui@mit.edu,Mon Oct 3 02:41:53 2016 -0400,polish intro a bit,False,None,False,False,,1.0,1.0,1.0,0.0,1.0,1.0,"README.md,CAS_DELIMITER",724.0,3.0,0.00019675925925925926,155.0,614.0,5083.35294117647,262.0,0.0,5.0,0.0,f99bab7e-870c-11e7-ae77-080027bda63f,0.5,0.0
8cdbecd08529edf878b7d33d43229691bb3e4450,Guillermo,1475476896,gui@mit.edu,Mon Oct 3 02:41:36 2016 -0400,polish intro a bit,False,None,False,False,,1.0,1.0,1.0,0.0,2.0,2.0,"README.md,CAS_DELIMITER",724.0,3.0,0.0011921296296296296,154.0,613.0,839.8349514563107,261.0,0.0,5.0,0.0,f99bab7e-870c-11e7-ae77-080027bda63f,0.5,0.0
549b2c12389bc15415d0e233c852f12b8f2675e4,Guillermo,1475476793,gui@mit.edu,Mon Oct 3 02:39:53 2016 -0400,polish intro a bit,False,None,False,False,,1.0,1.0,1.0,0.0,1.0,3.0,"README.md,CAS_DELIMITER",726.0,3.0,0.0006597222222222222,153.0,612.0,1516.7894736842104,260.0,0.0,5.0,0.0,f99bab7e-870c-11e7-ae77-080027bda63f,0.5,0.0
16b120b178bb3fc3f7914d7ab62e7846f13faf1f,Guillermo,1475476736,gui@mit.edu,Mon Oct 3 02:38:56 2016 -0400,polish intro a bit,False,None,False,False,,1.0,1.0,1.0,0.0,1.0,1.0,"README.md,CAS_DELIMITER",726.0,3.0,0.0009375,152.0,611.0,1067.6666666666667,259.0,0.0,5.0,0.0,f99bab7e-870c-11e7-ae77-080027bda63f,0.5,0.0
d09e1930fc01ae83a11880665325ab761ec3b96c,Guillermo,1475476655,gui@mit.edu,Mon Oct 3 02:37:35 2016 -0400,polish intro a bit,False,None,False,False,,1.0,1.0,1.0,0.0,3.0,2.0,"README.md,CAS_DELIMITER",725.0,3.0,0.04271990740740741,151.0,610.0,24.408290436196154,258.0,0.0,5.0,0.0,f99bab7e-870c-11e7-ae77-080027bda63f,0.5,0.0
4eed6f5137531b8e3f506db3770cb0e61424d338,Guillermo,1475472964,gui@mit.edu,Mon Oct 3 01:36:04 2016 -0400,make link divders prettaaay,False,None,False,False,,1.0,1.0,1.0,0.0,1.0,1.0,"README.md,CAS_DELIMITER",725.0,3.0,0.0005671296296296297,150.0,609.0,1764.265306122449,257.0,0.0,5.0,0.0,f99bab7e-870c-11e7-ae77-080027bda63f,0.5,0.0
21b3136a8377ee0e13650df92295066b1c9173a8,Guillermo,1475472915,gui@mit.edu,Mon Oct 3 01:35:15 2016 -0400,add links to top,False,Feature Addition,False,False,,1.0,1.0,1.0,0.0,3.0,2.0,"README.md,CAS_DELIMITER",724.0,3.0,0.0005092592592592592,149.0,608.0,1964.6363636363637,256.0,0.0,5.0,0.0,f99bab7e-870c-11e7-ae77-080027bda63f,0.5,0.0
a91acffec66b9bf43ab3cdd6da1df1da816732f9,Guillermo,1475472871,gui@mit.edu,Mon Oct 3 01:34:31 2016 -0400,add links to top,False,Feature Addition,False,False,,1.0,1.0,1.0,0.0,2.0,0.0,"README.md,CAS_DELIMITER",722.0,3.0,0.0011921296296296296,148.0,607.0,839.8349514563107,255.0,0.0,5.0,0.0,f99bab7e-870c-11e7-ae77-080027bda63f,0.5,0.0
2e6757da81d14e530ca77d434a6e8a5adad6be4c,Guillermo,1475472768,gui@mit.edu,Mon Oct 3 01:32:48 2016 -0400,minor fix,True,Corrective,True,False,,1.0,1.0,1.0,0.0,2.0,2.0,"README.md,CAS_DELIMITER",722.0,3.0,0.000787037037037037,147.0,606.0,1271.5882352941176,254.0,0.0,5.0,0.0,f99bab7e-870c-11e7-ae77-080027bda63f,0.5,0.0
0e88969f0a62b43a9102e6b38161377efd380d55,Guillermo,1475472700,gui@mit.edu,Mon Oct 3 01:31:40 2016 -0400,rearrange docs,False,Non Functional,False,False,,1.0,1.0,1.0,0.0,36.0,35.0,"README.md,CAS_DELIMITER",721.0,3.0,0.0007638888888888889,146.0,605.0,1310.090909090909,253.0,0.0,5.0,0.0,f99bab7e-870c-11e7-ae77-080027bda63f,0.5,0.0
905427fe9528a3256f9da7d32d7b32feb69efd70,Guillermo,1475472634,gui@mit.edu,Mon Oct 3 01:30:34 2016 -0400,add docs toc,False,Feature Addition,False,False,,1.0,1.0,1.0,0.0,30.0,15.0,"README.md,CAS_DELIMITER",706.0,3.0,0.0043055555555555555,145.0,604.0,233.25806451612902,252.0,0.0,5.0,0.0,f99bab7e-870c-11e7-ae77-080027bda63f,0.5,0.0
debcb1cd7a6aa1078115234889466a2ca31f5125,Guillermo,1475472262,gui@mit.edu,Mon Oct 3 01:24:22 2016 -0400,add Tesseract.*Url docs,False,Feature Addition,False,False,,1.0,1.0,1.0,0.0,50.0,15.0,"README.md,CAS_DELIMITER",671.0,3.0,0.018287037037037036,144.0,603.0,55.683544303797476,251.0,0.0,5.0,0.0,f99bab7e-870c-11e7-ae77-080027bda63f,0.5,0.0
491cc2a312431f4e88dd472e0f0f7e518a9f5ef6,Guillermo,1475470693,gui@mit.edu,Mon Oct 3 00:58:13 2016 -0400,move langs to own file,False,None,False,False,,1.0,1.0,1.0,0.0,69.0,0.0,"tesseract_lang_list.md,CAS_DELIMITER",0.0,2.0,-1.7553472222222222,2.0,602.0,0.43031214147248487,250.0,0.0,5.0,0.0,f99bab7e-870c-11e7-ae77-080027bda63f,0.5,0.0
0ee94b216957d566f44e82e204a23917859b5f58,Guillermo,1475470682,gui@mit.edu,Mon Oct 3 00:58:02 2016 -0400,move langs to own file,False,None,False,False,,1.0,1.0,1.0,0.0,18.0,4.0,"README.md,CAS_DELIMITER",657.0,3.0,0.007997685185185186,143.0,601.0,126.03617945007235,249.0,0.0,5.0,0.0,f99bab7e-870c-11e7-ae77-080027bda63f,0.5,0.0
4a8ee3729dc610590a866af38a280655729f2318,Guillermo,1475469991,gui@mit.edu,Mon Oct 3 00:46:31 2016 -0400,try to clean language list,False,Perfective,False,False,,1.0,1.0,1.0,0.0,1.0,1.0,"README.md,CAS_DELIMITER",657.0,3.0,0.001400462962962963,142.0,600.0,715.0495867768595,248.0,0.0,5.0,0.0,f99bab7e-870c-11e7-ae77-080027bda63f,0.5,0.0
2a98b0ac07bcb051f6fd2cbd807126d4a615a8d9,Guillermo,1475469870,gui@mit.edu,Mon Oct 3 00:44:30 2016 -0400,remove giant table,False,None,False,False,,1.0,1.0,2.0,0.999993814657569,684.0,682.0,"README.md,CAS_DELIMITER,tesseract_parameters.md,CAS_DELIMITER",668.0,3.0,0.003640046296296296,143.0,598.5,138.36089030206676,247.0,0.0,5.0,0.0,f99bab7e-870c-11e7-ae77-080027bda63f,0.5,0.0
32f62de7ad952f339f90106d527f1299aeb4aa8a,Guillermo,1475469241,gui@mit.edu,Mon Oct 3 00:34:01 2016 -0400,table test,False,Preventative,False,False,,1.0,1.0,1.0,0.0,5.0,7.0,"README.md,CAS_DELIMITER",1338.0,3.0,0.00038194444444444446,140.0,597.0,2619.181818181818,245.0,0.0,5.0,0.0,f99bab7e-870c-11e7-ae77-080027bda63f,0.5,0.0
886a3d67045afc426446eea3a321e0d27f38cdb4,Guillermo,1475469208,gui@mit.edu,Mon Oct 3 00:33:28 2016 -0400,table test,False,Preventative,False,False,,1.0,1.0,1.0,0.0,3.0,3.0,"README.md,CAS_DELIMITER",1338.0,3.0,0.0011689814814814816,139.0,596.0,856.4455445544554,244.0,0.0,5.0,0.0,f99bab7e-870c-11e7-ae77-080027bda63f,0.5,0.0
2f4e85237da3fa641c6f019ab115bb5b75f2deb3,Guillermo,1475469107,gui@mit.edu,Mon Oct 3 00:31:47 2016 -0400,table test,False,Preventative,False,False,,1.0,1.0,1.0,0.0,3.0,0.0,"README.md,CAS_DELIMITER",1335.0,3.0,0.0005555555555555556,138.0,595.0,1801.0,243.0,0.0,5.0,0.0,f99bab7e-870c-11e7-ae77-080027bda63f,0.5,0.0
dac0fdea3ee71667cdf10372aa4666c641361719,Guillermo,1475469059,gui@mit.edu,Mon Oct 3 00:30:59 2016 -0400,table test,False,Preventative,False,False,,1.0,1.0,1.0,0.0,2.0,2.0,"README.md,CAS_DELIMITER",1335.0,3.0,0.0006134259259259259,137.0,594.0,1631.188679245283,242.0,0.0,5.0,0.0,f99bab7e-870c-11e7-ae77-080027bda63f,0.5,0.0
9aac85ac4f478ab649ce70167fa4765009c6ed4e,Guillermo,1475469006,gui@mit.edu,Mon Oct 3 00:30:06 2016 -0400,lol do you think there are enough options,False,None,False,False,,1.0,1.0,1.0,0.0,690.0,8.0,"README.md,CAS_DELIMITER",653.0,3.0,0.009837962962962963,136.0,593.0,102.6470588235294,241.0,0.0,5.0,0.0,f99bab7e-870c-11e7-ae77-080027bda63f,0.5,0.0
dff5b0761398301d7fa3269558d8bd1f7b9dad68,Guillermo,1475468156,gui@mit.edu,Mon Oct 3 00:15:56 2016 -0400,rearranging readme,False,None,False,False,,1.0,1.0,1.0,0.0,46.0,32.0,"README.md,CAS_DELIMITER",639.0,3.0,0.09152777777777778,135.0,592.0,11.925644916540213,240.0,0.0,5.0,0.0,f99bab7e-870c-11e7-ae77-080027bda63f,0.5,0.0
4eda87432525e3c2dfda7c39d50882fa65e7175c,Guillermo,1475467159,gui@mit.edu,Sun Oct 2 23:59:19 2016 -0400,add index,False,Feature Addition,False,False,,1.0,1.0,1.0,0.0,7.0,7.0,"index.html,CAS_DELIMITER",88.0,3.0,0.07998842592592592,9.0,591.0,13.501808710750977,239.0,0.0,5.0,0.0,f99bab7e-870c-11e7-ae77-080027bda63f,0.5,0.0
a91dce8b165838ff0277a89cf5ed6bb550b494c6,Guillermo,1475467137,gui@mit.edu,Sun Oct 2 23:58:57 2016 -0400,build browser,False,None,False,False,,1.0,1.0,1.0,0.0,1.0,1.0,"dist/tesseract.js,CAS_DELIMITER",630.0,3.0,0.3792013888888889,29.0,590.0,3.637121142752495,26.0,0.0,5.0,0.0,f99bab7e-870c-11e7-ae77-080027bda63f,0.5,0.0
2b679123fa20a1737570d0490540e9e3c21b7c58,Guillermo,1475467059,gui@mit.edu,Sun Oct 2 23:57:39 2016 -0400,add webpack config,False,Feature Addition,False,False,,1.0,1.0,2.0,0.9182958340544896,3.0,3.0,"webpack.config.dev.js,CAS_DELIMITER,webpack.config.prod.js,CAS_DELIMITER",132.0,3.0,0.18914930555555556,13.0,588.5,3.6434144102799446,238.0,0.0,5.0,0.0,f99bab7e-870c-11e7-ae77-080027bda63f,0.5,0.0
d23b6d8728015b71e3e9ba0c37db119d90710edc,Guillermo,1475467006,gui@mit.edu,Sun Oct 2 23:56:46 2016 -0400,add browser sauce,False,Feature Addition,False,False,,1.0,1.0,1.0,0.0,35.0,14.0,"src/browser/index.js,CAS_DELIMITER",317.0,3.0,0.1247337962962963,17.0,587.0,9.017073397049272,88.0,0.0,5.0,0.0,f99bab7e-870c-11e7-ae77-080027bda63f,0.5,0.0
37e6de16bb1e81c9d7bc8ccffd9ef854937f6262,Guillermo,1475466977,gui@mit.edu,Sun Oct 2 23:56:17 2016 -0400,add worker sauce,False,Feature Addition,False,False,,1.0,1.0,5.0,2.1486852144568975,49.0,48.0,"src/worker/detect.js,CAS_DELIMITER,src/worker/dump.js,CAS_DELIMITER,src/worker/index.js,CAS_DELIMITER,src/worker/loadLanguage.js,CAS_DELIMITER,src/worker/recognize.js,CAS_DELIMITER",248.0,3.0,0.01557638888888889,27.0,584.0,13.839946500222913,87.0,0.0,5.0,0.0,f99bab7e-870c-11e7-ae77-080027bda63f,0.5,0.0
c80038b6cb191e4668f9fd576ac217c7dfb97575,Guillermo,1475460248,gui@mit.edu,Sun Oct 2 22:04:08 2016 -0400,change loadlanguage api,False,None,False,False,,2.0,2.0,5.0,1.8662302798229755,167.0,69.0,"README.md,CAS_DELIMITER,index.html,CAS_DELIMITER,src/worker/detect.js,CAS_DELIMITER,src/worker/loadLanguage.js,CAS_DELIMITER,src/worker/recognize.js,CAS_DELIMITER",252.6,3.0,0.052905092592592594,161.0,579.0,4.7803544082257705,82.0,0.0,5.0,0.0,f99bab7e-870c-11e7-ae77-080027bda63f,0.5,0.0
4741312b3e44a1c2e024df6b6061b3021705a744,Guillermo,1475456356,gui@mit.edu,Sun Oct 2 20:59:16 2016 -0400,merge,False,Merge,False,False,,0.0,0.0,0.0,0.0,0.0,0.0,NULL,0.0,0.0,0.0,0.0,0.0,0.0,0.0,0.0,0.0,0.0,f99bab7e-870c-11e7-ae77-080027bda63f,0,0
53b6c3ab6e88a57d5ebd050748ac7ee17ffd99c4,Guillermo,1475456229,gui@mit.edu,Sun Oct 2 20:57:09 2016 -0400,add url option,False,Feature Addition,False,False,,2.0,2.0,2.0,0.21639693245126468,26.0,3.0,"index.html,CAS_DELIMITER,src/browser/index.js,CAS_DELIMITER",191.0,3.0,0.12647569444444445,25.0,575.5,4.953328757721345,79.0,0.0,5.0,0.0,f99bab7e-870c-11e7-ae77-080027bda63f,0.5,0.0
b7bec0f1b17bd8cb36ca661a92849739fa3336f5,Guillermo,1475437393,gui@mit.edu,Sun Oct 2 15:43:13 2016 -0400,add plug for pull,False,Feature Addition,False,False,,1.0,1.0,1.0,0.0,3.0,1.0,"README.md,CAS_DELIMITER",532.0,3.0,0.0007986111111111112,132.0,573.0,1253.1739130434783,232.0,0.0,5.0,0.0,f99bab7e-870c-11e7-ae77-080027bda63f,0.5,0.0
c4ceacea5f56fdd9b84ced63b195ce852e34214b,Guillermo,1475437393,gui@mit.edu,Sun Oct 2 15:43:13 2016 -0400,add plug for pull,False,Feature Addition,False,False,,1.0,1.0,1.0,0.0,3.0,1.0,"README.md,CAS_DELIMITER",534.0,3.0,0.0,133.0,574.0,0.0,233.0,0.0,5.0,0.0,f99bab7e-870c-11e7-ae77-080027bda63f,0.5,0.0
3dc7322e6717d5c87b900d0bcea42d97129eb0bf,Guillermo,1475437324,gui@mit.edu,Sun Oct 2 15:42:04 2016 -0400,spacing,False,None,False,False,,1.0,1.0,1.0,0.0,2.0,0.0,"README.md,CAS_DELIMITER",530.0,3.0,0.0,131.0,572.0,0.0,231.0,0.0,5.0,0.0,f99bab7e-870c-11e7-ae77-080027bda63f,0.5,0.0
fbb830e061345243933c2a7257c1150d30932d11,Guillermo,1475437324,gui@mit.edu,Sun Oct 2 15:42:04 2016 -0400,spacing,False,None,False,False,,1.0,1.0,1.0,0.0,2.0,0.0,"README.md,CAS_DELIMITER",528.0,3.0,0.0010069444444444444,130.0,571.0,994.1034482758621,230.0,0.0,5.0,0.0,f99bab7e-870c-11e7-ae77-080027bda63f,0.5,0.0
0e8094afa729126bdada6798d31a4a0d8700b0d8,Guillermo,1475437237,gui@mit.edu,Sun Oct 2 15:40:37 2016 -0400,add contributing instructions,False,Feature Addition,False,False,,1.0,1.0,1.0,0.0,32.0,4.0,"README.md,CAS_DELIMITER",500.0,3.0,0.0,129.0,570.0,0.0,229.0,0.0,5.0,0.0,f99bab7e-870c-11e7-ae77-080027bda63f,0.5,0.0
f5fc87638cdeb81c37655db63ed9dce46fcae851,Guillermo,1475437237,gui@mit.edu,Sun Oct 2 15:40:37 2016 -0400,add contributing instructions,False,Feature Addition,False,False,,1.0,1.0,1.0,0.0,32.0,4.0,"README.md,CAS_DELIMITER",472.0,3.0,0.028055555555555556,128.0,569.0,36.64356435643565,228.0,0.0,5.0,0.0,f99bab7e-870c-11e7-ae77-080027bda63f,0.5,0.0
2e657b9f81b212d6dacfa820edc4e98e5e74fa1c,Guillermo,1475434813,gui@mit.edu,Sun Oct 2 15:00:13 2016 -0400,add cdn instructions,False,Feature Addition,False,False,,1.0,1.0,1.0,0.0,18.0,1.0,"README.md,CAS_DELIMITER",455.0,3.0,0.0,127.0,568.0,0.0,227.0,0.0,5.0,0.0,f99bab7e-870c-11e7-ae77-080027bda63f,0.5,0.0
93e5b706b31286c9fc3aa9b01deb2953df5035f6,Guillermo,1475434813,gui@mit.edu,Sun Oct 2 15:00:13 2016 -0400,add cdn instructions,False,Feature Addition,False,False,,1.0,1.0,1.0,0.0,18.0,1.0,"README.md,CAS_DELIMITER",438.0,3.0,0.0031944444444444446,126.0,567.0,314.04347826086956,226.0,0.0,5.0,0.0,f99bab7e-870c-11e7-ae77-080027bda63f,0.5,0.0
94ca863eb68b44438e10283fb11d078d72c51b37,Guillermo,1475434537,gui@mit.edu,Sun Oct 2 14:55:37 2016 -0400,add script tag example,False,Feature Addition,False,False,,1.0,1.0,1.0,0.0,13.0,2.0,"README.md,CAS_DELIMITER",427.0,3.0,0.0,125.0,566.0,0.0,225.0,0.0,5.0,0.0,f99bab7e-870c-11e7-ae77-080027bda63f,0.5,0.0
15820de3b2874e1b167932e619ae7b6eb258f8ee,Guillermo,1475434537,gui@mit.edu,Sun Oct 2 14:55:37 2016 -0400,add script tag example,False,Feature Addition,False,False,,1.0,1.0,1.0,0.0,13.0,2.0,"README.md,CAS_DELIMITER",416.0,3.0,0.0018865740740740742,124.0,565.0,531.0613496932515,224.0,0.0,5.0,0.0,f99bab7e-870c-11e7-ae77-080027bda63f,0.5,0.0
6117345bec1674411ddef50681b6b86b781c934b,Guillermo,1475434374,gui@mit.edu,Sun Oct 2 14:52:54 2016 -0400,"add babelrc, switch to createTesseractWorker",False,Feature Addition,False,False,,3.0,3.0,7.0,2.5503407095463886,15.0,7.0,".babelrc,CAS_DELIMITER,README.md,CAS_DELIMITER,dist/tesseract.js,CAS_DELIMITER,index.html,CAS_DELIMITER,src/browser/index.js,CAS_DELIMITER,webpack.config.dev.js,CAS_DELIMITER,webpack.config.prod.js,CAS_DELIMITER",244.0,3.0,0.0,195.0,561.0,0.0,223.0,0.0,5.0,0.0,f99bab7e-870c-11e7-ae77-080027bda63f,0.5,0.0
1a6c9236bca5d16ead8df758679277deb7485467,Guillermo,1475434374,gui@mit.edu,Sun Oct 2 14:52:54 2016 -0400,"add babelrc, switch to createTesseractWorker",False,Feature Addition,False,False,,3.0,3.0,7.0,2.5503407095463886,15.0,7.0,".babelrc,CAS_DELIMITER,README.md,CAS_DELIMITER,dist/tesseract.js,CAS_DELIMITER,index.html,CAS_DELIMITER,src/browser/index.js,CAS_DELIMITER,webpack.config.dev.js,CAS_DELIMITER,webpack.config.prod.js,CAS_DELIMITER",242.85714285714286,3.0,-0.3107357804232804,193.0,554.0,0.5407094316327506,218.0,0.0,5.0,0.0,f99bab7e-870c-11e7-ae77-080027bda63f,0.5,0.0
01238cb300539a0c8f3785bd1e62f21fbd0fc423,Guillermo,1475433084,gui@mit.edu,Sun Oct 2 14:31:24 2016 -0400,add construction note,False,Feature Addition,False,False,,1.0,1.0,1.0,0.0,2.0,2.0,"README.md,CAS_DELIMITER",416.0,3.0,0.0,122.0,550.0,0.0,213.0,0.0,5.0,0.0,f99bab7e-870c-11e7-ae77-080027bda63f,0.5,0.0
1e9b4748d4c9f83bd802efa2738d0f55b0ec7337,Guillermo,1475433084,gui@mit.edu,Sun Oct 2 14:31:24 2016 -0400,add construction note,False,Feature Addition,False,False,,1.0,1.0,1.0,0.0,2.0,2.0,"README.md,CAS_DELIMITER",416.0,3.0,0.00028935185185185184,121.0,549.0,3457.0,212.0,0.0,5.0,0.0,f99bab7e-870c-11e7-ae77-080027bda63f,0.5,0.0
20fea90b0564cca07063880379a32fc7e1ee052b,Guillermo,1475433059,gui@mit.edu,Sun Oct 2 14:30:59 2016 -0400,add construction note,False,Feature Addition,False,False,,1.0,1.0,1.0,0.0,3.0,0.0,"README.md,CAS_DELIMITER",410.0,3.0,0.002824074074074074,119.0,547.0,355.09836065573774,210.0,0.0,5.0,0.0,f99bab7e-870c-11e7-ae77-080027bda63f,0.5,0.0
28bf468cb413da1fb6f0350ddd58d03ef900bc4a,Guillermo,1475433059,gui@mit.edu,Sun Oct 2 14:30:59 2016 -0400,add construction note,False,Feature Addition,False,False,,1.0,1.0,1.0,0.0,3.0,0.0,"README.md,CAS_DELIMITER",413.0,3.0,0.0,120.0,548.0,0.0,211.0,0.0,5.0,0.0,f99bab7e-870c-11e7-ae77-080027bda63f,0.5,0.0
35f450efca60537f4202595c37be07ce0ac5bd91,Guillermo,1475432815,gui@mit.edu,Sun Oct 2 14:26:55 2016 -0400,rewrite,False,None,False,False,,4.0,6.0,23.0,3.5599425185063343,742.0,949.0,"README.md,CAS_DELIMITER,bify,CAS_DELIMITER,devServer.js,CAS_DELIMITER,dist/tesseract.js,CAS_DELIMITER,example.htm,CAS_DELIMITER,index.html,CAS_DELIMITER,lib/Tesseract.2015.07.26.js,CAS_DELIMITER,lib/Tesseract_dev.js,CAS_DELIMITER,package.json,CAS_DELIMITER,src/Tesseract.js,CAS_DELIMITER,src/browser/index.js,CAS_DELIMITER,src/worker.js,CAS_DELIMITER,src/worker/circularize.js,CAS_DELIMITER,src/worker/db.js,CAS_DELIMITER,src/worker/desaturate.js,CAS_DELIMITER,src/worker/detect.js,CAS_DELIMITER,src/worker/dump.js,CAS_DELIMITER,src/worker/fileSizes.js,CAS_DELIMITER,src/worker/index.js,CAS_DELIMITER,src/worker/loadLanguage.js,CAS_DELIMITER,src/worker/recognize.js,CAS_DELIMITER,webpack.config.dev.js,CAS_DELIMITER,webpack.config.prod.js,CAS_DELIMITER",157.65217391304347,3.0,0.0,300.0,535.0,0.0,209.0,10.0,5.0,0.0,f99bab7e-870c-11e7-ae77-080027bda63f,0.44565217391304346,0.0
b13043343779d315fc1a823be24b97e7278cb818,Guillermo,1475432815,gui@mit.edu,Sun Oct 2 14:26:55 2016 -0400,rewrite,False,None,False,False,,4.0,6.0,24.0,0.9631598637470766,742.0,13230.0,"README.md,CAS_DELIMITER,bify,CAS_DELIMITER,devServer.js,CAS_DELIMITER,dist/tesseract.js,CAS_DELIMITER,example.htm,CAS_DELIMITER,index.html,CAS_DELIMITER,lib/Tesseract.2015.07.26.js,CAS_DELIMITER,lib/Tesseract_dev.js,CAS_DELIMITER,lib/worker.2015.07.26.js,CAS_DELIMITER,package.json,CAS_DELIMITER,src/Tesseract.js,CAS_DELIMITER,src/browser/index.js,CAS_DELIMITER,src/worker.js,CAS_DELIMITER,src/worker/circularize.js,CAS_DELIMITER,src/worker/db.js,CAS_DELIMITER,src/worker/desaturate.js,CAS_DELIMITER,src/worker/detect.js,CAS_DELIMITER,src/worker/dump.js,CAS_DELIMITER,src/worker/fileSizes.js,CAS_DELIMITER,src/worker/index.js,CAS_DELIMITER,src/worker/loadLanguage.js,CAS_DELIMITER,src/worker/recognize.js,CAS_DELIMITER,webpack.config.dev.js,CAS_DELIMITER,webpack.config.prod.js,CAS_DELIMITER",671.4166666666666,3.0,19.327326871141974,301.0,511.5,1.002155842188859,201.0,10.0,5.0,0.0,f99bab7e-870c-11e7-ae77-080027bda63f,0.4479166666666667,0.0
b26adef7c60ff2b82d978b1ab501e94c484e8439,Guillermo,1438148406,gui@mit.edu,Tue Jul 28 22:40:06 2015 -0700,moar geen,False,None,False,False,,1.0,1.0,5.0,1.125287987532507,12541.0,12411.0,"lib/Tesseract.2015.07.25.v0.js,CAS_DELIMITER,lib/Tesseract.2015.07.26.js,CAS_DELIMITER,lib/Tesseract_dev.js,CAS_DELIMITER,lib/worker.2015.07.25.v0.js,CAS_DELIMITER,lib/worker.2015.07.26.js,CAS_DELIMITER",2508.2,3.0,0.6542337962962963,16.0,494.0,1.3057011134738474,155.0,0.0,5.0,0.0,f99bab7e-870c-11e7-ae77-080027bda63f,0.5,0.0
1fabf6010532f7a414701e1a31ca09b805c514db,Guillermo,1438148406,gui@mit.edu,Tue Jul 28 22:40:06 2015 -0700,moar geen,False,None,False,False,,1.0,1.0,3.0,1.584962500721156,260.0,130.0,"lib/Tesseract.2015.07.25.v0.js,CAS_DELIMITER,lib/Tesseract.2015.07.26.js,CAS_DELIMITER,lib/Tesseract_dev.js,CAS_DELIMITER",130.0,3.0,0.0,13.0,498.0,0.0,158.0,0.0,5.0,0.0,f99bab7e-870c-11e7-ae77-080027bda63f,0.5,0.0
6f219d7ed72f367ddf25f19352e5891709f0b585,Guillermo,1437865777,gui@mit.edu,Sat Jul 25 16:09:37 2015 -0700,for geen site,False,None,False,False,,1.0,1.0,3.0,0.16626301515386724,12411.0,130.0,"lib/Tesseract.2015.07.15.v5.js,CAS_DELIMITER,lib/Tesseract.2015.07.25.v0.js,CAS_DELIMITER,lib/worker.2015.07.25.v0.js,CAS_DELIMITER",86.66666666666667,3.0,3.3470138888888887,10.0,488.0,1.099591260866859,148.0,0.0,5.0,0.0,f99bab7e-870c-11e7-ae77-080027bda63f,0.5,0.0
52e64abcd9cd55e85aea29717920c5d611313612,Guillermo,1437865777,gui@mit.edu,Sat Jul 25 16:09:37 2015 -0700,for geen site,False,None,False,False,,1.0,1.0,2.0,1.0,130.0,130.0,"lib/Tesseract.2015.07.15.v5.js,CAS_DELIMITER,lib/Tesseract.2015.07.25.v0.js,CAS_DELIMITER",130.0,3.0,0.0,9.0,490.5,0.0,150.0,0.0,5.0,0.0,f99bab7e-870c-11e7-ae77-080027bda63f,0.5,0.0
167746a418a0ef74e8c497dbcbab2d01e7632ab4,Guillermo,1436998231,gui@mit.edu,Wed Jul 15 15:10:31 2015 -0700,oops,False,None,False,False,,1.0,1.0,2.0,1.0,130.0,130.0,"lib/Tesseract.2015.07.15.v4.js,CAS_DELIMITER,lib/Tesseract.2015.07.15.v5.js,CAS_DELIMITER",130.0,3.0,0.0,9.0,485.5,0.0,145.0,0.0,5.0,0.0,f99bab7e-870c-11e7-ae77-080027bda63f,0.5,0.0
6c539e5d60cb3a583ce778076b1fd6d2a2f386e9,Guillermo,1436998231,gui@mit.edu,Wed Jul 15 15:10:31 2015 -0700,oops,False,None,False,False,,1.0,1.0,2.0,1.0,130.0,130.0,"lib/Tesseract.2015.07.15.v4.js,CAS_DELIMITER,lib/Tesseract.2015.07.15.v5.js,CAS_DELIMITER",130.0,3.0,0.0005439814814814814,8.0,483.5,920.1489361702128,143.0,0.0,5.0,0.0,f99bab7e-870c-11e7-ae77-080027bda63f,0.5,0.0
46483675695a8f2bc78ce1f6e1958555240800ca,Guillermo,1436998137,gui@mit.edu,Wed Jul 15 15:08:57 2015 -0700,fixed Tesseract.js to include __worker__,True,Corrective,True,False,,2.0,2.0,3.0,1.0570274618908924,131.0,131.0,"lib/Tesseract.2015.07.15.v.3.js,CAS_DELIMITER,lib/Tesseract.2015.07.15.v4.js,CAS_DELIMITER,src/Tesseract.js,CAS_DELIMITER",173.33333333333334,3.0,0.0,15.0,481.0,0.0,52.0,2.0,5.0,0.0,f99bab7e-870c-11e7-ae77-080027bda63f,1.0,0.0
9b38d4f91b6ac18ac8984c0a1751f4049915e8fb,Guillermo,1436998137,gui@mit.edu,Wed Jul 15 15:08:57 2015 -0700,fixed Tesseract.js to include __worker__,True,Corrective,True,False,,2.0,2.0,4.0,0.08459857088122984,131.0,28574.0,"lib/Tesseract.2015.07.15.v.3.js,CAS_DELIMITER,lib/Tesseract.2015.07.15.v4.js,CAS_DELIMITER,lib/worker.2015.07.15.v.3.js,CAS_DELIMITER,src/Tesseract.js,CAS_DELIMITER",7240.75,3.0,0.001148726851851852,16.0,477.5,218.632241813602,51.0,2.0,5.0,0.0,f99bab7e-870c-11e7-ae77-080027bda63f,0.5,0.0
e9423bb032115e0011f4e1e7d84cb9fa15583f5a,Guillermo,1436997740,gui@mit.edu,Wed Jul 15 15:02:20 2015 -0700,v3,False,None,False,False,,1.0,1.0,11.0,1.1860288884713344,28573.0,29483.0,"lib/Tesseract..js,CAS_DELIMITER,lib/Tesseract.2015.07.14.js,CAS_DELIMITER,lib/Tesseract.2015.07.14.v..js,CAS_DELIMITER,lib/Tesseract.2015.07.14.v.0.js,CAS_DELIMITER,lib/Tesseract.2015.07.14.v.1.js,CAS_DELIMITER,lib/Tesseract.2015.07.14.v.asdf.js,CAS_DELIMITER,lib/Tesseract.2015.07.15.v.0.js,CAS_DELIMITER,lib/Tesseract.2015.07.15.v.3.js,CAS_DELIMITER,lib/Tesseract.js,CAS_DELIMITER,lib/worker.2015.07.15.v.0.js,CAS_DELIMITER,lib/worker.2015.07.15.v.3.js,CAS_DELIMITER",2774.818181818182,3.0,0.0016340488215488213,71.0,461.0,56.634256278171286,127.0,18.0,5.0,0.0,f99bab7e-870c-11e7-ae77-080027bda63f,0.09090909090909091,0.0
4738187d5b483256d806b8a0580c5a895f8d1b36,Guillermo,1436997740,gui@mit.edu,Wed Jul 15 15:02:20 2015 -0700,v3,False,None,False,False,,1.0,1.0,9.0,3.169925001442312,130.0,1040.0,"lib/Tesseract..js,CAS_DELIMITER,lib/Tesseract.2015.07.14.js,CAS_DELIMITER,lib/Tesseract.2015.07.14.v..js,CAS_DELIMITER,lib/Tesseract.2015.07.14.v.0.js,CAS_DELIMITER,lib/Tesseract.2015.07.14.v.1.js,CAS_DELIMITER,lib/Tesseract.2015.07.14.v.asdf.js,CAS_DELIMITER,lib/Tesseract.2015.07.15.v.0.js,CAS_DELIMITER,lib/Tesseract.2015.07.15.v.3.js,CAS_DELIMITER,lib/Tesseract.js,CAS_DELIMITER",130.0,3.0,0.0,68.0,471.0,0.0,136.0,17.0,5.0,0.0,f99bab7e-870c-11e7-ae77-080027bda63f,0.05555555555555555,0.0
d7c713386db81a35665f16845d9ce64a0eeeb6bd,Guillermo,1436996187,gui@mit.edu,Wed Jul 15 14:36:27 2015 -0700,production ready?,False,None,False,True,"[""46483675695a8f2bc78ce1f6e1958555240800ca""]",4.0,4.0,13.0,3.02022623642931,1577.0,538.0,"bify,CAS_DELIMITER,compile,CAS_DELIMITER,lib/Tesseract..js,CAS_DELIMITER,lib/Tesseract.2015.07.14.js,CAS_DELIMITER,lib/Tesseract.2015.07.14.v..js,CAS_DELIMITER,lib/Tesseract.2015.07.14.v.0.js,CAS_DELIMITER,lib/Tesseract.2015.07.14.v.1.js,CAS_DELIMITER,lib/Tesseract.2015.07.14.v.asdf.js,CAS_DELIMITER,lib/Tesseract.2015.07.15.v.0.js,CAS_DELIMITER,lib/Tesseract.js,CAS_DELIMITER,src/Tesseract.js,CAS_DELIMITER,src/worker.js,CAS_DELIMITER,worker_src/worker.js,CAS_DELIMITER",182.23076923076923,3.0,0.0,111.0,449.0,0.0,55.0,17.0,4.0,0.0,f99bab7e-870c-11e7-ae77-080027bda63f,0.07692307692307693,0.0
27150fa4cd125e0abbefe0b85bc4f21379e8e0d7,Guillermo,1436996187,gui@mit.edu,Wed Jul 15 14:36:27 2015 -0700,production ready?,False,None,False,True,"[""9b38d4f91b6ac18ac8984c0a1751f4049915e8fb""]",5.0,5.0,16.0,1.3590862506580075,30020.0,30147.0,"bify,CAS_DELIMITER,compile,CAS_DELIMITER,lib/Tesseract..js,CAS_DELIMITER,lib/Tesseract.2015.07.14.js,CAS_DELIMITER,lib/Tesseract.2015.07.14.v..js,CAS_DELIMITER,lib/Tesseract.2015.07.14.v.0.js,CAS_DELIMITER,lib/Tesseract.2015.07.14.v.1.js,CAS_DELIMITER,lib/Tesseract.2015.07.14.v.asdf.js,CAS_DELIMITER,lib/Tesseract.2015.07.15.v.0.js,CAS_DELIMITER,lib/Tesseract.js,CAS_DELIMITER,lib/worker.2015.07.15.v.0.js,CAS_DELIMITER,src/Tesseract.js,CAS_DELIMITER,src/worker.js,CAS_DELIMITER,worker/worker.js,CAS_DELIMITER,worker_src/madeline.js,CAS_DELIMITER,worker_src/worker.js,CAS_DELIMITER",1933.6875,3.0,-27.07428023726852,125.0,434.5,0.9976953240513281,54.0,5.0,3.0,0.0,f99bab7e-870c-11e7-ae77-080027bda63f,0.1875,0.0
52e67dce57c1666a40c499cb51d5b10a9bd30298,Guillermo,1436928786,gui@mit.edu,Tue Jul 14 19:53:06 2015 -0700,relative url prob,False,None,False,False,,1.0,1.0,1.0,0.0,1.0,1.0,"lib/Tesseract.js,CAS_DELIMITER",258.0,3.0,0.0,34.0,426.0,0.0,99.0,1.0,3.0,0.0,f99bab7e-870c-11e7-ae77-080027bda63f,0.0,0.0
1cba6a36be204a53d54858a140839db584b92931,Guillermo,1436928786,gui@mit.edu,Tue Jul 14 19:53:06 2015 -0700,relative url prob,False,None,False,False,,1.0,1.0,1.0,0.0,1.0,1.0,"lib/Tesseract.js,CAS_DELIMITER",258.0,3.0,0.009363425925925926,33.0,425.0,107.79851668726823,98.0,1.0,3.0,0.0,f99bab7e-870c-11e7-ae77-080027bda63f,0.0,0.0
85304c54fb4565f7aab14625ab9909b5769756fe,Guillermo,1436928077,gui@mit.edu,Tue Jul 14 19:41:17 2015 -0700,wow,False,Merge,False,False,,0.0,0.0,0.0,0.0,0.0,0.0,NULL,0.0,0.0,0.0,0.0,0.0,0.0,0.0,0.0,0.0,0.0,f99bab7e-870c-11e7-ae77-080027bda63f,0,0
f7f13245ba78ee06569b5b76fff272907be5d091,Guillermo,1436928077,gui@mit.edu,Tue Jul 14 19:41:17 2015 -0700,wow,False,Merge,False,False,,0.0,0.0,0.0,0.0,0.0,0.0,NULL,0.0,0.0,0.0,0.0,0.0,0.0,0.0,0.0,0.0,0.0,f99bab7e-870c-11e7-ae77-080027bda63f,0,0
422e71dc4bb2106af2c11428578f3207c945caef,Guillermo,1436927977,gui@mit.edu,Tue Jul 14 19:39:37 2015 -0700,integrated tesseract-core,False,None,False,False,,3.0,3.0,3.0,1.5566567074628228,4.0,3.0,"lib/Tesseract.js,CAS_DELIMITER,package.json,CAS_DELIMITER,worker_src/worker.js,CAS_DELIMITER",482.0,3.0,0.0,93.0,423.0,0.0,52.0,6.0,3.0,0.0,f99bab7e-870c-11e7-ae77-080027bda63f,0.16666666666666666,0.0
d85281eb3fd9a6cb88ff8a70915af2dbf7038402,Guillermo,1436927977,gui@mit.edu,Tue Jul 14 19:39:37 2015 -0700,integrated tesseract-core,False,None,False,False,,4.0,4.0,4.0,0.0036877231112675763,28447.0,3.0,"lib/Tesseract.js,CAS_DELIMITER,package.json,CAS_DELIMITER,worker/worker.js,CAS_DELIMITER,worker_src/worker.js,CAS_DELIMITER",507.0,3.0,0.004655671296296297,102.0,419.5,54.69794903666873,51.0,7.0,3.0,0.0,f99bab7e-870c-11e7-ae77-080027bda63f,0.25,0.0
71fbe3d8eaa3a55396b91527c10d7626e0f3682f,Guillermo,1436926368,gui@mit.edu,Tue Jul 14 19:12:48 2015 -0700,started working oden,False,None,False,False,,2.0,2.0,2.0,0.905200296956048,41.0,12.0,"lib/Tesseract.js,CAS_DELIMITER,worker_src/worker.js,CAS_DELIMITER",647.5,3.0,0.0,56.0,416.5,0.0,50.0,4.0,3.0,0.0,f99bab7e-870c-11e7-ae77-080027bda63f,0.25,0.0
61f98fb036ddc1500f320b914e212e9934fab87e,Guillermo,1436926368,gui@mit.edu,Tue Jul 14 19:12:48 2015 -0700,started working oden,False,None,False,False,,3.0,3.0,3.0,0.045754792160794776,41.0,11700.0,"lib/Tesseract.js,CAS_DELIMITER,worker/worker.js,CAS_DELIMITER,worker_src/worker.js,CAS_DELIMITER",4512.333333333333,3.0,2.6791165123456793,65.0,414.0,1.1244191254084304,49.0,5.0,3.0,0.0,f99bab7e-870c-11e7-ae77-080027bda63f,0.3333333333333333,0.0
7b239c67d0c585c33ea8b768fb5f2772b9600efd,Guillermo,1436231941,gui@mit.edu,Mon Jul 6 18:19:01 2015 -0700,uh,False,None,False,False,,2.0,2.0,2.0,0.34781691357106326,30.0,16.0,"lib/Tesseract.js,CAS_DELIMITER,worker_src/worker.js,CAS_DELIMITER",626.0,3.0,0.0,54.0,411.5,0.0,48.0,4.0,3.0,0.0,f99bab7e-870c-11e7-ae77-080027bda63f,0.25,0.0
1df4b5a7526faa68e6442419d0091d50afcbc035,Guillermo,1436231941,gui@mit.edu,Mon Jul 6 18:19:01 2015 -0700,uh,False,None,False,False,,3.0,3.0,3.0,1.1789507747130954,58.0,31.0,"lib/Tesseract.js,CAS_DELIMITER,worker/worker.js,CAS_DELIMITER,worker_src/worker.js,CAS_DELIMITER",4498.666666666667,3.0,0.2595447530864197,63.0,409.0,2.2843000267562505,47.0,5.0,3.0,0.0,f99bab7e-870c-11e7-ae77-080027bda63f,0.3333333333333333,0.0
38ce3353ef47a19d8ceaf50d5051508843e6afbe,Kevin Kwok,1436230317,antimatter15@gmail.com,Mon Jul 6 17:51:57 2015 -0700,new package json,False,Feature Addition,False,False,,1.0,1.0,1.0,0.0,1.0,4.0,"package.json,CAS_DELIMITER",124.0,3.0,0.0,34.0,166.0,0.0,45.0,2.0,0.0,0.0,f99bab7e-870c-11e7-ae77-080027bda63f,0.0,0.0
20e791697519cf05efda4096dfc26f6a859719c9,Kevin Kwok,1436230317,antimatter15@gmail.com,Mon Jul 6 17:51:57 2015 -0700,new package json,False,Feature Addition,False,False,,1.0,1.0,1.0,0.0,1.0,4.0,"package.json,CAS_DELIMITER",127.0,3.0,9.829282407407407,33.0,165.0,1.1017368266117162,44.0,2.0,0.0,0.0,f99bab7e-870c-11e7-ae77-080027bda63f,0.0,0.0
c2df75e589e5a73c89ff234331048019e5fc2b6b,Guillermo,1436169268,gui@mit.edu,Mon Jul 6 00:54:28 2015 -0700,fixed double zipped lang model error,True,Corrective,True,False,,1.0,1.0,1.0,0.0,5.0,1.0,"worker_src/worker.js,CAS_DELIMITER",996.0,3.0,0.0,25.0,407.0,0.0,46.0,3.0,3.0,0.0,f99bab7e-870c-11e7-ae77-080027bda63f,2.0,0.0
f237763f29f9bef80753783d0075d16b9bf8c676,Guillermo,1436169268,gui@mit.edu,Mon Jul 6 00:54:28 2015 -0700,fixed double zipped lang model error,True,Corrective,True,False,,2.0,2.0,2.0,1.0,10.0,2.0,"worker/worker.js,CAS_DELIMITER,worker_src/worker.js,CAS_DELIMITER",6623.0,3.0,0.026626157407407407,34.0,405.5,19.77852640730276,45.0,4.0,3.0,0.0,f99bab7e-870c-11e7-ae77-080027bda63f,0.75,0.0
3901492461009b913783ff6c51ee9299001bcfe5,Guillermo,1436164667,gui@mit.edu,Sun Jul 5 23:37:47 2015 -0700,"reuse workers, added language detect",False,Feature Addition,False,False,,2.0,2.0,2.0,0.994351097546162,215.0,79.0,"lib/Tesseract.js,CAS_DELIMITER,worker_src/worker.js,CAS_DELIMITER",547.0,3.0,0.0,51.0,403.5,0.0,44.0,4.0,3.0,0.0,f99bab7e-870c-11e7-ae77-080027bda63f,0.0,0.0
c7771ed2ccebeba7682f437eb05199924b7065d6,Guillermo,1436164667,gui@mit.edu,Sun Jul 5 23:37:47 2015 -0700,"reuse workers, added language detect",False,Feature Addition,False,True,"[""f237763f29f9bef80753783d0075d16b9bf8c676""]",3.0,3.0,3.0,0.19082442563309615,11886.0,79.0,"lib/Tesseract.js,CAS_DELIMITER,worker/worker.js,CAS_DELIMITER,worker_src/worker.js,CAS_DELIMITER",513.6666666666666,3.0,0.6801003086419753,59.0,401.0,1.4901237789450994,43.0,2.0,2.0,0.0,f99bab7e-870c-11e7-ae77-080027bda63f,0.0,0.0
7a207402bd32fa10c6f14b12c3ebf373e52b1176,Guillermo,1436030761,gui@mit.edu,Sat Jul 4 10:26:01 2015 -0700,trying to support safari,False,None,False,False,,1.0,1.0,1.0,0.0,8.0,2.0,"worker_src/worker.js,CAS_DELIMITER",794.0,3.0,0.0,24.0,399.0,0.0,42.0,2.0,2.0,0.0,f99bab7e-870c-11e7-ae77-080027bda63f,0.0,0.0
f056c1702bf15b2f22640ca89dccedd772f345a7,Guillermo,1436030761,gui@mit.edu,Sat Jul 4 10:26:01 2015 -0700,trying to support safari,False,None,False,False,,2.0,2.0,2.0,0.010160996996061534,8.0,11407.0,"worker/worker.js,CAS_DELIMITER,worker_src/worker.js,CAS_DELIMITER",6388.0,3.0,0.25299189814814815,32.0,397.5,2.976347873824828,41.0,2.0,2.0,0.0,f99bab7e-870c-11e7-ae77-080027bda63f,0.25,0.0
36bd7636e003e9c4b556aad0a1eb5bfcf2f1f2b1,Guillermo,1435988385,gui@mit.edu,Fri Jul 3 22:39:45 2015 -0700,I like turtles,False,None,False,False,,1.0,1.0,1.0,0.0,1.0,9.0,"lib/Tesseract.js,CAS_DELIMITER",166.0,3.0,0.0,24.0,396.0,0.0,89.0,0.0,2.0,0.0,f99bab7e-870c-11e7-ae77-080027bda63f,0.5,0.0
5fc117bb10a2a7fd0604ad9b478b10a8ae37d862,Guillermo,1435988385,gui@mit.edu,Fri Jul 3 22:39:45 2015 -0700,I like turtles,False,None,False,False,,1.0,1.0,1.0,0.0,1.0,9.0,"lib/Tesseract.js,CAS_DELIMITER",174.0,3.0,0.015520833333333333,23.0,395.0,65.42953020134229,88.0,0.0,2.0,0.0,f99bab7e-870c-11e7-ae77-080027bda63f,0.5,0.0
b6b1b4a2c1f2952f36880071fef515f84a5b25b4,Guillermo,1435987044,gui@mit.edu,Fri Jul 3 22:17:24 2015 -0700,changed to remote webworkers,False,None,False,False,,3.0,3.0,3.0,0.4848450898693564,126.0,59.0,"compile,CAS_DELIMITER,lib/Tesseract.js,CAS_DELIMITER,worker_src/worker.js,CAS_DELIMITER",300.3333333333333,3.0,0.0,52.0,393.0,0.0,40.0,2.0,2.0,0.0,f99bab7e-870c-11e7-ae77-080027bda63f,0.3333333333333333,0.0
601605a0b97f049a78bfaad9958d7543c6892603,Guillermo,1435987044,gui@mit.edu,Fri Jul 3 22:17:24 2015 -0700,changed to remote webworkers,False,None,False,False,,4.0,4.0,5.0,0.3832530522909636,12697.0,59.0,"compile,CAS_DELIMITER,lib/Tesseract.js,CAS_DELIMITER,worker/worker.js,CAS_DELIMITER,worker_src/madeline.js,CAS_DELIMITER,worker_src/worker.js,CAS_DELIMITER",166.8,3.0,-0.8855254629629629,62.0,389.0,0.802192878917378,39.0,2.0,2.0,0.0,f99bab7e-870c-11e7-ae77-080027bda63f,0.4,0.0
6e89a557b48c63fc7eafa1bf8fc2281a52500885,Guillermo,1435381067,gui@mit.edu,Fri Jun 26 21:57:47 2015 -0700,added local language model caching,False,Feature Addition,False,True,"[""c2df75e589e5a73c89ff234331048019e5fc2b6b""]",2.0,2.0,3.0,0.11482605765802201,111.0,113.0,"example.htm,CAS_DELIMITER,package.json,CAS_DELIMITER,worker_src/worker.js,CAS_DELIMITER",285.0,3.0,0.0,70.0,385.0,0.0,37.0,3.0,1.0,0.0,f99bab7e-870c-11e7-ae77-080027bda63f,0.0,0.0
127ade5d91044f5ae420f6e957b23d985158b2df,Guillermo,1435381067,gui@mit.edu,Fri Jun 26 21:57:47 2015 -0700,added local language model caching,False,Feature Addition,False,True,"[""f237763f29f9bef80753783d0075d16b9bf8c676""]",2.0,2.0,3.0,0.11482605765802201,111.0,113.0,"example.htm,CAS_DELIMITER,package.json,CAS_DELIMITER,worker_src/worker.js,CAS_DELIMITER",285.6666666666667,3.0,0.07954861111111111,69.0,382.0,5.190309908336971,36.0,0.0,0.0,0.0,f99bab7e-870c-11e7-ae77-080027bda63f,0.0,0.0
8fe135af7faca75f8aa5e9881cdd4ab25f15b46a,Guillermo,1435360448,gui@mit.edu,Fri Jun 26 16:14:08 2015 -0700,added progress callback,False,Feature Addition,False,False,,3.0,3.0,3.0,1.3525386751796498,55.0,12.0,"example.htm,CAS_DELIMITER,lib/Tesseract.js,CAS_DELIMITER,worker_src/worker.js,CAS_DELIMITER",267.3333333333333,3.0,0.007364969135802469,56.0,376.0,46.259298061812466,34.0,0.0,0.0,0.0,f99bab7e-870c-11e7-ae77-080027bda63f,0.5,0.0
2c059becca5a110abb10663bd8277bcac5d40a93,Guillermo,1435360448,gui@mit.edu,Fri Jun 26 16:14:08 2015 -0700,added progress callback,False,Feature Addition,False,False,,3.0,3.0,3.0,1.3525386751796498,55.0,12.0,"example.htm,CAS_DELIMITER,lib/Tesseract.js,CAS_DELIMITER,worker_src/worker.js,CAS_DELIMITER",281.6666666666667,3.0,0.0,57.0,379.0,0.0,35.0,0.0,0.0,0.0,f99bab7e-870c-11e7-ae77-080027bda63f,0.5,0.0
690dbab1d3acc1ebfcbc05958cc85fded8a190e7,Guillermo,1435358539,gui@mit.edu,Fri Jun 26 15:42:19 2015 -0700,browserified worker.js,False,None,False,False,,3.0,3.0,5.0,1.1579724814094456,87.0,670.0,"Tesseract.js,CAS_DELIMITER,example.htm,CAS_DELIMITER,lib/Tesseract.js,CAS_DELIMITER,worker_src/madeline.js,CAS_DELIMITER,worker_src/worker.js,CAS_DELIMITER",277.0,3.0,0.006641203703703703,64.0,368.0,31.11502265597769,32.0,0.0,0.0,0.0,f99bab7e-870c-11e7-ae77-080027bda63f,0.5,0.0
29d7e56d20958cc1ec86dff7bdd32a782ed5d458,Guillermo,1435358539,gui@mit.edu,Fri Jun 26 15:42:19 2015 -0700,browserified worker.js,False,None,False,False,,3.0,3.0,4.0,1.6541519049501132,87.0,87.0,"Tesseract.js,CAS_DELIMITER,example.htm,CAS_DELIMITER,lib/Tesseract.js,CAS_DELIMITER,worker_src/worker.js,CAS_DELIMITER",200.5,3.0,0.0,61.0,372.5,0.0,33.0,0.0,0.0,0.0,f99bab7e-870c-11e7-ae77-080027bda63f,0.5,0.0
1636e1674e34ced78653fc8aad2ddcd84339312f,Guillermo,1435356969,gui@mit.edu,Fri Jun 26 15:16:09 2015 -0700,browserify prep,False,None,False,False,,2.0,2.0,2.0,0.6911993845004896,324.0,1426.0,"worker.js,CAS_DELIMITER,worker_src/worker.js,CAS_DELIMITER",875.0,3.0,0.0,28.0,364.5,0.0,30.0,0.0,0.0,0.0,f99bab7e-870c-11e7-ae77-080027bda63f,0.5,0.0
2947ac7d228ce91ebc4dcc677e2398996b5b6820,Guillermo,1435356969,gui@mit.edu,Fri Jun 26 15:16:09 2015 -0700,browserify prep,False,None,False,False,,2.0,2.0,4.0,1.7853630507183516,907.0,2008.0,"madeline.js,CAS_DELIMITER,worker.js,CAS_DELIMITER,worker_src/madeline.js,CAS_DELIMITER,worker_src/worker.js,CAS_DELIMITER",858.5,3.0,0.0037586805555555555,34.0,361.5,67.51270207852194,29.0,0.0,0.0,0.0,f99bab7e-870c-11e7-ae77-080027bda63f,0.5,0.0
b990b06c4456deace1eaf3f0839558738677fa09,Guillermo,1435356735,gui@mit.edu,Fri Jun 26 15:12:15 2015 -0700,"ginignore, package.json",False,None,False,False,,1.0,1.0,2.0,0.4021791902022729,25.0,0.0,".gitignore,CAS_DELIMITER,package.json,CAS_DELIMITER",56.0,3.0,0.0,39.0,358.5,0.0,172.0,0.0,0.0,0.0,f99bab7e-870c-11e7-ae77-080027bda63f,0.5,0.0
59305bb4b8283fed07c3de067ead596994c116cb,Guillermo,1435356735,gui@mit.edu,Fri Jun 26 15:12:15 2015 -0700,"ginignore, package.json",False,None,False,False,,1.0,1.0,2.0,0.4021791902022729,25.0,0.0,".gitignore,CAS_DELIMITER,package.json,CAS_DELIMITER",43.5,3.0,-237.63792824074073,38.0,356.5,0.9978959587650778,170.0,0.0,0.0,0.0,f99bab7e-870c-11e7-ae77-080027bda63f,0.5,0.0
4b3b4c3f21f782b0c065cf8164816eb246d1e536,Guillermo,1435355670,gui@mit.edu,Fri Jun 26 14:54:30 2015 -0700,init,False,None,False,False,,1.0,1.0,4.0,0.3383763570055954,1504.0,0.0,"README.md,CAS_DELIMITER,Tesseract.js,CAS_DELIMITER,example.htm,CAS_DELIMITER,worker.js,CAS_DELIMITER",469.5,3.0,0.0,134.0,353.5,0.0,168.0,0.0,0.0,0.0,f99bab7e-870c-11e7-ae77-080027bda63f,0.5,0.0
906ce3cadbffaf5f7317a4418f282c4b78bf8385,Guillermo,1435355670,gui@mit.edu,Fri Jun 26 14:54:30 2015 -0700,init,False,None,False,False,,1.0,1.0,5.0,1.098056979643748,2086.0,0.0,"README.md,CAS_DELIMITER,Tesseract.js,CAS_DELIMITER,example.htm,CAS_DELIMITER,madeline.js,CAS_DELIMITER,worker.js,CAS_DELIMITER",74.8,3.0,-98.46701851851853,135.0,349.0,0.9979688630466415,164.0,0.0,0.0,0.0,f99bab7e-870c-11e7-ae77-080027bda63f,0.5,0.0
