tensorflow
Total # of files,The # of 0 defect files,The # of 0 fix files,The #of 0 bad fix files,Average defect,Average fix,Fix/Defect,Average Bad fix,Average defect in non 0,Average fix in non 0,Average Bad fix in non 0,Average DRE,Average BFR
docker
Total # of files,The # of 0 defect files,The # of 0 fix files,The #of 0 bad fix files,Average defect,Average fix,Fix/Defect,Average Bad fix,Average defect in non 0,Average fix in non 0,Average Bad fix in non 0,Average DRE,Average BFR
cygwin
Total # of files,The # of 0 defect files,The # of 0 fix files,The #of 0 bad fix files,Average defect,Average fix,Fix/Defect,Average Bad fix,Average defect in non 0,Average fix in non 0,Average Bad fix in non 0,Average DRE,Average BFR
cmake
Total # of files,The # of 0 defect files,The # of 0 fix files,The #of 0 bad fix files,Average defect,Average fix,Fix/Defect,Average Bad fix,Average defect in non 0,Average fix in non 0,Average Bad fix in non 0,Average DRE,Average BFR
socketio
Total # of files,The # of 0 defect files,The # of 0 fix files,The #of 0 bad fix files,Average defect,Average fix,Fix/Defect,Average Bad fix,Average defect in non 0,Average fix in non 0,Average Bad fix in non 0,Average DRE,Average BFR
django
Total # of files,The # of 0 defect files,The # of 0 fix files,The #of 0 bad fix files,Average defect,Average fix,Fix/Defect,Average Bad fix,Average defect in non 0,Average fix in non 0,Average Bad fix in non 0,Average DRE,Average BFR
scikit
Total # of files,The # of 0 defect files,The # of 0 fix files,The #of 0 bad fix files,Average defect,Average fix,Fix/Defect,Average Bad fix,Average defect in non 0,Average fix in non 0,Average Bad fix in non 0,Average DRE,Average BFR
react
Total # of files,The # of 0 defect files,The # of 0 fix files,The #of 0 bad fix files,Average defect,Average fix,Fix/Defect,Average Bad fix,Average defect in non 0,Average fix in non 0,Average Bad fix in non 0,Average DRE,Average BFR
postgre
Total # of files,The # of 0 defect files,The # of 0 fix files,The #of 0 bad fix files,Average defect,Average fix,Fix/Defect,Average Bad fix,Average defect in non 0,Average fix in non 0,Average Bad fix in non 0,Average DRE,Average BFR
hadoop
Total # of files,The # of 0 defect files,The # of 0 fix files,The #of 0 bad fix files,Average defect,Average fix,Fix/Defect,Average Bad fix,Average defect in non 0,Average fix in non 0,Average Bad fix in non 0,Average DRE,Average BFR
