Train Length,Test Length,Test Clean Cnt,Test Buggy Cnt,TP,TN,FP,FN,Accuracy,Precision,Recall,F1,AUC
18720,2466,1387,1079,665,1058,342,402,69.84191325496555,66.0377358490566,62.32427366447985,64.12729026036642,74.25843486410497
18720,2466,1387,1079,747,924,488,308,67.73408998783948,60.48582995951417,70.80568720379146,65.24017467248908,72.798222413168105
18720,2466,1387,1079,668,1055,389,355,69.84191325496555,63.19772942289499,65.29814271749756,64.23076923076923,76.065317638903565
18720,2466,1387,1079,685,1031,396,354,69.58637469586375,63.3672525439408,65.92877767083735,64.62264150943398,73.423451070479743
18720,2466,1387,1079,713,953,435,365,67.558799675588,62.10801393728222,66.14100185528757,64.06109613656783,72.31932332796886
18720,2466,1387,1079,621,1064,427,354,68.32927818329279,59.25572519083969,63.69230769230769,61.39396935244686,73.426473370135341
18720,2466,1387,1079,674,1005,439,348,68.08596918085969,60.5570530098832,65.94911937377691,63.13817330210773,74.604070558515971
18720,2466,1387,1079,706,936,491,333,66.58556366585564,58.980785296574766,67.94995187680462,63.14847942754919,72.378769678407565
18720,2466,1387,1079,682,1025,379,380,69.2214111922141,64.2789820923657,64.21845574387947,64.24870466321244,74.471311453420668
18720,2466,1387,1079,733,953,434,346,68.3698296836983,62.81062553556127,67.93327154772938,65.27159394479074,73.127070981502413
18832,2466,1443,1023,723,870,527,347,64.57235508715038,57.84,67.57009345794393,62.32758620689655,68.972698506144667
18832,2466,1443,1023,673,1099,375,320,71.82813133360357,64.2175572519084,67.77442094662638,65.94806467417934,77.946029260454125
18832,2466,1443,1023,689,1008,407,363,68.78800162140251,62.86496350364964,65.49429657794677,64.15270018621975,74.250829649733305
18832,2466,1443,1023,709,1077,351,329,72.4249797242498,66.88679245283019,68.30443159922929,67.58817921830315,77.45435361042297
18832,2466,1443,1023,717,1014,389,346,70.19464720194647,64.82820976491863,67.45061147695203,66.11341632088521,76.180795218417202
18832,2466,1443,1023,697,1044,381,344,70.60016220600163,64.65677179962894,66.95485110470702,65.78574799433696,75.018824679373751
18832,2466,1443,1023,641,1032,410,383,67.84266017842661,60.9895337773549,62.59765625,61.78313253012049,74.067931367024968
18832,2466,1443,1023,739,995,394,338,70.31630170316302,65.22506619593999,68.61652739090064,66.87782805429863,77.086846979818219
18832,2466,1443,1023,668,1050,358,390,69.66747769667478,65.10721247563353,63.13799621928167,64.10748560460654,74.367172731568985
18832,2466,1443,1023,646,1065,378,377,69.38361719383617,63.0859375,63.147605083088955,63.11675622862726,73.399273399273397
18754,2466,1404,1062,701,945,453,368,66.7207134171058,60.74523396880416,65.5753040224509,63.06792622582096,73.95015731413713
18754,2466,1404,1062,631,1047,445,344,68.01783542764491,58.64312267657993,64.71794871794872,61.53096050706973,73.263387640063243
18754,2466,1404,1062,689,1017,373,388,69.15281718686664,64.87758945386064,63.97400185701021,64.42262739597943,74.196308691208586
18754,2466,1404,1062,690,884,519,373,63.82806163828062,57.07196029776674,64.91063029162747,60.739436619718305,67.992421829583023
18754,2466,1404,1062,679,997,416,374,67.96431467964314,62.009132420091326,64.48243114909782,63.22160148975792,75.07905495638451
18754,2466,1404,1062,662,909,504,391,63.70640713706407,56.77530017152659,62.86799620132953,59.66651644885083,69.71938094844441
18754,2466,1404,1062,639,1121,348,358,71.37064071370641,64.74164133738601,64.09227683049149,64.41532258064517,76.019549458450228
18754,2466,1404,1062,667,1065,378,356,70.23519870235198,63.827751196172244,65.20039100684262,64.50676982591877,76.00063406515018
18754,2466,1404,1062,692,965,434,375,67.19383617193836,61.45648312611013,64.85473289597002,63.109895120839035,73.712445561262456
18754,2466,1404,1062,718,1017,387,344,70.35685320356853,64.97737556561086,67.60828625235405,66.26672819566221,75.898026086350015
18870,2466,1462,1004,692,788,620,367,59.99189298743413,52.743902439024396,65.34466477809254,58.371994938844374,64.427807644433017
18870,2466,1462,1004,695,1054,371,347,70.89582488852858,65.19699812382738,66.69865642994242,65.9392789373814,76.083611139172305
18870,2466,1462,1004,682,1005,419,361,68.38265099310904,61.94368755676658,65.38830297219559,63.61940298507463,73.170083865685626
18870,2466,1462,1004,749,927,466,324,67.96431467964314,61.64609053497942,69.80428704566636,65.47202797202797,71.981060943112581
18870,2466,1462,1004,680,944,464,378,65.85563665855638,59.44055944055944,64.27221172022685,61.76203451407811,69.206143130262944
18870,2466,1462,1004,696,1069,371,330,71.57339821573399,65.22961574507966,67.83625730994152,66.5074056378404,75.196217782109585
18870,2466,1462,1004,683,1081,369,333,71.53284671532847,64.92395437262357,67.2244094488189,66.0541586073501,76.598560955742599
18870,2466,1462,1004,676,1088,351,351,71.53284671532847,65.82278481012658,65.82278481012658,65.82278481012658,77.134092497697665
18870,2466,1462,1004,721,953,422,370,67.88321167883211,63.07961504811899,66.08615948670943,64.54789615040286,73.475010415798678
18870,2466,1462,1004,677,1078,384,327,71.16788321167883,63.80772855796418,67.43027888446214,65.56900726392251,76.370986641668622
18724,2466,1389,1077,622,871,576,398,60.518848804215644,51.919866444073456,60.98039215686275,56.08656447249774,65.746202420152571
18724,2466,1389,1077,650,1079,366,372,70.08512363194163,63.976377952755904,63.600782778864975,63.788027477919535,75.974647715653546
18724,2466,1389,1077,713,1040,380,334,71.05796513984598,65.23330283623055,68.09933142311367,66.6355140186916,75.951006901004874
18724,2466,1389,1077,684,1048,347,387,70.23519870235198,66.34335596508244,63.86554621848739,65.08087535680305,75.009855794169525
18724,2466,1389,1077,695,1048,368,355,70.68126520681265,65.38099717779869,66.19047619047619,65.78324656885944,75.232983588915786
18724,2466,1389,1077,660,1011,442,353,67.76155717761557,59.89110707803993,65.15301085883515,62.411347517730505,73.861480043671762
18724,2466,1389,1077,689,930,481,366,65.65287915652878,58.88888888888889,65.30805687203791,61.93258426966292,70.529824903181165
18724,2466,1389,1077,697,964,435,370,67.35604217356043,61.572438162544174,65.32333645735707,63.39245111414279,72.670062228141276
18724,2466,1389,1077,704,1018,431,313,69.82968369829685,62.02643171806167,69.22320550639135,65.4275092936803,76.241099378203401
18724,2466,1389,1077,757,923,466,320,68.1265206812652,61.89697465249387,70.28783658310121,65.82608695652175,74.123284621909917

