Train Length,Test Length,Test Clean Cnt,Test Buggy Cnt,TP,TN,FP,FN,Accuracy,Precision,Recall,F1,AUC
6068,3654,3314,340,307,2249,1044,55,69.93160054719563,22.723908216136195,84.80662983425414,35.843549328663165,84.986905087469978
6068,3654,3314,340,255,2250,1081,68,68.55500821018062,19.08682634730539,78.94736842105263,30.74141048824593,81.457143839697082
6068,3654,3314,340,299,2278,1017,60,70.52545155993431,22.720364741641337,83.28690807799443,35.701492537313435,82.435783093316886
6068,3654,3314,340,289,2309,987,69,71.10016420361248,22.648902821316614,80.72625698324022,35.37331701346389,83.35395536150132
6068,3654,3314,340,276,2369,967,42,72.3864258347017,22.204344328238136,86.79245283018868,35.36194746957079,83.875352548150161
6068,3654,3314,340,262,2205,1115,72,67.51505199781062,19.026870007262165,78.44311377245509,30.625365283459967,80.646147464107941
6068,3654,3314,340,273,2183,1136,62,67.21401204159825,19.37544357700497,81.49253731343283,31.307339449541285,80.431257391859617
6068,3654,3314,340,275,2385,939,55,72.79693486590038,22.652388797364086,83.33333333333334,35.62176165803109,83.564434963351943
6068,3654,3314,340,275,2303,1036,40,70.5528188286809,20.97635392829901,87.3015873015873,33.82533825338253,85.460811857936747
6068,3654,3314,340,278,2186,1128,62,67.43295019157088,19.7724039829303,81.76470588235294,31.84421534936999,78.68707621853811
6016,3654,3288,366,278,2269,1060,48,69.68536251709986,20.777279521674142,85.2760736196319,33.41346153846154,84.101417732622963
6016,3654,3288,366,292,2311,991,60,71.23700054734537,22.759158222915044,82.95454545454545,35.718654434250766,82.834783326909317
6016,3654,3288,366,287,2295,1036,36,70.6622879036672,21.693121693121693,88.85448916408669,34.87241798298906,86.925058066962663
6016,3654,3288,366,296,2203,1114,41,68.39080459770115,20.99290780141844,87.83382789317507,33.88666285060103,83.509105596652077
6016,3654,3288,366,263,2336,999,56,71.12753147235907,20.839936608557842,82.44514106583071,33.27008222643896,84.441822975659491
6016,3654,3288,366,281,2218,1101,54,68.39080459770115,20.332850940665704,83.88059701492537,32.731508444962145,83.193822991100532
6016,3654,3288,366,273,2389,930,62,72.85166940339354,22.693266832917704,81.49253731343283,35.50065019505852,84.091144158688323
6016,3654,3288,366,267,2391,937,59,72.74220032840722,22.17607973421927,81.90184049079755,34.90196078431373,85.227038107597934
6016,3654,3288,366,285,2358,941,70,72.33169129720854,23.246329526916803,80.28169014084507,36.05313092979127,82.237126914259122
6016,3654,3288,366,288,2370,918,78,72.74220032840722,23.88059701492537,78.68852459016394,36.6412213740458,83.622844455080923
6076,3654,3318,336,262,2307,1012,74,70.28727770177838,20.565149136577705,77.97619047619048,32.546583850931675,80.644360033859869
6076,3654,3318,336,260,2383,938,73,72.33169129720854,21.702838063439064,78.07807807807808,33.96472893533638,82.819676044608286
6076,3654,3318,336,278,2310,1020,46,70.82649151614669,21.417565485362093,85.80246913580247,34.27866831072749,85.659733807881949
6076,3654,3318,336,268,2372,953,61,72.2495894909688,21.94922194922195,81.45896656534954,34.58064516129032,84.171035491464224
6076,3654,3318,336,311,2303,976,64,71.53804050355774,24.164724164724163,82.93333333333334,37.42478941034898,84.92019924773814
6076,3654,3318,336,266,2341,976,71,71.34646962233168,21.4170692431562,78.93175074183976,33.69221025965801,83.655997473674432
6076,3654,3318,336,258,2261,1062,73,68.93814997263273,19.545454545454547,77.94561933534743,31.25378558449425,78.880966040041343
6076,3654,3318,336,305,2212,1082,55,68.88341543513957,21.98990627253064,84.72222222222221,34.91700057240985,84.985664170545775
6076,3654,3318,336,265,2301,1040,48,70.22441160372195,20.306513409961685,84.66453674121406,32.756489493201485,84.554852911785318
6076,3654,3318,336,284,2302,1016,52,70.77175697865353,21.846153846153847,84.52380952380952,34.71882640586797,84.009658715807007
6042,3654,3301,353,268,2305,1036,46,70.39671682626539,20.552147239263803,85.35031847133759,33.127317676143385,85.144899215879903
6042,3654,3301,353,258,2317,1026,53,70.47071702244116,20.093457943925234,82.95819935691318,32.35109717868339,82.985708006267359
6042,3654,3301,353,267,2016,1309,62,62.47947454844006,16.941624365482234,81.15501519756839,28.03149606299213,77.354480425988982
6042,3654,3301,353,297,2405,882,70,73.9463601532567,25.190839694656486,80.92643051771117,38.42173350582147,84.203065664507776
6042,3654,3301,353,263,2340,997,54,71.23700054734537,20.873015873015873,82.96529968454259,33.35447051363348,85.106099379011155
6042,3654,3301,353,288,2162,1156,48,67.04980842911877,19.94459833795014,85.71428571428571,32.359550561797754,82.615657022302585
6042,3654,3301,353,288,2392,891,83,73.34428024083196,24.427480916030532,77.62803234501348,37.16129032258065,81.991357914208038
6042,3654,3301,353,279,2397,922,56,73.23481116584564,23.230641132389675,83.28358208955224,36.328125,84.958425708157023
6042,3654,3301,353,292,2218,1095,49,68.69184455391351,21.052631578947366,85.63049853372434,33.79629629629629,83.238694452583033
6042,3654,3301,353,276,2126,1175,77,65.73617952928298,19.021364576154376,78.18696883852692,30.598669623059866,79.234724132870724
6024,3654,3292,362,290,2212,1105,48,68.45417236662107,20.78853046594982,85.79881656804734,33.46797461050202,81.12636534403191
6024,3654,3292,362,0,0,0,0,0,0,0,0,0
6024,3654,3292,362,262,2087,1247,58,64.28571428571429,17.362491716368456,81.875,28.649535265172226,77.817702084583075
6024,3654,3292,362,264,2277,1031,82,69.54022988505747,20.386100386100388,76.30057803468208,32.17550274223035,80.754835011987055
6024,3654,3292,362,256,2410,938,50,72.96113847837987,21.440536013400337,83.66013071895425,34.13333333333334,86.163039488993519
6024,3654,3292,362,278,2131,1187,58,65.92775041050903,18.976109215017065,82.73809523809523,30.871737923375903,78.46370088119636
6024,3654,3292,362,260,2300,1024,70,70.06020799124248,20.24922118380062,78.78787878787878,32.218091697645605,81.136819458119092
6024,3654,3292,362,250,2072,1275,57,63.54679802955665,16.39344262295082,81.43322475570032,27.292576419213972,74.405101948460825
6024,3654,3292,362,309,2314,976,55,71.78434592227696,24.04669260700389,84.89010989010988,37.47725894481504,85.236564347506601
6024,3654,3292,362,308,2241,1051,54,69.7591680350301,22.66372332597498,85.0828729281768,35.7931435212086,84.484695864073629

