Train Length,Test Length,Test Clean Cnt,Test Buggy Cnt,TP,TN,FP,FN,Accuracy,Precision,Recall,F1,AUC
12552,2203,1481,722,516,1060,456,172,71.50635208711434,53.086419753086425,75.0,62.16867469879518,80.056528808983245
12552,2203,1481,722,523,1063,448,170,71.9600725952813,53.86199794026777,75.46897546897547,62.86057692307692,80.278295864000683
12552,2203,1481,722,527,1044,418,215,71.27949183303085,55.767195767195766,71.02425876010781,62.47777119146413,74.218983337082108
12552,2203,1481,722,520,953,524,207,66.83303085299455,49.808429118773944,71.52682255845943,58.723884810841334,75.087052363661428
12552,2203,1481,722,501,1088,422,193,72.09618874773139,54.2795232936078,72.19020172910663,61.96660482374768,77.948642097830032
12552,2203,1481,722,537,1030,467,170,71.09800362976407,53.48605577689243,75.95473833097596,62.77030976037405,78.210121327048256
12552,2203,1481,722,479,1073,444,208,70.41742286751361,51.89599133261105,69.72343522561863,59.50310559006211,78.016348439183673
12552,2203,1481,722,457,1102,427,218,70.73502722323049,51.696832579185525,67.7037037037037,58.62732520846697,76.040888501320154
12552,2203,1481,722,448,1108,433,215,70.5989110707804,50.851305334846764,67.57164404223228,58.03108808290155,76.430458371138599
12552,2203,1481,722,560,1041,440,162,72.67362687244666,56.00000000000001,77.5623268698061,65.04065040650407,81.37923391584259
12564,2203,1487,716,480,1060,453,211,69.87295825771325,51.446945337620576,69.46454413892909,59.11330049261083,73.172256268155493
12564,2203,1487,716,480,1154,389,181,74.13793103448276,55.235903337169155,72.61724659606656,62.74509803921568,80.337388214600509
12564,2203,1487,716,544,918,532,210,66.33393829401089,50.55762081784386,72.14854111405835,59.453551912568294,73.300740876246223
12564,2203,1487,716,490,1103,429,182,72.27767695099818,53.318824809575624,72.91666666666666,61.59648020113136,78.960450857888858
12564,2203,1487,716,476,1076,432,220,70.41742286751361,52.42290748898678,68.39080459770115,59.35162094763092,77.570343226927648
12564,2203,1487,716,497,1046,465,196,70.00907441016334,51.66320166320166,71.71717171717171,60.06042296072507,78.259430840502972
12564,2203,1487,716,514,1116,389,185,73.95644283121598,56.92137320044297,73.53361945636624,64.16978776529338,81.524246788245179
12564,2203,1487,716,495,998,503,208,67.74047186932849,49.59919839679359,70.41251778093883,58.2010582010582,75.479315354486289
12564,2203,1487,716,492,1056,435,221,70.23593466424683,53.07443365695793,69.00420757363254,59.99999999999999,77.0490168688616
12564,2203,1487,716,507,1038,449,209,70.13163867453473,53.03347280334728,70.81005586592178,60.645933014354064,75.01709414553693
12634,2203,1522,681,486,647,879,192,51.4065335753176,35.604395604395606,71.68141592920354,47.57709251101321,68.218142172838924
12634,2203,1522,681,469,1102,402,231,71.27949183303085,53.84615384615385,67.0,59.70719287078294,77.304236322188459
12634,2203,1522,681,532,1056,433,183,72.0508166969147,55.12953367875648,74.40559440559441,63.333333333333336,80.149628746002151
12634,2203,1522,681,466,744,754,240,54.90018148820327,38.196721311475414,66.0056657223796,48.39044652128765,66.689107667636165
12634,2203,1522,681,509,1126,379,190,74.18330308529946,57.31981981981982,72.81831187410587,64.14618777567738,78.365676642949822
12634,2203,1522,681,484,1079,435,206,70.91651542649727,52.66594124047879,70.14492753623188,60.161591050341826,79.849041793502209
12634,2203,1522,681,558,953,505,188,68.55716878402905,52.49294449670743,74.79892761394102,61.69154228855721,75.035810559839973
12634,2203,1522,681,501,1033,488,182,69.60072595281306,50.6572295247725,73.35285505124452,59.92822966507177,74.84797991611822
12634,2203,1522,681,0,0,0,0,0,0,0,0,0
12634,2203,1522,681,466,1080,442,215,70.177031320926,51.3215859030837,68.4287812041116,58.65324103209566,76.768385751030891
12602,2203,1506,697,509,1094,406,195,72.73139745916517,55.62841530054645,72.30113636363636,62.87831995058678,79.629924242424238
12602,2203,1506,697,487,999,519,199,67.42286751361162,48.40954274353877,70.99125364431487,57.56501182033097,71.718868236170806
12602,2203,1506,697,499,1023,459,223,69.05626134301271,52.087682672233825,69.11357340720221,59.404761904761905,77.711158089128631
12602,2203,1506,697,507,1088,411,198,72.36842105263158,55.22875816993464,71.91489361702128,62.47689463955638,77.399779522045435
12602,2203,1506,697,502,1060,464,178,70.87114337568057,51.96687370600414,73.82352941176471,60.99635479951397,79.573683804230356
12602,2203,1506,697,534,1004,484,182,69.78221415607986,52.455795677799614,74.58100558659217,61.5916955017301,75.857981167777965
12602,2203,1506,697,490,1076,453,185,71.05263157894737,51.961823966065744,72.5925925925926,60.56860321384425,79.074582758035987
12602,2203,1506,697,485,997,516,206,67.24137931034483,48.451548451548454,70.18813314037627,57.328605200945624,70.56838800822203
12602,2203,1506,697,515,1087,395,207,72.68602540834846,56.59340659340659,71.32963988919667,63.11274509803921,80.859931364742565
12602,2203,1506,697,526,1036,470,171,70.90331366318657,52.81124497991968,75.46628407460545,62.13821618428825,76.876806499492218
12588,2203,1499,704,514,1090,431,169,72.77676950998185,54.39153439153439,75.25622254758419,63.14496314496315,79.806669535242577
12588,2203,1499,704,505,1065,427,207,71.23411978221415,54.18454935622318,70.92696629213484,61.43552311435523,76.267339669247207
12588,2203,1499,704,484,922,557,241,63.793103448275865,46.493756003842456,66.75862068965517,54.81313703284258,69.863514490219401
12588,2203,1499,704,503,1051,472,178,70.508166969147,51.589743589743584,73.86196769456681,60.748792270531396,76.38365425685258
12588,2203,1499,704,458,1095,428,223,70.4627949183303,51.69300225733634,67.25403817914831,58.45564773452457,77.414013033631164
12588,2203,1499,704,516,1079,427,182,72.36842105263158,54.718981972428416,73.92550143266476,62.88848263254113,80.693938667488595
12588,2203,1499,704,484,1015,517,188,68.01270417422867,48.35164835164835,72.02380952380952,57.86013150029886,75.170567574288199
12588,2203,1499,704,522,1035,445,202,70.6442831215971,53.98138572905895,72.09944751381215,61.73861620342992,77.183253695684655
12588,2203,1499,704,509,1047,439,209,70.5989110707804,53.69198312236287,70.89136490250696,61.104441776710686,78.668782358652905
12588,2203,1499,704,490,988,511,214,67.09033136631865,48.95104895104895,69.60227272727273,57.478005865102645,73.729266480684089

