djangoResult
=============================================
Accuracy : 69.4825667403
Precision: 63.205762629
Recall   : 67.2798646961
F1       : 65.1267463647
AUC      : 74.8223018261
============================================
socketioResult
=============================================
Accuracy : 65.1147989735
Precision: 19.7831038636
Recall   : 67.951973065
F1       : 30.2262419971
AUC      : 72.8255583482
============================================
dockerResult
=============================================
Accuracy : 73.3102969899
Precision: 33.1345138532
Recall   : 89.2928409751
F1       : 48.2995339308
AUC      : 87.4959149256
============================================
tensorflowResult
=============================================
Accuracy : 69.3817287058
Precision: 31.9939121142
Recall   : 74.53045516
F1       : 44.66618589
AUC      : 77.6841710007
============================================
notepadResult
=============================================
Accuracy : 69.4497261411
Precision: 52.3312074312
Recall   : 76.9805103056
F1       : 62.1555932658
AUC      : 77.7703101056
============================================
tesseractResult
=============================================
Accuracy : 71.1107317073
Precision: 40.3647770193
Recall   : 77.7417428093
F1       : 52.8239067687
AUC      : 80.9230266556
============================================
cmakeResult
=============================================
Accuracy : 64.953301481
Precision: 18.7450993751
Recall   : 79.7001615529
F1       : 30.2423921182
AUC      : 78.4310541889
============================================
cygwinResult
=============================================
Accuracy : 73.7900913553
Precision: 16.1740396882
Recall   : 69.1327984375
F1       : 26.1518156846
AUC      : 77.8626489007
============================================
scikitResult
=============================================
Accuracy : 69.4852731014
Precision: 51.1940785916
Recall   : 71.6396478293
F1       : 59.5991153504
AUC      : 76.4207399018
============================================
