filename,ChangeCnt,DefectChangeCnt,MergeCnt,FixCnt,BadFixCnt,ZeroDRECnt,ZeroBFRCnt,HDRECnt,HBFRCnt,AvgDRE,AvgBFR,avgDREwithoutZero,avgBFRwithoutZero
tensorflow,20055,3381,2204,3963,660,986,2294,4404,4113,0.33815412701661524,0.3720503405411386,0.40213573503974115,0.47964528057421585
docker,33126,4758,13909,4548,1107,933,3381,5851,3119,0.20583405704997093,0.2311858512398895,0.37293069393428063,0.48361288797826596
cygwin,17759,1241,2,960,93,164,1552,1999,1555,0.2078703683155568,0.3436960953689562,0.20984355944320404,0.3766764982260205
cmake,36715,3370,7149,4340,828,2195,6711,11808,8716,0.24385353330495504,0.27953722221484617,0.3271099458852336,0.44906972876133416
socketio,1678,174,310,293,41,81,349,686,274,0.3965258179210702,0.1947330617493246,0.517301358422282,0.32086046190099704
django,24663,10437,591,15737,7567,1218,1327,2648,1053,0.1793031126844321,0.6199140986273041,0.19350363049132904,0.672216369687572
scikit,22107,7016,2955,4777,1758,1353,1702,3163,3833,0.22941013658056458,0.42810480711862564,0.28494855326271823,0.5423805774085144
react,8920,1896,2431,1601,576,400,1394,2795,1607,0.2679913431246048,0.3403482363505872,0.39263438528733774,0.5959267156984471
postgre,43292,14386,0,12738,5090,1072,3249,9688,4644,0.21051662432969465,0.5437300516061909,0.215866798131347,0.587860677875954
hadoop,16493,4061,411,3616,895,97,622,1166,947,0.25423744575918406,0.41707194968925865,0.2623329640507965,0.44496667129202017
