Train Length,Test Length,Test Clean Cnt,Test Buggy Cnt,TP,TN,FP,FN,Accuracy,Precision,Recall,F1,AUC
2234,1773,1651,122,99,1188,448,39,72.54791431792559,18.09872029250457,71.73913043478261,28.905109489051096,78.460632153360976
2234,1773,1651,122,79,1208,435,52,72.54791431792559,15.369649805447471,60.30534351145038,24.496124031007753,73.871107125766031
2234,1773,1651,122,77,1164,498,35,69.95490417136415,13.391304347826086,68.75,22.41630276564774,77.384175691937415
2234,1773,1651,122,76,1178,488,32,70.68771138669673,13.47517730496454,70.37037037037037,22.61904761904762,77.763883331110222
2234,1773,1651,122,70,1221,448,35,72.77339346110485,13.513513513513514,66.66666666666666,22.47191011235955,76.477502924477164
2234,1773,1651,122,72,1268,391,43,75.53551296505073,15.550755939524837,62.60869565217392,24.913494809688583,78.54391068480227
2234,1773,1651,122,98,1206,427,42,73.54765933446137,18.666666666666668,70.0,29.473684210526315,76.881725133409148
2234,1773,1651,122,95,1218,422,38,74.05527354765934,18.3752417794971,71.42857142857143,29.230769230769226,79.956904456262606
2234,1773,1651,122,95,1192,446,40,72.58883248730965,17.56007393715342,70.37037037037037,28.106508875739646,77.846063401618963
2234,1773,1651,122,83,1163,488,39,70.27636773829667,14.535901926444833,68.0327868852459,23.953823953823953,75.697788722185251
2242,1773,1655,118,88,1232,426,28,74.40811724915444,17.120622568093385,75.86206896551724,27.93650793650794,81.05996006821681
2242,1773,1655,118,84,1138,509,43,68.88387824126269,14.165261382799327,66.14173228346458,23.333333333333336,71.815374171124773
2242,1773,1655,118,85,1136,517,36,68.82750845546786,14.119601328903656,70.24793388429752,23.51313969571231,72.217805842620223
2242,1773,1655,118,88,1169,492,25,70.85682074408118,15.172413793103448,77.87610619469027,25.396825396825395,79.179298109146316
2242,1773,1655,118,80,1227,416,51,73.67531003382187,16.129032258064516,61.06870229007634,25.518341307814993,73.819535108463853
2242,1773,1655,118,93,1243,382,56,75.31003382187149,19.57894736842105,62.41610738255034,29.807692307692303,76.235415591120287
2242,1773,1655,118,81,1177,485,30,70.9531866892273,14.310954063604239,72.97297297297297,23.929098966026583,78.503593846554125
2242,1773,1655,118,90,1078,565,40,65.8770445572476,13.740458015267176,69.23076923076923,22.929936305732483,70.867081792218741
2242,1773,1655,118,79,1205,445,44,72.41962774957699,15.076335877862595,64.22764227642277,24.42040185471407,72.39221483123923
2242,1773,1655,118,82,1198,457,36,72.19402143260011,15.213358070500927,69.49152542372882,24.96194824961948,76.124737569768058
2210,1773,1639,134,84,1190,456,44,71.81510710259302,15.555555555555555,65.625,25.149700598802397,76.076473268529782
2210,1773,1639,134,81,1217,437,39,73.16798196166854,15.637065637065636,67.5,25.391849529780565,77.059653365578399
2210,1773,1639,134,87,1280,368,39,77.05749718151071,19.12087912087912,69.04761904761905,29.948364888123923,79.193153798736333
2210,1773,1639,134,90,1162,482,40,70.5749718151071,15.734265734265735,69.23076923076923,25.641025641025642,76.522084970990079
2210,1773,1639,134,80,1270,390,34,76.09921082299887,17.02127659574468,70.17543859649122,27.397260273972606,79.124392306066369
2210,1773,1639,134,83,1218,430,43,73.33709131905299,16.17933723196881,65.87301587301587,25.978090766823158,77.879873632300828
2210,1773,1639,134,89,1151,504,29,69.93795826283136,15.008431703204048,75.42372881355932,25.035161744022506,78.214450304675083
2210,1773,1639,134,107,1159,475,32,71.40439932318104,18.384879725085913,76.97841726618705,29.680998613037453,81.00085415144018
2210,1773,1639,134,64,1253,416,40,74.2808798646362,13.333333333333334,61.53846153846154,21.91780821917808,73.314283080610224
2210,1773,1639,134,95,1221,418,39,74.224478285392,18.51851851851852,70.8955223880597,29.36630602782071,77.681148862156576
2282,1773,1675,98,91,1246,411,26,75.36640360766629,18.127490039840637,77.77777777777779,29.402261712439415,82.153928683801951
2282,1773,1675,98,80,1202,450,42,72.26606538895152,15.09433962264151,65.57377049180327,24.539877300613497,75.577541380542215
2282,1773,1675,98,102,1162,457,53,71.25140924464488,18.246869409660107,65.80645161290323,28.571428571428573,75.991551933690644
2282,1773,1675,98,94,1227,418,35,74.46448703494927,18.359375,72.86821705426357,29.32917316692668,82.616809217501938
2282,1773,1675,98,79,1112,532,51,67.13641488162345,12.92962356792144,60.76923076923077,21.322537112010796,67.990829122215985
2282,1773,1675,98,89,1231,412,42,74.40811724915444,17.764471057884233,67.93893129770993,28.16455696202532,75.381563236120869
2282,1773,1675,98,79,1214,444,36,72.92724196277496,15.105162523900573,68.69565217391305,24.76489028213166,78.689358577647241
2282,1773,1675,98,84,1176,473,40,71.06598984771574,15.080789946140035,67.74193548387096,24.669603524229075,76.351747882392075
2282,1773,1675,98,81,1185,470,37,71.40439932318104,14.700544464609798,68.64406779661016,24.215246636771294,75.540478263095906
2282,1773,1675,98,70,1222,453,28,72.87084038353075,13.38432122370937,71.42857142857143,22.544283413848635,76.482485531526052
2212,1773,1640,133,82,1221,440,31,73.44983089064262,15.708812260536398,72.56637168141593,25.826771653543307,78.89958602611712
2212,1773,1640,133,69,1120,543,42,67.02367531003382,11.27450980392157,62.16216216216216,19.08713692946058,69.07358350533336
2212,1773,1640,133,83,1072,582,37,65.10710259301014,12.481203007518797,69.16666666666667,21.146496815286625,74.282547359935506
2212,1773,1640,133,84,1253,393,44,75.36640360766629,17.61006289308176,65.625,27.76859504132231,77.335681196840824
2212,1773,1640,133,84,1157,494,39,69.95490417136415,14.53287197231834,68.29268292682927,23.96576319543509,74.327951032387375
2212,1773,1640,133,98,1233,398,45,75.02818489289741,19.758064516129032,68.53146853146853,30.67292644757434,81.202059742832276
2212,1773,1640,133,77,1260,400,36,75.40891144952059,16.142557651991616,68.14159292035397,26.10169491525424,80.014926964495146
2212,1773,1640,133,79,1245,413,36,74.67569091934574,16.056910569105693,68.69565217391305,26.029654036243823,77.818219961189499
2212,1773,1640,133,81,1238,395,59,74.39368302312465,17.016806722689076,57.85714285714286,26.298701298701303,73.255183273554366
2212,1773,1640,133,92,1206,434,41,73.20924985899605,17.490494296577946,69.17293233082707,27.921092564491648,80.02384008802494

