Train Length,Test Length,Test Clean Cnt,Test Buggy Cnt,TP,TN,FP,FN,Accuracy,Precision,Recall,F1,AUC
8644,3300,2861,439,411,1978,838,74,72.37200848227809,32.90632506004803,84.74226804123711,47.40484429065744,85.119567127460186
8644,3300,2861,439,363,2057,824,57,73.31111784307785,30.58129738837405,86.42857142857143,45.17734909769757,85.501396671129399
8644,3300,2861,439,445,1929,866,61,71.91760072705242,33.94355453852022,87.94466403162056,48.98183819482664,86.236362222206509
8644,3300,2861,439,414,1926,879,81,70.9090909090909,32.01856148491879,83.63636363636363,46.30872483221476,80.833216298456932
8644,3300,2861,439,406,1763,1051,80,65.72727272727272,27.86547700754976,83.53909465020575,41.7910447761194,77.311926551838113
8644,3300,2861,439,445,2020,786,49,74.69696969696969,36.149471974004875,90.08097165991903,51.594202898550726,87.148201800075626
8644,3300,2861,439,413,1981,841,65,72.54545454545455,32.93460925039872,86.40167364016736,47.6905311778291,85.116085805194686
8644,3300,2861,439,408,1905,926,61,70.0909090909091,30.584707646176913,86.99360341151386,45.25790349417638,84.745269966461791
8644,3300,2861,439,438,1907,904,51,71.06060606060606,32.63785394932936,89.57055214723927,47.84270890223922,87.260754019958114
8644,3300,2861,439,389,1861,1000,50,68.18181818181817,28.005759539236863,88.61047835990888,42.560175054704594,82.04671415684497
8584,3300,2831,469,433,1916,888,64,71.16025446834293,32.778198334595004,87.12273641851107,47.634763476347636,85.192144306638696
8584,3300,2831,469,444,1894,901,62,70.82702211451075,33.01115241635688,87.74703557312253,47.9740680713128,85.344524030064989
8584,3300,2831,469,371,2046,794,90,73.22023629203271,31.84549356223176,80.4772234273319,45.63345633456335,84.369634291650115
8584,3300,2831,469,417,1972,864,47,72.3939393939394,32.55269320843091,89.87068965517241,47.79369627507163,87.225131924517285
8584,3300,2831,469,392,1989,852,67,72.15151515151516,31.511254019292608,85.40305010893246,46.03640634174986,85.813933692683932
8584,3300,2831,469,431,2032,772,65,74.63636363636364,35.82709891936825,86.89516129032258,50.73572689817539,86.631856564355076
8584,3300,2831,469,393,2001,847,59,72.54545454545455,31.693548387096776,86.94690265486726,46.45390070921986,86.751298846574528
8584,3300,2831,469,442,1925,882,51,71.72727272727273,33.383685800604226,89.65517241379311,48.65162355531095,85.350193048240016
8584,3300,2831,469,423,1934,902,41,71.42424242424242,31.924528301886788,91.16379310344827,47.28898826159866,87.8637803365595
8584,3300,2831,469,393,2018,813,76,73.06060606060606,32.58706467661692,83.7953091684435,46.92537313432836,85.514622979365669
8554,3300,2816,484,386,1998,853,64,72.22053923053619,31.154156577885388,85.77777777777777,45.707519242155115,87.170700339062307
8554,3300,2816,484,411,1944,890,56,71.3420175704332,31.59108378170638,88.0085653104925,46.49321266968326,87.1222642159522
8554,3300,2816,484,440,1875,935,51,70.13026355649802,32.0,89.61303462321793,47.159699892818864,85.376383442897435
8554,3300,2816,484,413,1956,845,86,71.7878787878788,32.829888712241655,82.76553106212425,47.01195219123506,84.173058720082068
8554,3300,2816,484,430,1999,816,55,73.60606060606061,34.51043338683788,88.65979381443299,49.682264586943965,86.359451392576574
8554,3300,2816,484,429,1954,846,71,72.21212121212122,33.64705882352941,85.8,48.33802816901409,85.839142857142861
8554,3300,2816,484,413,1928,910,49,70.93939393939394,31.216931216931215,89.39393939393939,46.27450980392156,85.808401136096705
8554,3300,2816,484,394,1946,903,57,70.9090909090909,30.37779491133385,87.36141906873614,45.08009153318078,86.275808448757445
8554,3300,2816,484,420,1992,836,52,73.0909090909091,33.43949044585987,88.98305084745762,48.61111111111111,86.826761141610547
8554,3300,2816,484,428,1871,945,56,69.66666666666667,31.17261471230881,88.42975206611571,46.09585352719439,84.214611898948149
8558,3300,2818,482,439,1998,809,55,73.82611329900031,35.17628205128205,88.8663967611336,50.401836969001145,87.257564590547929
8558,3300,2818,482,424,1978,828,71,72.76582853680704,33.86581469648562,85.65656565656565,48.54035489410418,86.214065098598226
8558,3300,2818,482,427,1927,892,55,71.31172372008481,32.37300985595148,88.58921161825725,47.41810105496946,86.185619514291716
8558,3300,2818,482,428,1896,919,57,70.42424242424242,31.7743132887899,88.24742268041237,46.724890829694324,85.080441669260779
8558,3300,2818,482,408,1979,858,55,72.33333333333334,32.22748815165877,88.12095032397409,47.19491035280509,86.671079708054094
8558,3300,2818,482,413,1985,844,58,72.66666666666667,32.85600636435959,87.68577494692144,47.800925925925924,85.956340870525864
8558,3300,2818,482,408,2031,799,62,73.9090909090909,33.80281690140845,86.80851063829788,48.65831842576028,88.336816780693155
8558,3300,2818,482,410,2032,803,55,74.0,33.800494641385,88.17204301075269,48.867699642431475,87.603724564298034
8558,3300,2818,482,396,2030,816,58,73.51515151515152,32.67326732673268,87.22466960352423,47.5390156062425,87.011486869274748
8558,3300,2818,482,419,1938,880,63,71.42424242424242,32.255581216320245,86.92946058091286,47.052217855137556,84.666334382702786
8588,3300,2833,467,421,2069,755,56,75.4316873674644,35.79931972789115,88.25995807127882,50.93768905021173,87.43819819338286
8588,3300,2833,467,380,1876,981,64,68.34292638594366,27.920646583394564,85.58558558558559,42.10526315789474,83.62761606548797
8588,3300,2833,467,425,2022,779,75,74.12905180248408,35.29900332225914,85.0,49.882629107981224,86.956372724027119
8588,3300,2833,467,443,1906,898,53,71.18181818181817,33.03504847129008,89.31451612903226,48.23081110506261,86.097697413832776
8588,3300,2833,467,431,1954,872,43,72.27272727272728,33.0775134305449,90.92827004219409,48.50872256612268,87.672859911431232
8588,3300,2833,467,438,1903,902,57,70.93939393939394,32.6865671641791,88.48484848484848,47.73841961852862,86.014152217360774
8588,3300,2833,467,418,1899,913,70,70.21212121212122,31.40495867768595,85.65573770491804,45.95931830676196,84.960459272905354
8588,3300,2833,467,409,1987,853,51,72.60606060606061,32.408874801901746,88.91304347826086,47.50290360046458,86.819389161053266
8588,3300,2833,467,407,2024,816,53,73.66666666666667,33.27882256745707,88.47826086956522,48.36601307189542,88.198407838334347
8588,3300,2833,467,415,1933,900,52,71.15151515151516,31.55893536121673,88.86509635974305,46.57687991021325,85.934508481033035

