Train Length,Test Length,Test Clean Cnt,Test Buggy Cnt,TP,TN,FP,FN,Accuracy,Precision,Recall,F1,AUC
18810,2460,1458,1002,756,1034,361,310,72.73466070702966,67.68128916741271,70.91932457786116,69.26248282180485,77.084737100472751
18810,2460,1458,1002,671,1059,392,339,70.29662738724096,63.12323612417686,66.43564356435644,64.73709599614087,75.084953360946017
18810,2460,1458,1002,680,1046,387,348,70.13409183258837,63.73008434864105,66.14785992217898,64.9164677804296,76.663912881739762
18810,2460,1458,1002,756,986,409,309,70.8130081300813,64.89270386266094,70.98591549295776,67.80269058295964,76.760597035017753
18810,2460,1458,1002,685,932,504,339,65.73170731707317,57.61143818334735,66.89453125,61.90691369182106,70.109502850800837
18810,2460,1458,1002,713,996,390,361,69.47154471544715,64.64188576609247,66.38733705772812,65.50298576022048,74.718587847079462
18810,2460,1458,1002,709,872,531,348,64.26829268292683,57.17741935483871,67.07663197729423,61.73269481932955,69.958751722049868
18810,2460,1458,1002,697,1068,363,332,71.7479674796748,65.75471698113208,67.73566569484937,66.73049305887986,76.399304855215519
18810,2460,1458,1002,734,867,541,318,65.08130081300813,57.568627450980394,69.77186311787072,63.085517834121184,72.118212333650192
18810,2460,1458,1002,670,1045,413,332,69.71544715447155,61.865189289012,66.86626746506987,64.26858513189448,75.750282699347522
18714,2460,1410,1050,700,971,428,362,67.89922795611541,62.056737588652474,65.91337099811676,63.9269406392694,75.17826157774789
18714,2460,1410,1050,659,1087,374,341,70.94676960585127,63.79477250726041,65.9,64.8303000491884,75.194592744695413
18714,2460,1410,1050,707,1055,382,317,71.5969118244616,64.92194674012856,69.04296875,66.9190724088973,77.213609625087003
18714,2460,1410,1050,713,937,461,349,67.07317073170732,60.73253833049404,67.13747645951035,63.77459749552773,72.166856607098111
18714,2460,1410,1050,734,1063,348,315,73.04878048780488,67.8373382624769,69.9714013346044,68.88784608165183,77.107420316605385
18714,2460,1410,1050,672,929,524,335,65.08130081300813,56.187290969899664,66.73286991062562,61.00771674988652,69.331677568787228
18714,2460,1410,1050,731,950,434,345,68.33333333333333,62.74678111587983,67.93680297397769,65.23873270861223,72.860103251176483
18714,2460,1410,1050,733,959,451,317,68.78048780487805,61.90878378378378,69.80952380952381,65.62220232766337,74.693684566024984
18714,2460,1410,1050,721,1062,371,306,72.47967479674797,66.02564102564102,70.20447906523856,68.05096743747049,77.967759536478781
18714,2460,1410,1050,736,1017,393,314,71.26016260162602,65.19043401240036,70.0952380952381,67.55392381826528,77.927727119216485
18730,2460,1418,1042,717,1027,393,324,70.86550182852498,64.5945945945946,68.87608069164266,66.66666666666666,75.874565355630423
18730,2460,1418,1042,659,1053,375,374,69.56521739130434,63.73307543520309,63.79477250726041,63.76390904692792,72.992778912145681
18730,2460,1418,1042,717,1070,345,329,72.61275904104023,67.51412429378531,68.54684512428298,68.02656546489564,78.432527751690756
18730,2460,1418,1042,688,1071,366,335,71.50406504065042,65.2751423149905,67.25317693059628,66.24939817043813,76.47448966056281
18730,2460,1418,1042,681,919,484,376,65.04065040650406,58.45493562231759,64.42762535477767,61.296129612961295,72.326903223326681
18730,2460,1418,1042,716,1044,368,332,71.54471544715447,66.05166051660517,68.32061068702289,67.16697936210132,77.000201381830763
18730,2460,1418,1042,707,903,526,324,65.4471544715447,57.33982157339822,68.57419980601358,62.45583038869259,72.571759025153753
18730,2460,1418,1042,708,976,425,351,68.45528455284553,62.48896734333628,66.85552407932012,64.59854014598541,74.780020206799549
18730,2460,1418,1042,729,1050,383,298,72.3170731707317,65.55755395683454,70.98344693281402,68.16269284712483,78.171097057738351
18730,2460,1418,1042,710,1093,325,332,73.29268292682927,68.59903381642512,68.13819577735126,68.36783822821378,78.959545357333326
18754,2460,1430,1030,674,1084,349,354,71.43437626980902,65.88465298142717,65.56420233463035,65.72403705509507,74.443190118415018
18754,2460,1430,1030,707,1014,382,358,69.93092238927265,64.92194674012856,66.3849765258216,65.64531104921078,75.74094999798217
18754,2460,1430,1030,715,954,476,316,67.81796017878911,60.0335852225021,69.35014548981572,64.35643564356437,74.454633630191339
18754,2460,1430,1030,694,1065,370,331,71.50406504065042,65.22556390977444,67.70731707317074,66.44327429392054,77.332608141412436
18754,2460,1430,1030,715,1050,372,323,71.7479674796748,65.77736890524379,68.88246628131022,67.29411764705883,77.769241400616224
18754,2460,1430,1030,673,1048,381,358,69.95934959349593,63.85199240986717,65.27643064985452,64.55635491606715,75.05516531267584
18754,2460,1430,1030,713,773,594,380,60.40650406504066,54.552410099464424,65.23330283623055,59.416666666666664,64.66722128113264
18754,2460,1430,1030,704,990,445,321,68.86178861788618,61.27067014795474,68.6829268292683,64.76540938362464,75.199354125945433
18754,2460,1430,1030,677,1051,368,364,70.24390243902438,64.7846889952153,65.03362151777138,64.90891658676894,74.290048802480939
18754,2460,1430,1030,693,1016,414,337,69.47154471544715,62.601626016260155,67.28155339805825,64.85727655591951,74.952135243397365
18728,2460,1417,1043,697,843,567,354,62.5761885412434,55.14240506329114,66.31779257849666,60.2159827213823,69.609490454885929
18728,2460,1417,1043,746,929,481,305,68.06176351076797,60.79869600651997,70.98001902949572,65.49604916593503,76.186273120499891
18728,2460,1417,1043,723,1008,381,349,70.33726127590411,65.48913043478261,67.44402985074626,66.45220588235296,76.470744280756051
18728,2460,1417,1043,697,951,480,332,66.9918699186992,59.218351741716226,67.73566569484937,63.19129646418857,72.565278482362288
18728,2460,1417,1043,708,1022,370,360,70.32520325203252,65.67717996289424,66.29213483146067,65.98322460391425,76.553553747470843
18728,2460,1417,1043,685,1060,375,340,70.9349593495935,64.62264150943396,66.82926829268293,65.70743405275779,76.406458740545588
18728,2460,1417,1043,628,1157,299,376,72.5609756097561,67.74541531823085,62.54980079681275,65.04401864319004,77.492639332778779
18728,2460,1417,1043,701,1064,385,310,71.7479674796748,64.548802946593,69.33728981206725,66.85741535526942,75.989716977976556
18728,2460,1417,1043,713,1053,354,340,71.78861788617887,66.82286785379569,67.71130104463438,67.26415094339623,76.80846884826984
18728,2460,1417,1043,694,941,476,349,66.46341463414635,59.31623931623932,66.53883029721956,62.72028920018076,72.912707020828449

