Train Length,Test Length,Test Clean Cnt,Test Buggy Cnt,TP,TN,FP,FN,Accuracy,Precision,Recall,F1,AUC
1432,240,160,80,63,91,62,25,63.90041493775933,50.4,71.5909090909091,59.154929577464785,72.504456327985736
1432,240,160,80,55,92,65,28,61.25000000000001,45.83333333333333,66.26506024096386,54.1871921182266,66.057862021333747
1432,240,160,80,67,98,60,15,68.75,52.75590551181102,81.70731707317073,64.11483253588517,75.555727076258108
1432,240,160,80,57,117,52,14,72.5,52.293577981651374,80.28169014084507,63.33333333333332,79.664972081006752
1432,240,160,80,67,104,52,17,71.25,56.30252100840336,79.76190476190477,66.00985221674877,80.395299145299148
1432,240,160,80,48,118,54,20,69.16666666666667,47.05882352941176,70.58823529411765,56.470588235294116,76.316689466484277
1432,240,160,80,62,115,44,19,73.75,58.490566037735846,76.5432098765432,66.31016042780749,78.468825219349327
1432,240,160,80,51,88,75,26,57.91666666666667,40.476190476190474,66.23376623376623,50.2463054187192,64.672137678272634
1432,240,160,80,62,107,51,20,70.41666666666667,54.86725663716814,75.60975609756098,63.58974358974359,80.155912318616856
1432,240,160,80,70,99,61,10,70.41666666666667,53.43511450381679,87.5,66.35071090047393,83.421875
1422,240,155,85,57,91,72,21,61.41078838174274,44.18604651162791,73.07692307692307,55.07246376811594,68.853232656913633
1422,240,155,85,46,118,55,21,68.33333333333333,45.54455445544555,68.65671641791045,54.761904761904766,76.878612716763001
1422,240,155,85,55,82,82,21,57.08333333333333,40.14598540145985,72.36842105263158,51.64319248826291,65.612965340179713
1422,240,155,85,60,119,51,10,74.58333333333333,54.054054054054056,85.71428571428571,66.29834254143647,83.537815126050418
1422,240,155,85,60,93,65,22,63.74999999999999,48.0,73.17073170731707,57.97101449275362,69.85952454461254
1422,240,155,85,68,98,57,17,69.16666666666667,54.400000000000006,80.0,64.76190476190476,76.478178368121448
1422,240,155,85,63,116,46,15,74.58333333333333,57.798165137614674,80.76923076923077,67.37967914438504,82.589427033871459
1422,240,155,85,65,94,54,27,66.25,54.621848739495796,70.65217391304348,61.611374407582936,77.166568742655699
1422,240,155,85,61,110,47,22,71.25,56.481481481481474,73.49397590361446,63.874345549738216,78.259534955107043
1422,240,155,85,66,98,57,19,68.33333333333333,53.65853658536586,77.64705882352942,63.46153846153847,79.77229601518026
1430,240,159,81,50,119,46,26,70.12448132780082,52.083333333333336,65.78947368421053,58.139534883720934,73.923444976076553
1430,240,159,81,59,99,63,19,65.83333333333333,48.36065573770492,75.64102564102564,59.0,77.168407723963284
1430,240,159,81,49,102,67,22,62.916666666666664,42.241379310344826,69.01408450704226,52.406417112299465,71.972664388699059
1430,240,159,81,58,114,54,14,71.66666666666667,51.78571428571429,80.55555555555556,63.04347826086958,79.720568783068785
1430,240,159,81,64,90,65,21,64.16666666666667,49.6124031007752,75.29411764705883,59.81308411214954,73.760910815939283
1430,240,159,81,59,117,36,28,73.33333333333333,62.10526315789474,67.81609195402298,64.83516483516483,78.491473217639538
1430,240,159,81,67,105,46,22,71.66666666666667,59.29203539823009,75.28089887640449,66.33663366336634,80.251506808542302
1430,240,159,81,64,114,48,14,74.16666666666667,57.14285714285714,82.05128205128204,67.36842105263156,80.523899968344409
1430,240,159,81,60,94,67,19,64.16666666666667,47.24409448818898,75.9493670886076,58.25242718446602,71.876719867914147
1430,240,159,81,60,109,50,21,70.41666666666667,54.54545454545454,74.07407407407408,62.82722513089006,79.089991458964192
1430,240,159,81,67,104,55,15,70.95435684647303,54.91803278688525,81.70731707317073,65.68627450980392,80.503144654088061
1430,240,159,81,71,84,68,17,64.58333333333334,51.07913669064749,80.68181818181817,62.555066079295145,72.674940191387563
1430,240,159,81,50,109,59,22,66.25,45.87155963302752,69.44444444444444,55.248618784530386,70.502645502645507
1430,240,159,81,52,119,55,14,71.25,48.598130841121495,78.78787878787878,60.11560693641618,78.430860327412049
1430,240,159,81,58,104,62,16,67.5,48.333333333333336,78.37837837837837,59.79381443298969,78.704005210029308
1430,240,159,81,64,107,49,20,71.25,56.63716814159292,76.19047619047619,64.97461928934011,79.716117216117226
1430,240,159,81,60,97,56,27,65.41666666666667,51.724137931034484,68.96551724137932,59.11330049261083,77.439711516790624
1430,240,159,81,58,95,58,29,63.74999999999999,50.0,66.66666666666666,57.14285714285714,72.008113590263704
1430,240,159,81,61,108,57,14,70.41666666666667,51.69491525423729,81.33333333333333,63.212435233160626,81.446464646464662
1430,240,159,81,60,110,49,21,70.83333333333334,55.04587155963303,74.07407407407408,63.157894736842096,78.344591971426354
1432,240,160,80,58,114,47,22,71.36929460580913,55.23809523809524,72.5,62.70270270270271,75.68322981366461
1432,240,160,80,59,112,47,22,71.25,55.660377358490564,72.8395061728395,63.10160427807487,76.38015373864431
1432,240,160,80,64,99,60,17,67.91666666666667,51.61290322580645,79.01234567901234,62.4390243902439,77.203199006134
1432,240,160,80,52,117,50,21,70.41666666666667,50.98039215686274,71.23287671232876,59.42857142857143,75.203018620293662
1432,240,160,80,59,105,57,19,68.33333333333333,50.86206896551724,75.64102564102564,60.824742268041234,75.973409306742639
1432,240,160,80,52,99,64,25,62.916666666666664,44.827586206896555,67.53246753246754,53.8860103626943,69.428730778424026
1432,240,160,80,61,104,55,20,68.75,52.58620689655172,75.30864197530865,61.92893401015228,77.210963584129203
1432,240,160,80,64,100,60,16,68.33333333333333,51.61290322580645,80.0,62.745098039215684,79.640625
1432,240,160,80,69,99,56,16,70.0,55.2,81.17647058823529,65.71428571428572,77.222011385199238
1432,240,160,80,63,101,59,17,68.33333333333333,51.63934426229508,78.75,62.37623762376238,79.3125

