Train Length,Test Length,Test Clean Cnt,Test Buggy Cnt,TP,TN,FP,FN,Accuracy,Precision,Recall,F1,AUC
1434,240,161,79,60,115,44,22,72.61410788381743,57.692307692307686,73.17073170731707,64.51612903225806,78.831109065807638
1434,240,161,79,66,107,53,14,72.08333333333333,55.46218487394958,82.5,66.33165829145729,76.9140625
1434,240,161,79,61,103,61,15,68.33333333333333,50.0,80.26315789473685,61.61616161616162,76.460205391527609
1434,240,161,79,48,118,52,22,69.16666666666667,48.0,68.57142857142857,56.47058823529412,76.714285714285708
1434,240,161,79,60,111,48,21,71.25,55.55555555555556,74.07407407407408,63.4920634920635,80.580790434039912
1434,240,161,79,65,94,63,18,66.25,50.78125,78.3132530120482,61.61137440758294,75.443173969764416
1434,240,161,79,59,92,62,27,62.916666666666664,48.760330578512395,68.6046511627907,57.0048309178744,71.707943219571135
1434,240,161,79,55,120,45,20,72.91666666666666,55.00000000000001,73.33333333333333,62.857142857142854,81.898989898989896
1434,240,161,79,62,99,57,22,67.08333333333333,52.10084033613446,73.80952380952381,61.083743842364534,75.892857142857139
1434,240,161,79,60,108,53,19,70.0,53.09734513274337,75.9493670886076,62.500000000000014,77.702649579369449
1410,240,149,91,67,108,51,15,72.61410788381743,56.779661016949156,81.70731707317073,67.0,80.656542414480754
1410,240,149,91,63,112,50,15,72.91666666666666,55.75221238938053,80.76923076923077,65.96858638743456,81.157011712567268
1410,240,149,91,48,118,50,24,69.16666666666667,48.97959183673469,66.66666666666666,56.47058823529411,74.900793650793645
1410,240,149,91,51,97,72,20,61.66666666666667,41.46341463414634,71.83098591549296,52.57731958762886,69.030752562713559
1410,240,149,91,56,94,68,22,62.5,45.16129032258064,71.7948717948718,55.445544554455445,70.243748021525803
1410,240,149,91,76,107,33,24,76.25,69.72477064220183,76.0,72.72727272727272,81.378571428571419
1410,240,149,91,56,115,49,20,71.25,53.333333333333336,73.68421052631578,61.87845303867403,80.030487804878035
1410,240,149,91,58,103,54,25,67.08333333333333,51.78571428571429,69.87951807228916,59.487179487179496,72.488680838001684
1410,240,149,91,48,88,87,17,56.666666666666664,35.55555555555556,73.84615384615385,48.0,69.476923076923072
1410,240,149,91,63,89,60,28,63.33333333333333,51.21951219512195,69.23076923076923,58.8785046728972,73.17648794158859
1420,240,154,86,57,97,59,28,63.90041493775933,49.137931034482754,67.05882352941175,56.71641791044776,71.229260935143287
1420,240,154,86,51,108,64,17,66.25,44.34782608695652,75.0,55.73770491803279,76.196990424076603
1420,240,154,86,46,103,69,22,62.083333333333336,40.0,67.64705882352942,50.27322404371584,71.101231190150486
1420,240,154,86,64,122,37,17,77.5,63.366336633663366,79.01234567901234,70.32967032967032,82.118176877086739
1420,240,154,86,53,107,57,23,66.66666666666666,48.18181818181818,69.73684210526315,56.98924731182795,72.737483953786921
1420,240,154,86,61,100,54,25,67.08333333333333,53.04347826086957,70.93023255813954,60.69651741293532,73.859861069163387
1420,240,154,86,64,102,54,20,69.16666666666667,54.23728813559322,76.19047619047619,63.366336633663366,75.801282051282044
1420,240,154,86,61,117,48,14,74.16666666666667,55.96330275229357,81.33333333333333,66.30434782608694,80.460606060606068
1420,240,154,86,67,82,71,20,62.083333333333336,48.55072463768116,77.01149425287356,59.55555555555555,74.457215836526174
1420,240,154,86,66,110,44,20,73.33333333333333,60.0,76.74418604651163,67.3469387755102,79.220779220779207
1436,240,162,78,64,104,52,21,69.70954356846472,55.172413793103445,75.29411764705883,63.681592039801,77.32277526395174
1436,240,162,78,59,98,59,24,65.41666666666667,50.0,71.08433734939759,58.70646766169154,74.361138822807163
1436,240,162,78,73,89,62,16,67.5,54.074074074074076,82.02247191011236,65.17857142857143,76.166381427189521
1436,240,162,78,57,97,67,19,64.16666666666667,45.96774193548387,75.0,57.0,73.547817715019264
1436,240,162,78,57,103,60,20,66.66666666666666,48.717948717948715,74.02597402597402,58.76288659793814,76.950043821209462
1436,240,162,78,59,105,49,27,68.33333333333333,54.629629629629626,68.6046511627907,60.82474226804124,75.249169435215961
1436,240,162,78,57,115,52,16,71.66666666666667,52.293577981651374,78.08219178082192,62.63736263736264,82.651136083996391
1436,240,162,78,56,123,44,17,74.58333333333333,56.00000000000001,76.71232876712328,64.73988439306358,81.798047740136155
1436,240,162,78,60,115,49,16,72.91666666666666,55.04587155963303,78.94736842105263,64.86486486486487,80.656290115532741
1436,240,162,78,63,106,56,15,70.41666666666667,52.94117647058824,80.76923076923077,63.959390862944176,78.062678062678074
1416,240,152,88,58,106,57,20,68.04979253112033,50.43478260869565,74.35897435897436,60.103626943005175,72.974673588170518
1416,240,152,88,51,110,57,22,67.08333333333333,47.22222222222222,69.86301369863014,56.353591160220994,76.449840045935531
1416,240,152,88,58,84,64,34,59.166666666666664,47.540983606557376,63.04347826086957,54.205607476635514,65.959165687426562
1416,240,152,88,61,122,40,17,76.25,60.396039603960396,78.2051282051282,68.15642458100558,86.182336182336186
1416,240,152,88,57,94,69,20,62.916666666666664,45.23809523809524,74.02597402597402,56.1576354679803,72.209385706318216
1416,240,152,88,51,129,39,21,75.0,56.666666666666664,70.83333333333334,62.96296296296297,77.364417989417987
1416,240,152,88,55,107,59,19,67.5,48.24561403508772,74.32432432432432,58.51063829787233,76.351351351351354
1416,240,152,88,54,114,55,17,70.0,49.54128440366973,76.05633802816901,60.0,79.706642220185003
1416,240,152,88,66,92,55,27,65.83333333333333,54.54545454545454,70.96774193548387,61.6822429906542,67.807768268597755
1416,240,152,88,67,100,52,21,69.58333333333333,56.30252100840336,76.13636363636364,64.73429951690821,75.867224880382778

