Train Length,Test Length,Test Clean Cnt,Test Buggy Cnt,TP,TN,FP,FN,Accuracy,Precision,Recall,F1,AUC
8586,3300,2832,468,408,2056,767,70,74.64404725840654,34.72340425531915,85.35564853556485,49.36479128856625,84.236887076717395
8586,3300,2832,468,401,2099,748,53,75.73462587094821,34.89991296779809,88.32599118942731,50.03119151590768,88.656542399527126
8586,3300,2832,468,435,1883,928,55,70.22114510754317,31.914893617021278,88.77551020408163,46.95089044792228,85.045194171585379
8586,3300,2832,468,428,2037,782,53,74.69696969696969,35.37190082644628,88.98128898128898,50.620934358367826,88.566373561052544
8586,3300,2832,468,432,1977,840,51,73.0,33.9622641509434,89.44099378881988,49.23076923076923,86.600799199771274
8586,3300,2832,468,415,2068,759,58,75.24242424242425,35.34923339011925,87.73784355179704,50.394656952034005,87.730925962348863
8586,3300,2832,468,415,1983,807,95,72.66666666666667,33.9607201309329,81.37254901960785,47.92147806004619,83.583069787054612
8586,3300,2832,468,403,1914,914,69,70.21212121212122,30.599848139711465,85.38135593220339,45.05310229178312,81.472127993671023
8586,3300,2832,468,419,1768,1080,33,66.27272727272727,27.951967978652437,92.69911504424779,42.95233213736546,85.919166998110768
8586,3300,2832,468,422,2060,772,46,75.2121212121212,35.34338358458962,90.17094017094017,50.78219013237064,87.832886667632422
8608,3300,2843,457,463,2043,743,52,75.91638897303848,38.39137645107794,89.90291262135922,53.80592678675189,88.62223740059521
8608,3300,2843,457,450,1777,1020,54,67.46440472584065,30.612244897959183,89.28571428571429,45.59270516717325,84.529590944946676
8608,3300,2843,457,439,1968,846,48,72.91729778854894,34.16342412451362,90.14373716632443,49.548532731376966,86.894436587960755
8608,3300,2843,457,438,1895,907,60,70.69696969696969,32.56505576208178,87.95180722891565,47.531199131850244,86.015224352083564
8608,3300,2843,457,407,1894,947,52,69.72727272727272,30.059084194977842,88.67102396514161,44.89795918367347,85.135339285700582
8608,3300,2843,457,421,2063,753,63,75.27272727272727,35.8603066439523,86.98347107438018,50.78407720144753,86.83577608471073
8608,3300,2843,457,382,2016,855,47,72.66666666666667,30.88116410670978,89.04428904428904,45.85834333733493,87.04844441521557
8608,3300,2843,457,400,1981,884,35,72.15151515151516,31.15264797507788,91.95402298850574,46.538685282140776,87.477884094601905
8608,3300,2843,457,439,1975,832,54,73.15151515151516,34.539732494099134,89.04665314401623,49.77324263038549,84.670242677860557
8608,3300,2843,457,408,2027,816,49,73.7878787878788,33.33333333333333,89.27789934354486,48.54253420582986,87.925196901907327
8608,3300,2843,457,397,2068,767,69,74.67434110875493,34.106529209621996,85.1931330472103,48.71165644171779,85.66818811454003
8608,3300,2843,457,412,2028,798,63,73.91699485004544,34.049586776859506,86.73684210526315,48.90207715133531,84.559913584385598
8608,3300,2843,457,463,1752,1021,65,67.1008785216601,31.19946091644205,87.68939393939394,46.02385685884692,82.018230447278412
8608,3300,2843,457,397,1885,954,64,69.15151515151516,29.38564026646928,86.11713665943601,43.81898454746137,79.139602637267259
8608,3300,2843,457,417,2060,775,48,75.06060606060606,34.98322147651007,89.6774193548387,50.33192516596258,87.777967419544495
8608,3300,2843,457,399,2053,788,60,74.3030303030303,33.614153327716934,86.9281045751634,48.48116646415553,87.258736260744669
8608,3300,2843,457,420,1778,1062,40,66.6060606060606,28.34008097165992,91.30434782608695,43.25437693099897,84.298836497244338
8608,3300,2843,457,459,1923,851,67,72.18181818181819,35.038167938931295,87.26235741444867,50.0,85.345762251871676
8608,3300,2843,457,410,1979,857,54,72.3939393939394,32.35990528808209,88.36206896551724,47.37146158290006,86.710276737512757
8608,3300,2843,457,406,2042,801,51,74.18181818181819,33.63711681855841,88.8402625820569,48.79807692307693,87.503261494507228
8518,3300,2798,502,398,2024,814,65,73.37170554377461,32.838283828382835,85.96112311015118,47.522388059701484,85.641410843580729
8518,3300,2798,502,422,2039,772,68,74.5531657073614,35.34338358458962,86.12244897959184,50.1187648456057,86.636755022179628
8518,3300,2798,502,367,2039,841,54,72.88700393820055,30.38079470198676,87.17339667458432,45.058317986494785,86.779823172340983
8518,3300,2798,502,423,1972,836,69,72.57575757575758,33.598093725178714,85.97560975609755,48.31524842946888,86.774792694508136
8518,3300,2798,502,390,1952,869,89,70.96969696969697,30.976965845909454,81.41962421711901,44.87917146144994,80.87968331755792
8518,3300,2798,502,447,1922,870,61,71.7878787878788,33.94077448747153,87.99212598425197,48.98630136986302,85.600520610067008
8518,3300,2798,502,410,1978,850,62,72.36363636363636,32.53968253968254,86.86440677966102,47.344110854503455,86.208810802387745
8518,3300,2798,502,430,2010,802,58,73.93939393939394,34.9025974025974,88.11475409836066,50.00000000000001,86.644510936734846
8518,3300,2798,502,389,1856,998,57,68.03030303030303,28.046142754145638,87.21973094170403,42.44408074195308,84.322334163992949
8518,3300,2798,502,425,1948,850,77,71.9090909090909,33.33333333333333,84.66135458167331,47.83342712436691,84.994368487451212
8568,3300,2823,477,399,2039,790,73,73.85640714934868,33.55761143818335,84.53389830508475,48.043347381095735,83.362091174338431
8568,3300,2823,477,454,1716,1080,51,65.73765525598304,29.595827900912646,89.9009900990099,44.531633153506625,82.640016147537509
8568,3300,2823,477,354,1981,897,69,70.73614056346563,28.297362110311752,83.68794326241135,42.29390681003585,82.793245243528375
8568,3300,2823,477,447,2043,753,57,75.45454545454545,37.25,88.69047619047619,52.46478873239437,88.327677577945821
8568,3300,2823,477,406,2019,815,60,73.48484848484848,33.25143325143325,87.1244635193133,48.132780082987544,86.913808717565061
8568,3300,2823,477,442,1971,838,49,73.12121212121212,34.53125,90.020366598778,49.91530208921513,87.561620018285709
8568,3300,2823,477,406,1944,914,36,71.21212121212122,30.757575757575754,91.8552036199095,46.08399545970488,87.296514665509832
8568,3300,2823,477,454,1939,864,43,72.51515151515152,34.44613050075873,91.34808853118712,50.027548209366394,86.439579323963756
8568,3300,2823,477,424,2052,764,60,75.03030303030303,35.69023569023569,87.60330578512396,50.71770334928229,87.009591003005255
8568,3300,2823,477,421,2060,763,56,75.18181818181819,35.557432432432435,88.25995807127882,50.69235400361229,88.081430537268361

