Train Length,Test Length,Test Clean Cnt,Test Buggy Cnt,TP,TN,FP,FN,Accuracy,Precision,Recall,F1,AUC
5886,1951,1603,348,248,1116,509,79,69.87704918032787,32.76089828269485,75.84097859327217,45.756457564575655,78.609268407433547
5886,1951,1603,348,235,1150,489,77,70.98923628908253,32.4585635359116,75.32051282051282,45.366795366795365,79.125013688772086
5886,1951,1603,348,237,1093,524,97,68.1701691440287,31.14323258869908,70.95808383233533,43.28767123287672,75.747577201811595
5886,1951,1603,348,214,1153,485,99,70.06663249615582,30.61516452074392,68.370607028754,42.29249011857707,74.886969615404126
5886,1951,1603,348,245,1129,499,78,70.42542286007176,32.93010752688172,75.85139318885449,45.92314901593252,77.245152554750064
5886,1951,1603,348,268,1155,427,101,72.93695540748334,38.56115107913669,72.62872628726286,50.37593984962406,77.309176062683505
5886,1951,1603,348,227,1147,488,89,70.42542286007176,31.74825174825175,71.83544303797468,44.0349175557711,77.343127008090434
5886,1951,1603,348,251,1165,465,70,72.5781650435674,35.05586592178771,78.19314641744548,48.40887174541948,81.1457676356478
5886,1951,1603,348,211,1038,585,117,64.01845207585853,26.507537688442213,64.32926829268293,37.544483985765126,68.871350104443735
5886,1951,1603,348,258,1132,471,90,71.24551512045105,35.390946502057616,74.13793103448276,47.910863509749305,80.219738851721985
5930,1951,1625,326,253,1132,474,93,70.95286885245902,34.80055020632737,73.121387283237,47.15750232991613,73.056421367847449
5930,1951,1625,326,241,1122,482,106,69.86160943106098,33.33333333333333,69.45244956772333,45.04672897196261,75.138342903548036
5930,1951,1625,326,259,1108,511,73,70.06663249615582,33.63636363636363,78.01204819277109,47.005444646098006,77.868701489094107
5930,1951,1625,326,273,1070,531,77,68.83649410558688,33.95522388059701,78.0,47.31369150779896,78.405282412777723
5930,1951,1625,326,201,1185,486,79,71.04049205535622,29.257641921397383,71.78571428571429,41.57187176835575,74.853167478840732
5930,1951,1625,326,238,1133,483,97,70.27165556125064,33.00970873786408,71.04477611940298,45.075757575757585,76.875646519875858
5930,1951,1625,326,234,1162,476,79,71.55304971809329,32.95774647887324,74.76038338658148,45.74780058651026,79.897950824468396
5930,1951,1625,326,244,1149,471,87,71.39928241927217,34.12587412587413,73.71601208459214,46.653919694072655,78.531666107194809
5930,1951,1625,326,243,1103,517,88,68.99026140440799,31.973684210526315,73.41389728096676,44.546287809349224,74.957853119988073
5930,1951,1625,326,244,1169,456,82,72.42439774474629,34.85714285714286,74.84662576687117,47.56335282651072,79.098065125058994
5910,1951,1615,336,238,1137,481,96,70.4405737704918,33.101529902642554,71.25748502994011,45.204178537511865,76.388015069983638
5910,1951,1615,336,211,917,700,123,57.816504356740126,23.161361141602637,63.17365269461078,33.89558232931727,65.558215665144658
5910,1951,1615,336,219,1169,484,79,71.14300358790364,31.152204836415365,73.48993288590604,43.75624375624376,78.344539316353845
5910,1951,1615,336,258,1108,511,74,70.01537672988212,33.55006501950585,77.71084337349397,46.86648501362398,77.404801416909137
5910,1951,1615,336,274,1162,446,69,73.60328036904151,38.05555555555556,79.88338192419825,51.552210724365004,81.921841231161963
5910,1951,1615,336,233,1138,499,81,70.27165556125064,31.830601092896178,74.20382165605095,44.55066921606119,77.689886346392541
5910,1951,1615,336,243,910,708,90,59.09789851358278,25.55205047318612,72.97297297297297,37.850467289719624,73.165811052090405
5910,1951,1615,336,222,1140,485,104,69.81035366478729,31.400282885431402,68.09815950920245,42.98160696999032,75.372817366682384
5910,1951,1615,336,260,1113,497,81,70.37416709379805,34.34610303830912,76.24633431085044,47.35883424408015,79.047194040181409
5910,1951,1615,336,241,1128,487,95,70.16914402870323,33.104395604395606,71.72619047619048,45.30075187969925,74.732972136222912
5954,1951,1637,314,221,1048,565,118,65.01024590163934,28.117048346055977,65.19174041297934,39.288888888888884,69.938570647413073
5954,1951,1637,314,231,907,722,91,58.3290620194772,24.239244491080797,71.73913043478261,36.23529411764706,72.935421265952144
5954,1951,1637,314,235,1144,482,90,70.6817016914403,32.77545327754533,72.3076923076923,45.105566218809976,80.001135395969342
5954,1951,1637,314,259,1094,505,93,69.34905176832393,33.90052356020942,73.57954545454545,46.415770609319,77.855122519756662
5954,1951,1637,314,239,1115,500,97,69.40030753459764,32.34100135317997,71.13095238095238,44.46511627906977,74.869158189591616
5954,1951,1637,314,256,1129,499,67,70.98923628908253,33.90728476821192,79.25696594427245,47.49536178107607,79.859616159925764
5954,1951,1637,314,248,1145,470,88,71.39928241927217,34.540389972144844,73.80952380952381,47.05882352941177,78.722725932478255
5954,1951,1637,314,240,1108,513,90,69.0927729369554,31.872509960159363,72.72727272727273,44.3213296398892,76.885947694090817
5954,1951,1637,314,234,1161,476,80,71.50179395181958,32.95774647887324,74.52229299363057,45.703125,80.177445147835272
5954,1951,1637,314,247,901,736,67,58.84161968221425,25.127161749745675,78.6624203821656,38.08789514263685,74.936480823628742
5944,1951,1632,319,232,1137,485,98,70.13319672131148,32.357043235704325,70.3030303030303,44.3170964660936,76.283488398161637
5944,1951,1632,319,231,1138,488,94,70.16914402870323,32.127955493741304,71.07692307692308,44.25287356321838,76.54385466931592
5944,1951,1632,319,235,1130,487,99,69.9641209636084,32.54847645429363,70.35928143712576,44.507575757575765,74.107906635708162
5944,1951,1632,319,235,1183,434,99,72.6806765761148,35.1270553064275,70.35928143712576,46.85942173479561,78.983220942160216
5944,1951,1632,319,241,1176,442,92,72.62942080984111,35.28550512445095,72.37237237237237,47.44094488188976,78.652509122224828
5944,1951,1632,319,244,1138,476,93,70.8354689902614,33.88888888888889,72.40356083086054,46.168401135288555,78.508709033346946
5944,1951,1632,319,250,898,725,78,58.84161968221425,25.64102564102564,76.21951219512195,38.37298541826554,75.387531370692642
5944,1951,1632,319,224,1108,519,100,68.27268067657612,30.148048452220728,69.1358024691358,41.98687910028116,70.535978510778762
5944,1951,1632,319,247,1133,491,80,70.732957457714,33.46883468834688,75.53516819571865,46.38497652582159,78.425019960530875
5944,1951,1632,319,226,1112,520,93,68.58021527421835,30.29490616621984,70.84639498432603,42.44131455399061,72.867301309238428

