Train Length,Test Length,Test Clean Cnt,Test Buggy Cnt,TP,TN,FP,FN,Accuracy,Precision,Recall,F1,AUC
18644,2460,1375,1085,734,928,475,324,67.5335229581471,60.71133167907361,69.37618147448015,64.75518306131451,74.091772019720096
18644,2460,1375,1085,702,1086,326,347,72.65339292970337,68.28793774319067,66.9208770257388,67.59749638902264,77.378833746965256
18644,2460,1375,1085,713,871,542,335,64.36407964242179,56.81274900398407,68.03435114503816,61.919235779418145,71.765381976521184
18644,2460,1375,1085,687,996,458,319,68.41463414634147,60.0,68.29025844930418,63.87726638772663,73.715581340020407
18644,2460,1375,1085,673,1025,421,341,69.02439024390243,61.517367458866545,66.37080867850098,63.851992409867165,73.31515082073652
18644,2460,1375,1085,679,1008,396,377,68.57723577235772,63.16279069767442,64.29924242424242,63.725950258094784,73.257548778382102
18644,2460,1375,1085,714,1067,329,350,72.39837398373984,68.45637583892618,67.10526315789474,67.77408637873755,77.624711851261395
18644,2460,1375,1085,672,904,545,339,64.0650406504065,55.21774856203779,66.46884272997032,60.32315978456014,69.900111881791659
18644,2460,1375,1085,662,1048,396,354,69.51219512195121,62.57088846880907,65.15748031496062,63.837994214079075,73.591306410452162
18644,2460,1375,1085,741,941,434,344,68.3739837398374,63.06382978723404,68.29493087557603,65.57522123893804,73.537260159195654
18766,2460,1436,1024,706,1052,375,328,71.43437626980902,65.30989824236818,68.27852998065764,66.76122931442082,77.026779747858029
18766,2460,1436,1024,733,950,467,311,68.38683462007315,61.083333333333336,70.21072796934867,65.32976827094475,75.002365907142874
18766,2460,1436,1024,707,1059,360,335,71.75944737911418,66.2605435801312,67.85028790786947,67.04599336178282,77.683116032890595
18766,2460,1436,1024,676,1015,407,362,68.73983739837398,62.41920590951062,65.1252408477842,63.74351720886374,74.318173811478857
18766,2460,1436,1024,688,1027,373,372,69.71544715447155,64.8444863336475,64.90566037735849,64.87505893446486,74.421967654986531
18766,2460,1436,1024,677,1100,349,334,72.23577235772358,65.98440545808967,66.96340257171117,66.47029945999017,76.94197505834714
18766,2460,1436,1024,685,979,419,377,67.64227642276423,62.04710144927537,64.50094161958569,63.25023084025854,72.992895419606697
18766,2460,1436,1024,704,1037,364,355,70.77235772357724,65.91760299625467,66.47780925401322,66.19652092148566,74.63534410535037
18766,2460,1436,1024,710,1031,396,323,70.77235772357724,64.19529837251356,68.73184898354307,66.38616175783075,75.615616674954254
18766,2460,1436,1024,679,874,562,345,63.13008130081301,54.71394037066881,66.30859375,59.955849889624716,69.102031739641362
18732,2460,1419,1041,712,942,451,356,67.20845184884193,61.22098022355976,66.66666666666666,63.82787987449574,73.375437917248092
18732,2460,1419,1041,658,1075,372,356,70.4185290532304,63.883495145631066,64.89151873767258,64.38356164383562,75.184050794066223
18732,2460,1419,1041,717,1056,362,326,72.0438845997562,66.4504170528267,68.74400767018217,67.57775683317625,76.211278900102357
18732,2460,1419,1041,716,1067,357,320,72.47967479674797,66.72879776328053,69.1119691119691,67.89947842579421,77.573912194698707
18732,2460,1419,1041,690,1079,366,325,71.91056910569105,65.3409090909091,67.98029556650246,66.63447609850314,77.976238771370603
18732,2460,1419,1041,761,982,408,309,70.85365853658536,65.098374679213,71.1214953271028,67.97677534613668,76.559268473072009
18732,2460,1419,1041,687,1017,383,373,69.26829268292683,64.20560747663552,64.81132075471699,64.50704225352113,73.220721024258765
18732,2460,1419,1041,678,787,626,369,59.552845528455286,51.99386503067485,64.75644699140402,57.67758400680561,66.691372444844603
18732,2460,1419,1041,713,1046,401,300,71.50406504065042,64.00359066427289,70.38499506416585,67.04278326281148,77.262007175549925
18732,2460,1419,1041,693,1003,416,348,68.9430894308943,62.488728584310195,66.57060518731988,64.46511627906978,73.927262708175519
18676,2460,1391,1069,679,1031,380,371,69.48394961397806,64.11709159584514,64.66666666666666,64.39070649596964,75.022915190172455
18676,2460,1391,1069,674,991,463,333,67.65542462413653,59.2788038698329,66.93147964250248,62.87313432835821,73.280332036132222
18676,2460,1391,1069,743,875,509,334,65.74563185696871,59.34504792332268,68.98792943361188,63.80420781451265,72.559655111340106
18676,2460,1391,1069,678,1040,380,362,69.83739837398375,64.08317580340265,65.1923076923077,64.63298379408961,74.429306608884076
18676,2460,1391,1069,666,1002,439,353,67.8048780487805,60.27149321266968,65.35819430814524,62.71186440677966,74.2129245923566
18676,2460,1391,1069,655,1047,394,364,69.1869918699187,62.44041944709247,64.27870461236506,63.34622823984525,74.35852732843496
18676,2460,1391,1069,698,967,419,376,67.6829268292683,62.48880931065354,64.99068901303538,63.71519853947969,72.145033737212501
18676,2460,1391,1069,720,1061,378,301,72.39837398373984,65.57377049180327,70.51909892262488,67.9565832940066,77.628590427975681
18676,2460,1391,1069,710,1060,369,321,71.95121951219512,65.80166821130676,68.86517943743938,67.29857819905213,77.120937433609868
18676,2460,1391,1069,692,1045,346,377,70.60975609756098,66.66666666666666,64.73339569691299,65.68580920740389,75.17866762072633
18744,2460,1425,1035,699,1038,396,328,70.58106460788296,63.83561643835617,68.06231742940604,65.88124410933081,76.398604485040579
18744,2460,1425,1035,691,1057,378,335,71.02803738317756,64.6398503274088,67.34892787524367,65.96658711217185,76.639362634227851
18744,2460,1425,1035,692,1105,327,337,73.01909792767168,67.90971540726201,67.24975704567542,67.578125,78.719576417957441
18744,2460,1425,1035,682,1064,363,351,70.97560975609755,65.26315789473685,66.02129719264279,65.64003849855632,75.00975177244824
18744,2460,1425,1035,700,1042,383,335,70.8130081300813,64.63527239150508,67.6328502415459,66.10009442870633,75.923654546995508
18744,2460,1425,1035,723,1000,419,318,70.04065040650407,63.309982486865145,69.45244956772333,66.2391204764086,77.309520376338952
18744,2460,1425,1035,710,1002,393,355,69.59349593495935,64.36990027198549,66.66666666666666,65.49815498154982,75.337203627980543
18744,2460,1425,1035,725,967,435,333,68.78048780487805,62.5,68.52551984877127,65.37421100090171,75.489309088555629
18744,2460,1425,1035,732,1019,383,326,71.17886178861788,65.65022421524664,69.18714555765595,67.37229636447307,77.302948259170677
18744,2460,1425,1035,666,956,469,369,65.9349593495935,58.6784140969163,64.34782608695652,61.38248847926267,73.630307653190954

