Train Length,Test Length,Test Clean Cnt,Test Buggy Cnt,TP,TN,FP,FN,Accuracy,Precision,Recall,F1,AUC
6128,2005,1681,324,0,1679,0,327,83.6989032901296,0,0.0,0,54.28207411940631
6128,2005,1681,324,148,1036,647,175,59.02293120638086,18.61635220125786,45.82043343653251,26.475849731663686,53.253165418526919
6128,2005,1681,324,173,981,698,154,57.527417746759724,19.862227324913892,52.90519877675841,28.88146911519199,54.263222793529707
6128,2005,1681,324,199,847,795,165,52.14356929212363,20.02012072434608,54.670329670329664,29.307805596465393,51.619992370601388
6128,2005,1681,324,160,959,691,196,55.782652043868396,18.80141010575793,44.9438202247191,26.512013256006625,52.683180115764387
6128,2005,1681,324,176,959,690,180,56.60847880299252,20.323325635103924,49.43820224719101,28.805237315875612,53.439180027391473
6128,2005,1681,324,185,959,694,167,57.057356608478806,21.046643913538112,52.55681818181818,30.05686433793664,56.265553676511026
6128,2005,1681,324,30,1383,296,296,70.47381546134663,9.202453987730062,9.202453987730062,9.202453987730062,45.857434128552995
6128,2005,1681,324,127,1036,636,206,58.00498753117207,16.644823066841415,38.13813813813814,23.175182481751825,53.538945644208802
6128,2005,1681,324,167,936,745,157,55.01246882793017,18.311403508771928,51.54320987654321,27.022653721682847,54.771098185236596
6094,2005,1664,341,173,937,744,152,55.33399800598205,18.86586695747001,53.230769230769226,27.85829307568438,54.25662380451196
6094,2005,1664,341,183,921,728,174,55.03489531405783,20.08781558726674,51.26050420168067,28.864353312302836,53.341979605668818
6094,2005,1664,341,186,942,711,167,56.23130608175474,20.735785953177256,52.69121813031161,29.759999999999994,53.281097635169296
6094,2005,1664,341,140,1050,635,181,59.32203389830508,18.064516129032256,43.613707165109034,25.54744525547445,54.287325401887657
6094,2005,1664,341,31,1373,309,293,69.99002991026919,9.117647058823529,9.5679012345679,9.337349397590362,55.100941706669019
6094,2005,1664,341,147,1024,672,162,58.403990024937656,17.94871794871795,47.57281553398058,26.06382978723404,54.760296452341706
6094,2005,1664,341,174,954,694,183,56.259351620947626,20.046082949308754,48.739495798319325,28.40816326530612,54.715757662288212
6094,2005,1664,341,0,1644,0,361,81.99501246882794,0,0.0,0,52.479173827769579
6094,2005,1664,341,147,984,681,193,56.40897755610973,17.753623188405797,43.23529411764706,25.171232876712327,52.821409644939052
6094,2005,1664,341,162,972,692,179,56.55860349127182,18.969555035128806,47.50733137829912,27.11297071129707,53.010887801714411
6098,2005,1666,339,149,963,717,177,55.43369890329013,17.20554272517321,45.70552147239264,25.0,52.451614081215304
6098,2005,1666,339,175,961,706,164,56.63010967098704,19.863791146424518,51.62241887905604,28.688524590163933,55.011475580990002
6098,2005,1666,339,149,982,714,161,56.38085742771685,17.265353418308226,48.064516129032256,25.404944586530267,54.535624619598288
6098,2005,1666,339,101,1136,527,242,61.66500498504487,16.0828025477707,29.44606413994169,20.803295571575692,53.856268046261533
6098,2005,1666,339,240,810,826,130,52.34297108673977,22.5140712945591,64.86486486486487,33.42618384401114,54.788954602524285
6098,2005,1666,339,167,952,718,168,55.81047381546135,18.870056497175142,49.850746268656714,27.377049180327873,54.247207078380541
6098,2005,1666,339,135,1046,596,228,58.902743142144644,18.467852257181942,37.1900826446281,24.6800731261426,53.90347389295458
6098,2005,1666,339,160,1005,650,190,58.104738154613464,19.753086419753085,45.714285714285715,27.586206896551722,53.804315925766069
6098,2005,1666,339,85,1158,534,228,61.99501246882792,13.731825525040387,27.15654952076677,18.240343347639485,53.053081971918218
6098,2005,1666,339,165,969,697,174,56.55860349127182,19.1415313225058,48.67256637168141,27.477102414654453,52.220445700404049
6138,2005,1686,319,135,1048,646,177,58.97308075772681,17.285531370038413,43.269230769230774,24.702653247941445,53.840383101746738
6138,2005,1686,319,216,889,761,140,55.08474576271186,22.10849539406346,60.67415730337079,32.40810202550637,57.038304392236974
6138,2005,1686,319,116,1081,575,234,59.67098703888335,16.78726483357453,33.14285714285714,22.286263208453413,53.00603864734299
6138,2005,1686,319,154,977,698,177,56.38085742771685,18.07511737089202,46.52567975830816,26.035502958579887,51.125310005861934
6138,2005,1686,319,141,990,700,175,56.38085742771685,16.76575505350773,44.620253164556964,24.373379429559208,52.994719496666917
6138,2005,1686,319,38,1354,322,291,69.42643391521197,10.555555555555555,11.55015197568389,11.030478955007256,51.809471821024147
6138,2005,1686,319,174,969,685,177,57.0074812967581,20.256111757857976,49.572649572649574,28.7603305785124,53.859072541055617
6138,2005,1686,319,212,855,784,154,53.21695760598504,21.285140562248998,57.92349726775956,31.130690161527163,54.011925837759264
6138,2005,1686,319,0,1644,3,358,81.99501246882794,0.0,0.0,0,44.333102678647137
6138,2005,1686,319,166,966,720,153,56.45885286783042,18.735891647855528,52.03761755485894,27.55186721991701,54.304209105411708
6086,2005,1660,345,176,969,714,147,57.07876370887338,19.775280898876403,54.4891640866873,29.018961253091508,55.244762319976303
6086,2005,1660,345,164,961,726,155,56.08175473579262,18.426966292134832,51.410658307210035,27.129859387923904,54.495282939981749
6086,2005,1660,345,162,969,707,168,56.38085742771685,18.642117376294593,49.09090909090909,27.022518765638033,52.842717147609754
6086,2005,1660,345,177,930,727,172,55.18444666001994,19.579646017699115,50.71633237822349,28.252194732641662,53.659995884439205
6086,2005,1660,345,172,937,722,175,55.28414755732801,19.23937360178971,49.56772334293948,27.719580983078163,52.968612389325202
6086,2005,1660,345,187,875,790,153,52.96758104738155,19.140225179119756,55.00000000000001,28.397873955960517,53.314432079137951
6086,2005,1660,345,157,995,682,171,57.45635910224439,18.71275327771156,47.86585365853659,26.906598114824334,55.349637127856077
6086,2005,1660,345,168,953,696,188,55.910224438902745,19.444444444444446,47.19101123595505,27.540983606557376,53.058714508622863
6086,2005,1660,345,186,937,717,165,56.00997506234414,20.59800664451827,52.991452991452995,29.665071770334926,54.482528757014848
6086,2005,1660,345,171,925,735,174,54.66334164588529,18.874172185430464,49.56521739130435,27.33812949640288,52.9030033176183

