Train Length,Test Length,Test Clean Cnt,Test Buggy Cnt,TP,TN,FP,FN,Accuracy,Precision,Recall,F1,AUC
8614,3312,2841,471,233,1673,1169,238,57.530938726230005,16.619115549215408,49.469214437367306,24.879871863320876,55.941698005800177
8614,3312,2841,471,186,1729,1099,299,57.80259583459101,14.474708171206228,38.35051546391753,21.016949152542377,54.240766123740514
8614,3312,2841,471,261,1601,1227,224,56.20283730757622,17.540322580645164,53.81443298969072,26.45717181956412,56.160850989369912
8614,3312,2841,471,185,1758,1117,253,58.64775128282523,14.208909370199693,42.23744292237443,21.264367816091955,55.772840976771889
8614,3312,2841,471,234,1666,1167,246,57.349833987322675,16.70235546038544,48.75,24.880382775119624,56.505875691257792
8614,3312,2841,471,182,1751,1082,298,58.34591005131301,14.39873417721519,37.916666666666664,20.871559633027523,55.169211083656897
8614,3312,2841,471,230,1740,1082,260,59.48067632850241,17.53048780487805,46.93877551020408,25.527192008879023,55.937459321077831
8614,3312,2841,471,227,1706,1148,231,58.36352657004831,16.509090909090908,49.56331877729257,24.76813966175668,57.682888950771613
8614,3312,2841,471,100,2311,481,420,72.79589371980676,17.21170395869191,19.230769230769234,18.165304268846505,55.446157978840645
8614,3312,2841,471,226,1688,1153,245,57.789855072463766,16.388687454677303,47.983014861995755,24.43243243243243,55.612949897280572
8624,3312,2846,466,269,1487,1342,215,53.00332025354664,16.69770328988206,55.578512396694215,25.68019093078759,56.78969878092601
8624,3312,2846,466,223,1641,1171,278,56.263205553878656,15.99713055954089,44.510978043912175,23.53562005277045,54.266999429306395
8624,3312,2846,466,77,2381,446,409,74.1925747057048,14.722753346080305,15.843621399176955,15.262636273538156,57.553594745553241
8624,3312,2846,466,212,1702,1176,223,57.77241171143979,15.273775216138327,48.735632183908045,23.258365331870543,55.704632048117709
8624,3312,2846,466,250,1636,1186,241,56.92725626320555,17.40947075208914,50.91649694501018,25.947067981318114,56.675582165730134
8624,3312,2846,466,228,1625,1240,220,55.93118019921521,15.531335149863759,50.89285714285714,23.799582463465548,53.929701134380458
8624,3312,2846,466,202,1737,1091,282,58.54468599033817,15.622583139984533,41.735537190082646,22.73494653911086,56.127479631079993
8624,3312,2846,466,256,1571,1252,233,55.16304347826087,16.976127320954905,52.3517382413088,25.638457686529794,55.130367192655719
8624,3312,2846,466,224,1743,1075,270,59.39009661835749,17.244033872209393,45.34412955465587,24.98605688789738,57.051976449832331
8624,3312,2846,466,239,1594,1252,227,55.34420289855072,16.02951039570758,51.28755364806867,24.425140521205925,54.887403146951222
8668,3312,2868,444,95,2312,528,378,72.65318442499246,15.248796147672552,20.084566596194502,17.33576642335766,54.962071583837059
8668,3312,2868,444,246,1565,1253,249,54.663447026863864,16.41094062708472,49.696969696969695,24.674022066198592,54.804861962420517
8668,3312,2868,444,250,1621,1188,254,56.474494415937215,17.385257301808068,49.60317460317461,25.746652935118437,56.321623523029714
8668,3312,2868,444,216,1714,1129,254,58.255357681859344,16.059479553903348,45.95744680851064,23.80165289256199,55.777909160985175
8668,3312,2868,444,284,1450,1387,192,52.33926954421973,16.99581089168163,59.66386554621849,26.455519329296695,56.877678812095866
8668,3312,2868,444,196,1813,1022,282,60.639903410805914,16.091954022988507,41.00418410041841,23.113207547169814,57.116918672009334
8668,3312,2868,444,244,1563,1271,234,54.559178743961354,16.105610561056103,51.04602510460251,24.485699949824383,53.553384928380133
8668,3312,2868,444,245,1693,1151,223,58.514492753623195,17.550143266475647,52.35042735042735,26.287553648068673,57.434004111219309
8668,3312,2868,444,250,1539,1281,242,54.01570048309179,16.32919660352711,50.81300813008131,24.71576866040534,54.867814103672949
8668,3312,2868,444,235,1615,1253,209,55.85748792270532,15.793010752688172,52.92792792792793,24.327122153209114,56.94943112568636
8580,3312,2824,488,274,1576,1242,221,55.840627829761544,18.073878627968337,55.35353535353536,27.250124316260568,57.366783520083729
8580,3312,2824,488,251,1607,1232,223,56.08210081497133,16.925151719487523,52.95358649789029,25.65150740929995,56.307303486846116
8580,3312,2824,488,256,1582,1256,219,55.47841835194688,16.93121693121693,53.89473684210526,25.767488676396574,55.874596639590514
8580,3312,2824,488,236,1656,1147,274,57.108361002112886,17.064352856109906,46.27450980392157,24.933967247754886,55.636397976957454
8580,3312,2824,488,225,1654,1190,244,56.715967401147,15.901060070671377,47.97441364605544,23.88535031847134,54.744886177910935
8580,3312,2824,488,228,1710,1153,222,58.49683066706912,16.509775524981897,50.66666666666667,24.904423812124524,56.921449916559943
8580,3312,2824,488,234,1684,1154,240,57.910628019323674,16.85878962536023,49.36708860759494,25.134264232008594,57.180466721973943
8580,3312,2824,488,224,1668,1174,246,57.125603864734295,16.02288984263233,47.65957446808511,23.98286937901499,56.127202898767727
8580,3312,2824,488,230,1674,1165,243,57.48792270531401,16.48745519713262,48.625792811839325,24.625267665952897,54.715168593294706
8580,3312,2824,488,250,1497,1327,238,52.7475845410628,15.852885225110972,51.229508196721305,24.213075060532688,53.64404344494497
8580,3312,2824,488,232,1679,1154,248,57.68185934198612,16.738816738816737,48.333333333333336,24.866023579849948,57.178859277562076
8580,3312,2824,488,207,1682,1165,259,57.01780863265922,15.087463556851313,44.4206008583691,22.52448313384113,54.470597014250366
8580,3312,2824,488,239,1581,1275,218,54.935104135224876,15.785997357992073,52.29759299781181,24.251648909183153,55.650662890976953
8580,3312,2824,488,221,1674,1151,267,57.19891337156655,16.107871720116616,45.28688524590164,23.763440860215052,54.841469606847525
8580,3312,2824,488,225,1685,1157,246,57.651675218834896,16.280752532561504,47.77070063694268,24.284943335132215,55.930977706259313
8580,3312,2824,488,256,1561,1271,225,54.8445517657712,16.764898493778652,53.222453222453225,25.498007968127492,53.746865346441616
8580,3312,2824,488,225,1718,1129,240,58.66545893719807,16.617429837518465,48.38709677419355,24.738867509620675,56.271155073629664
8580,3312,2824,488,246,1661,1172,233,57.578502415458935,17.348377997179128,51.356993736951985,25.935687928307857,56.988468003481188
8580,3312,2824,488,288,1512,1297,215,54.347826086956516,18.170347003154575,57.25646123260437,27.586206896551722,56.633994537580499
8580,3312,2824,488,266,1552,1272,222,54.891304347826086,17.29518855656697,54.50819672131148,26.25863770977295,56.879847211257143

