Train Length,Test Length,Test Clean Cnt,Test Buggy Cnt,TP,TN,FP,FN,Accuracy,Precision,Recall,F1,AUC
778,204,155,49,39,107,46,13,71.21951219512195,45.88235294117647,75.0,56.934306569343065,77.174459527400714
778,204,155,49,31,100,68,6,63.90243902439025,31.313131313131315,83.78378378378379,45.58823529411765,78.571428571428569
778,204,155,49,29,71,98,7,48.78048780487805,22.83464566929134,80.55555555555556,35.582822085889575,71.400394477317548
778,204,155,49,37,112,49,7,72.6829268292683,43.02325581395349,84.0909090909091,56.92307692307693,79.17843026538678
778,204,155,49,26,132,42,5,77.07317073170732,38.23529411764706,83.87096774193549,52.525252525252526,84.742306266221732
778,204,155,49,44,107,39,15,73.65853658536585,53.01204819277109,74.57627118644068,61.971830985915496,81.901555607151138
778,204,155,49,27,92,70,15,58.333333333333336,27.835051546391753,64.28571428571429,38.84892086330935,62.228101116989997
778,204,155,49,32,114,49,9,71.56862745098039,39.50617283950617,78.04878048780488,52.459016393442624,81.280861888373494
778,204,155,49,30,113,44,17,70.09803921568627,40.54054054054054,63.829787234042556,49.586776859504134,72.516601165469581
778,204,155,49,31,111,44,18,69.6078431372549,41.333333333333336,63.26530612244898,50.0,77.985516787360126
794,204,163,41,28,112,55,10,68.29268292682927,33.734939759036145,73.68421052631578,46.28099173553719,76.63094862905767
794,204,163,41,38,103,55,9,68.78048780487805,40.86021505376344,80.85106382978722,54.285714285714285,78.952329652572047
794,204,163,41,30,103,61,11,64.8780487804878,32.967032967032964,73.17073170731707,45.454545454545446,73.676383105294477
794,204,163,41,35,105,53,12,68.29268292682927,39.77272727272727,74.46808510638297,51.85185185185185,78.642607056288711
794,204,163,41,31,108,53,13,67.8048780487805,36.904761904761905,70.45454545454545,48.4375,77.526821005081885
794,204,163,41,42,102,47,14,70.24390243902438,47.19101123595505,75.0,57.93103448275862,76.695829338446785
794,204,163,41,24,117,49,14,69.11764705882352,32.87671232876712,63.1578947368421,43.24324324324324,77.362079898541538
794,204,163,41,38,93,67,6,64.2156862745098,36.19047619047619,86.36363636363636,51.006711409395976,78.735795454545453
794,204,163,41,30,120,42,12,73.52941176470588,41.66666666666667,71.42857142857143,52.631578947368425,83.436213991769549
794,204,163,41,33,115,48,8,72.54901960784314,40.74074074074074,80.48780487804879,54.098360655737714,81.430495286547952
762,204,147,57,35,103,57,10,67.31707317073172,38.04347826086957,77.77777777777779,51.09489051094891,79.430555555555557
762,204,147,57,38,112,45,10,73.17073170731707,45.78313253012048,79.16666666666666,58.01526717557252,80.281316348195332
762,204,147,57,28,117,46,14,70.73170731707317,37.83783783783784,66.66666666666666,48.275862068965516,75.277534326614074
762,204,147,57,29,112,58,6,68.78048780487805,33.33333333333333,82.85714285714286,47.54098360655737,82.722689075630257
762,204,147,57,31,81,73,20,54.63414634146342,29.807692307692307,60.78431372549019,40.0,62.184873949579831
762,204,147,57,32,117,50,6,72.6829268292683,39.02439024390244,84.21052631578947,53.333333333333336,81.783800819413813
762,204,147,57,24,120,49,11,70.58823529411765,32.87671232876712,68.57142857142857,44.44444444444444,83.364327979712598
762,204,147,57,31,108,53,12,68.13725490196079,36.904761904761905,72.09302325581395,48.818897637795274,74.461938465982954
762,204,147,57,32,119,41,12,74.01960784313727,43.83561643835616,72.72727272727273,54.700854700854705,80.73863636363636
762,204,147,57,41,59,88,16,49.01960784313725,31.782945736434108,71.9298245614035,44.08602150537635,69.208736126029351
802,204,167,37,42,104,42,17,71.21951219512195,50.0,71.1864406779661,58.74125874125874,74.483399117715365
802,204,167,37,26,134,35,10,78.04878048780488,42.62295081967213,72.22222222222221,53.60824742268041,84.69756738987509
802,204,167,37,40,83,71,11,60.0,36.03603603603604,78.43137254901961,49.38271604938272,72.676343264578563
802,204,167,37,31,107,55,12,67.31707317073172,36.04651162790697,72.09302325581395,48.06201550387596,74.93540051679588
802,204,167,37,29,94,65,17,60.0,30.851063829787233,63.04347826086957,41.42857142857143,63.30325403336068
802,204,167,37,33,109,45,18,69.26829268292683,42.30769230769231,64.70588235294117,51.16279069767442,77.196333078686024
802,204,167,37,36,100,61,7,66.66666666666666,37.11340206185567,83.72093023255815,51.42857142857142,78.723096923299153
802,204,167,37,26,119,49,10,71.07843137254902,34.66666666666667,72.22222222222221,46.84684684684685,79.828042328042329
802,204,167,37,28,112,56,8,68.62745098039215,33.33333333333333,77.77777777777779,46.666666666666664,81.068121693121697
802,204,167,37,27,109,58,10,66.66666666666666,31.76470588235294,72.97297297297297,44.26229508196721,79.495063926201652
796,204,164,40,45,95,50,15,68.29268292682927,47.368421052631575,75.0,58.064516129032256,75.551724137931046
796,204,164,40,30,98,64,13,62.4390243902439,31.914893617021278,69.76744186046511,43.7956204379562,70.255526844674137
796,204,164,40,38,117,39,11,75.60975609756098,49.35064935064935,77.55102040816327,60.317460317460316,82.600732600732599
796,204,164,40,27,116,49,13,69.7560975609756,35.526315789473685,67.5,46.55172413793103,77.121212121212125
796,204,164,40,33,100,58,14,64.8780487804878,36.26373626373626,70.2127659574468,47.82608695652174,76.326420684082962
796,204,164,40,24,97,72,12,59.02439024390244,25.0,66.66666666666666,36.36363636363637,64.579224194608827
796,204,164,40,25,131,40,8,76.47058823529412,38.46153846153847,75.75757575757575,51.020408163265316,80.063795853269539
796,204,164,40,29,109,49,17,67.64705882352942,37.17948717948718,63.04347826086957,46.7741935483871,74.738580077050088
796,204,164,40,36,114,46,8,73.52941176470588,43.90243902439025,81.81818181818183,57.14285714285715,86.534090909090907
796,204,164,40,34,121,43,6,75.98039215686273,44.15584415584416,85.0,58.11965811965812,88.41463414634147

