Train Length,Test Length,Test Clean Cnt,Test Buggy Cnt,TP,TN,FP,FN,Accuracy,Precision,Recall,F1,AUC
8568,3300,2823,477,472,1909,873,47,72.12965767949106,35.09293680297398,90.94412331406551,50.64377682403434,85.955544104752661
8568,3300,2823,477,414,1938,899,50,71.25113601938806,31.530845392231534,89.22413793103449,46.59538548114801,86.027539411471565
8568,3300,2823,477,412,2011,807,71,73.401999394123,33.79819524200164,85.30020703933747,48.41363102232667,86.37702465810591
8568,3300,2823,477,349,1872,985,94,67.3030303030303,26.16191904047976,78.78103837471784,39.279684862127176,79.758677550130301
8568,3300,2823,477,428,1918,929,25,71.0909090909091,31.54016212232867,94.48123620309052,47.29281767955802,87.635061421689372
8568,3300,2823,477,380,1960,888,72,70.9090909090909,29.96845425867508,84.070796460177,44.18604651162791,85.218240404693262
8568,3300,2823,477,466,1830,963,41,69.57575757575758,32.61021693491952,91.91321499013807,48.14049586776859,86.122886816929622
8568,3300,2823,477,412,1982,845,61,72.54545454545455,32.776451869530625,87.10359408033827,47.630057803468205,86.43038175371737
8568,3300,2823,477,434,1956,854,56,72.42424242424242,33.69565217391305,88.57142857142857,48.818897637795274,85.682039363788206
8568,3300,2823,477,404,1996,827,73,72.72727272727273,32.818846466287575,84.69601677148847,47.30679156908666,86.012768728867613
8516,3300,2797,503,426,1952,870,53,72.03877612844593,32.870370370370374,88.93528183716074,48.0,86.927422325924098
8516,3300,2797,503,398,2057,775,71,74.37140260527113,33.93009377664109,84.86140724946695,48.477466504263084,86.612413116017976
8516,3300,2797,503,402,1863,972,64,68.61557103907907,29.257641921397383,86.26609442060087,43.69565217391305,83.306234908523905
8516,3300,2797,503,421,1879,950,50,69.6969696969697,30.707512764405543,89.38428874734608,45.71118349619979,85.27455629028735
8516,3300,2797,503,385,2027,832,56,73.0909090909091,31.635168447000822,87.3015873015873,46.441495778045834,86.209519367966379
8516,3300,2797,503,440,1939,873,48,72.0909090909091,33.51104341203351,90.1639344262295,48.86174347584675,86.755241004593884
8516,3300,2797,503,447,1902,887,64,71.18181818181817,33.50824587706147,87.47553816046967,48.45528455284553,85.087066256238685
8516,3300,2797,503,416,1909,920,55,70.45454545454545,31.137724550898206,88.32271762208069,46.0431654676259,85.764064785483072
8516,3300,2797,503,393,1770,1068,69,65.54545454545455,26.899383983572893,85.06493506493507,40.87363494539782,81.176991906378817
8516,3300,2797,503,457,1762,1035,46,67.24242424242424,30.630026809651472,90.85487077534792,45.81453634085213,84.762074673873101
8510,3300,2794,506,433,1935,883,50,71.73583762496213,32.902735562310035,89.648033126294,48.137854363535304,86.901419005594022
8510,3300,2794,506,385,1883,947,86,68.7064525901242,28.903903903903906,81.74097664543525,42.70660011092624,82.636897661542619
8510,3300,2794,506,426,1862,938,75,69.31232959709179,31.2316715542522,85.02994011976048,45.683646112600535,82.058133732534941
8510,3300,2794,506,424,1927,891,58,71.24242424242424,32.243346007604565,87.96680497925311,47.18976071229827,85.737802920761325
8510,3300,2794,506,417,1983,833,67,72.72727272727273,33.36,86.15702479338843,48.096885813148795,86.162600957926358
8510,3300,2794,506,422,1894,929,55,70.18181818181817,31.236121391561806,88.46960167714884,46.1706783369803,84.896006226184895
8510,3300,2794,506,414,1982,856,48,72.60606060606061,32.59842519685039,89.6103896103896,47.80600461893764,86.025880978312273
8510,3300,2794,506,369,1919,931,81,69.33333333333334,28.384615384615387,82.0,42.17142857142858,83.104795321637425
8510,3300,2794,506,398,1987,868,47,72.27272727272728,31.437598736176938,89.43820224719101,46.52250146113384,86.899978354552417
8510,3300,2794,506,438,1802,992,68,67.87878787878789,30.629370629370626,86.56126482213439,45.24793388429752,84.15665556627556
8600,3300,2839,461,464,1829,964,44,69.46379884883369,32.49299719887955,91.33858267716536,47.93388429752066,87.498061802425084
8600,3300,2839,461,392,1896,935,78,69.31232959709179,29.540316503391107,83.40425531914893,43.62826933778519,81.816439571010932
8600,3300,2839,461,365,1863,987,86,67.49469857618904,26.997041420118347,80.93126385809313,40.488075429839164,79.773952619908968
8600,3300,2839,461,388,2006,831,75,72.54545454545455,31.829368334700575,83.8012958963283,46.13555291319857,84.968797843370268
8600,3300,2839,461,415,1884,957,44,69.66666666666667,30.247813411078717,90.41394335511983,45.33042053522665,86.63248004822016
8600,3300,2839,461,399,1796,1025,80,66.51515151515152,28.019662921348313,83.29853862212944,41.933788754598,81.842896143522452
8600,3300,2839,461,416,1817,999,68,67.66666666666666,29.39929328621908,85.9504132231405,43.81253291205898,81.687068580954175
8600,3300,2839,461,440,1919,883,58,71.48484848484848,33.25774754346183,88.35341365461848,48.325096101043385,86.459900988679905
8600,3300,2839,461,432,1936,876,56,71.75757575757575,33.02752293577982,88.52459016393442,48.10690423162584,85.631252477671808
8600,3300,2839,461,406,1891,948,55,69.60606060606061,29.98522895125554,88.06941431670282,44.73829201101928,83.037854366550803
8572,3300,2825,475,412,1983,844,62,72.55377158436838,32.802547770700635,86.91983122362869,47.630057803468205,86.361360240836177
8572,3300,2825,475,442,1893,922,44,70.73614056346563,32.40469208211144,90.94650205761316,47.78378378378378,86.625587497898536
8572,3300,2825,475,438,1892,919,52,70.58467131172372,32.277081798084005,89.38775510204081,47.42826204656199,85.738389272464588
8572,3300,2825,475,445,1952,854,49,72.63636363636363,34.257120862201695,90.08097165991903,49.63747908533185,87.080677322452473
8572,3300,2825,475,399,2037,791,73,73.81818181818181,33.52941176470588,84.53389830508475,48.014440433213,86.490197899935282
8572,3300,2825,475,362,1944,924,70,69.87878787878788,28.149300155520997,83.79629629629629,42.14202561117578,82.783806950255695
8572,3300,2825,475,408,1968,859,65,72.0,32.202052091554854,86.25792811839324,46.89655172413793,85.562878644541357
8572,3300,2825,475,399,1861,958,82,68.48484848484848,29.403095062638172,82.95218295218295,43.41675734494015,83.095330984653444
8572,3300,2825,475,415,1876,940,69,69.42424242424242,30.627306273062732,85.74380165289256,45.133224578575316,84.724390730653653
8572,3300,2825,475,424,1943,882,51,71.72727272727273,32.465543644716696,89.26315789473685,47.6137001684447,86.103884489986029

