Train Length,Test Length,Test Clean Cnt,Test Buggy Cnt,TP,TN,FP,FN,Accuracy,Precision,Recall,F1,AUC
5940,1951,1630,321,246,1117,499,90,69.82581967213115,33.02013422818792,73.21428571428571,45.51341350601295,76.674107142857125
5940,1951,1630,321,246,1120,514,71,70.01537672988212,32.36842105263158,77.60252365930599,45.6824512534819,77.21032553506133
5940,1951,1630,321,246,1123,484,98,70.16914402870323,33.6986301369863,71.51162790697676,45.8100558659218,78.044456664881849
5940,1951,1630,321,234,1152,456,109,71.04049205535622,33.91304347826087,68.22157434402332,45.30493707647628,75.950422813048462
5940,1951,1630,321,231,1154,459,107,70.98923628908253,33.47826086956522,68.34319526627219,44.94163424124513,76.78862936862842
5940,1951,1630,321,217,1012,623,99,62.99333675038442,25.833333333333336,68.67088607594937,37.543252595155714,73.869566058916888
5940,1951,1630,321,244,1159,454,94,71.91184008200922,34.95702005730659,72.18934911242604,47.10424710424711,80.427517544213615
5940,1951,1630,321,232,1153,487,79,70.98923628908253,32.26703755215577,74.59807073954984,45.04854368932038,76.592031997490395
5940,1951,1630,321,237,1111,513,90,69.0927729369554,31.6,72.47706422018348,44.01114206128135,73.894732679531799
5940,1951,1630,321,243,1165,465,78,72.16811891337775,34.32203389830508,75.70093457943925,47.23032069970845,78.06337557097261
5912,1951,1616,335,224,1134,497,97,69.56967213114754,31.06796116504854,69.78193146417445,42.994241842610364,75.617657114588638
5912,1951,1616,335,253,1162,457,79,72.5269092772937,35.63380281690141,76.20481927710844,48.56046065259117,79.690720882293846
5912,1951,1616,335,200,1181,492,78,70.7842132239877,28.901734104046245,71.94244604316546,41.23711340206186,75.142229312784082
5912,1951,1616,335,214,867,762,108,55.40748334187596,21.92622950819672,66.45962732919256,32.97380585516179,68.563002108522156
5912,1951,1616,335,216,1155,468,112,70.27165556125064,31.57894736842105,65.85365853658537,42.687747035573125,75.774217423320266
5912,1951,1616,335,218,1006,608,119,62.737057919015896,26.39225181598063,64.68842729970326,37.48925193465176,71.137009622774016
5912,1951,1616,335,255,1112,515,69,70.06663249615582,33.116883116883116,78.70370370370371,46.61791590493601,79.904410146676071
5912,1951,1616,335,245,1113,494,99,69.60533059969246,33.15290933694182,71.22093023255815,45.24469067405356,76.031099405218441
5912,1951,1616,335,284,1029,552,86,67.29882111737571,33.97129186602871,76.75675675675676,47.09784411276949,77.299519633485474
5912,1951,1616,335,261,1179,437,74,73.80830343413633,37.392550143266476,77.91044776119404,50.5324298160697,79.833567311955093
5930,1951,1625,326,251,827,782,92,55.22540983606557,24.298160696999034,73.17784256559767,36.48255813953489,71.713774740118907
5930,1951,1625,326,238,1169,452,92,72.11686314710406,34.492753623188406,72.12121212121212,46.66666666666667,76.793973043201902
5930,1951,1625,326,253,1068,539,91,67.70886724756535,31.944444444444443,73.54651162790698,44.54225352112676,76.419118391919056
5930,1951,1625,326,207,1124,515,105,68.2214249103024,28.670360110803323,66.34615384615384,40.03868471953578,70.978923202077553
5930,1951,1625,326,237,1135,462,117,70.32291132752435,33.90557939914164,66.94915254237289,45.01424501424502,76.209276574367905
5930,1951,1625,326,219,1169,466,97,71.14300358790364,31.97080291970803,69.30379746835443,43.756243756243755,75.773622885456589
5930,1951,1625,326,237,1098,534,82,68.42644797539722,30.739299610894943,74.29467084639498,43.486238532110086,77.719512569918265
5930,1951,1625,326,258,1128,483,82,71.04049205535622,34.81781376518219,75.88235294117646,47.73358001850138,79.185562493153682
5930,1951,1625,326,223,1174,470,84,71.60430548436699,32.17893217893218,72.63843648208469,44.6,77.415456065685504
5930,1951,1625,326,224,1174,451,102,71.6555612506407,33.18518518518518,68.71165644171779,44.75524475524475,75.422085889570553
5960,1951,1640,311,247,900,722,83,58.760245901639344,25.49019607843137,74.84848484848486,38.0292532717475,75.919179464185632
5960,1951,1640,311,256,1123,493,79,70.6817016914403,34.17890520694259,76.4179104477612,47.23247232472325,77.471922565390855
5960,1951,1640,311,235,1070,542,104,66.88877498718607,30.244530244530242,69.32153392330383,42.1146953405018,75.014364976540236
5960,1951,1640,311,239,1105,527,80,68.88774987186058,31.20104438642298,74.92163009404389,44.055299539170505,77.225570870981613
5960,1951,1640,311,271,1126,453,101,71.60430548436699,37.430939226519335,72.84946236559139,49.45255474452554,79.264983281919285
5960,1951,1640,311,246,1193,445,67,73.75704766786264,35.60057887120116,78.59424920127796,49.00398406374502,81.816249068645249
5960,1951,1640,311,237,1141,489,84,70.63044592516658,32.64462809917356,73.83177570093457,45.27220630372493,78.144697360625344
5960,1951,1640,311,237,879,744,91,57.20143516145566,24.159021406727827,72.2560975609756,36.210847975553854,73.301286386246488
5960,1951,1640,311,243,1140,488,80,70.88672475653512,33.2421340629275,75.23219814241486,46.110056925996204,77.590216870402628
5960,1951,1640,311,201,1131,509,110,68.27268067657612,28.30985915492958,64.63022508038586,39.373163565132224,72.604109481609285
5944,1951,1632,319,208,1106,549,89,67.3155737704918,27.476882430647294,70.03367003367003,39.46869070208729,75.567457047819588
5944,1951,1632,319,237,895,727,92,58.02152742183496,24.5850622406639,72.03647416413374,36.658932714617166,72.422691037744684
5944,1951,1632,319,232,1161,463,95,71.39928241927217,33.38129496402878,70.9480122324159,45.40117416829746,78.00245928804928
5944,1951,1632,319,272,1101,496,82,70.37416709379805,35.41666666666667,76.8361581920904,48.48484848484849,77.587567083762281
5944,1951,1632,319,236,1137,481,97,70.37416709379805,32.91492329149233,70.87087087087087,44.95238095238095,77.389317624175476
5944,1951,1632,319,262,924,687,78,60.78933880061507,27.60800842992624,77.05882352941177,40.651667959658646,78.32922554496659
5944,1951,1632,319,231,1135,491,94,70.01537672988212,31.994459833795013,71.07692307692308,44.12607449856734,76.763932254707171
5944,1951,1632,319,253,1059,554,85,67.247565351102,31.350681536555143,74.85207100591717,44.19213973799127,76.197188523718168
5944,1951,1632,319,247,1186,436,82,73.44951307022039,36.16398243045388,75.07598784194529,48.81422924901185,77.430767673966244
5944,1951,1632,319,239,1117,515,80,69.50281906714505,31.697612732095493,74.92163009404389,44.547996272134206,76.848031532362171

