djangoResult
=============================================
Accuracy : 68.2452780448
Precision: 61.9124872949
Recall   : 65.4345483229
F1       : 63.5687416191
AUC      : 73.6377237126
============================================
socketioResult
=============================================
Accuracy : 66.126960365
Precision: 20.7639213735
Recall   : 69.8829887558
F1       : 31.614735081
AUC      : 73.6540536087
============================================
dockerResult
=============================================
Accuracy : 70.0936603233
Precision: 31.0283175345
Recall   : 87.3207814842
F1       : 45.7532495053
AUC      : 85.0618241392
============================================
tensorflowResult
=============================================
Accuracy : 67.2686826218
Precision: 30.7753930082
Recall   : 72.3585719419
F1       : 43.0310674558
AUC      : 75.1722343378
============================================
notepadResult
=============================================
Accuracy : 68.8293222683
Precision: 51.918035562
Recall   : 75.2053780216
F1       : 61.2933302901
AUC      : 77.4334329083
============================================
tesseractResult
=============================================
Accuracy : 70.1951219512
Precision: 39.5649392067
Recall   : 74.0954262884
F1       : 51.4177760923
AUC      : 78.8738848095
============================================
cmakeResult
=============================================
Accuracy : 66.8515747598
Precision: 19.6557466808
Recall   : 81.6156949546
F1       : 31.5811536331
AUC      : 80.4923885117
============================================
cygwinResult
=============================================
Accuracy : 71.2621598816
Precision: 15.7792792033
Recall   : 66.7267706623
F1       : 25.4665482579
AUC      : 74.8702111539
============================================
scikitResult
=============================================
Accuracy : 68.4684628205
Precision: 50.6104180741
Recall   : 71.5086859683
F1       : 59.1539155657
AUC      : 75.2256827202
============================================
